pkt#,size,#dec,#op,#rung,#2gram,#3gram,#4gram,#5gram,#6gram,#7gram,#8gram,#9gram,#10gram,#11gram,#12gram,#13gram,#14gram,#15gram,#16gram,#17gram,#18gram,#19gram,#20gram,L2gram,L3gram,L4gram,L5gram,L6gram,L7gram,L8gram,L9gram,L10gram,L11gram,L12gram,L13gram,L14gram,L15gram,L16gram,L17gram,L18gram,L19gram,L20gram,entropy,class
73,82,0,0,0,80,79,78,77,75,74,0,0,0,0,0,0,0,0,0,0,0,0,0,80,79,78,77,75,74,0,0,0,0,0,0,0,0,0,0,0,0,0,0.19,0
75,158,0,10,1,146,131,119,112,108,105,1,0,0,0,0,0,0,0,0,0,0,0,0,82,80,79,78,77,76,1,0,0,0,0,0,0,0,0,0,0,0,0,1.26,0
77,160,6,11,1,143,115,101,90,83,78,1,0,0,0,0,0,0,0,0,0,0,0,0,82,81,80,77,76,75,1,0,0,0,0,0,0,0,0,0,0,0,0,1.83,0
79,240,6,18,0,208,150,124,106,90,79,1,0,0,0,0,0,0,0,0,0,0,0,0,83,80,79,77,76,74,1,0,0,0,0,0,0,0,0,0,0,0,0,2.55,0
81,240,6,8,1,217,161,136,119,95,78,1,0,0,0,0,0,0,0,0,0,0,0,0,93,79,78,77,76,74,1,0,0,0,0,0,0,0,0,0,0,0,0,2.39,0
83,234,16,15,0,213,165,140,120,93,80,0,0,0,0,0,0,0,0,0,0,0,0,0,84,83,81,80,79,78,0,0,0,0,0,0,0,0,0,0,0,0,0,2.11,0
85,144,0,1,0,133,123,116,114,113,110,0,0,0,0,0,0,0,0,0,0,0,0,0,117,116,115,114,113,110,0,0,0,0,0,0,0,0,0,0,0,0,0,1.17,0
87,160,0,0,0,159,158,157,156,155,154,0,0,0,0,0,0,0,0,0,0,0,0,0,159,158,157,156,155,154,0,0,0,0,0,0,0,0,0,0,0,0,0,0.00,1
89,160,0,0,0,159,157,154,152,151,150,0,0,0,0,0,0,0,0,0,0,0,0,0,159,155,153,152,151,150,0,0,0,0,0,0,0,0,0,0,0,0,0,0.11,1
91,160,0,1,1,159,157,155,153,151,149,0,0,0,0,0,0,0,0,0,0,0,0,0,159,153,152,151,150,149,0,0,0,0,0,0,0,0,0,0,0,0,0,0.16,1
93,160,6,3,1,159,158,157,155,151,149,1,0,0,0,0,0,0,0,0,0,0,0,0,159,158,157,149,148,147,1,0,0,0,0,0,0,0,0,0,0,0,0,0.22,1
95,160,6,4,1,159,157,155,153,150,148,3,2,1,0,0,0,0,0,0,0,0,0,0,159,149,148,147,145,144,3,2,1,0,0,0,0,0,0,0,0,0,0,0.33,1
97,160,6,3,1,159,158,157,156,155,152,9,6,3,2,1,0,0,0,0,0,0,0,0,159,158,157,156,155,142,9,4,3,2,1,0,0,0,0,0,0,0,0,0.44,1
99,160,6,4,1,159,158,157,156,154,151,9,7,5,4,3,2,1,0,0,0,0,0,0,159,158,157,156,142,141,9,6,5,4,3,2,1,0,0,0,0,0,0,0.49,1
101,160,14,4,1,159,158,157,155,153,151,10,8,7,6,5,4,3,2,1,0,0,0,0,159,158,157,141,140,139,9,8,7,6,5,4,3,2,1,0,0,0,0,0.54,1
103,160,14,5,1,159,157,155,153,150,148,11,10,9,8,7,6,5,4,3,2,1,0,0,159,141,140,139,137,136,11,10,9,8,7,6,5,4,3,2,1,0,0,0.65,1
105,160,14,4,1,159,158,157,155,153,149,13,12,11,10,9,8,7,6,5,4,3,2,1,159,158,157,139,138,134,13,12,11,10,9,8,7,6,5,4,3,2,1,0.75,1
107,160,14,5,1,159,158,157,155,152,149,15,14,13,12,11,10,9,8,7,6,5,4,3,159,158,157,137,134,133,15,14,13,12,11,10,9,8,7,6,5,4,3,0.79,1
109,160,22,6,1,159,157,155,153,151,149,17,16,15,14,13,12,11,10,9,8,7,6,5,159,135,134,133,132,131,17,16,15,14,13,12,11,10,9,8,7,6,5,0.84,1
111,160,22,7,1,159,158,157,155,151,149,19,18,17,16,15,14,13,12,11,10,9,8,7,159,158,157,133,130,129,19,18,17,16,15,14,13,12,11,10,9,8,7,0.89,1
113,160,22,7,1,159,157,155,153,150,148,21,20,19,18,17,16,15,14,13,12,11,10,9,159,131,130,129,127,126,21,20,19,18,17,16,15,14,13,12,11,10,9,0.98,1
115,160,22,6,1,159,158,157,156,155,152,27,26,25,24,23,22,21,20,19,18,17,16,15,159,158,157,156,155,124,27,26,25,24,23,22,21,20,19,18,17,16,15,1.06,1
117,160,22,6,1,159,158,157,156,155,152,27,26,25,24,23,22,21,20,19,18,17,16,15,159,158,157,156,155,124,27,26,25,24,23,22,21,20,19,18,17,16,15,1.06,1
119,160,22,6,1,159,158,157,156,155,152,27,26,25,24,23,22,21,20,19,18,17,16,15,159,158,157,156,155,124,27,26,25,24,23,22,21,20,19,18,17,16,15,1.06,1
121,160,22,7,1,159,157,154,152,150,148,29,28,27,26,25,24,23,22,21,20,19,18,17,159,123,121,120,119,118,29,28,27,26,25,24,23,22,21,20,19,18,17,1.16,1
123,160,32,6,2,159,157,155,153,151,149,31,30,29,28,27,26,25,24,23,22,21,20,19,159,121,120,119,118,117,31,30,29,28,27,26,25,24,23,22,21,20,19,1.22,1
125,160,38,8,2,159,158,157,155,151,149,33,32,31,30,29,28,27,26,25,24,23,22,21,159,158,157,117,116,115,33,32,31,30,29,28,27,26,25,24,23,22,21,1.26,1
127,160,38,9,2,159,157,155,153,150,148,35,34,33,32,31,30,29,28,27,26,25,24,23,159,117,116,115,113,112,35,34,33,32,31,30,29,28,27,26,25,24,23,1.34,1
129,160,38,8,2,159,158,157,156,155,152,41,38,35,34,33,32,31,30,29,28,27,26,25,159,158,157,156,155,110,41,36,35,34,33,32,31,30,29,28,27,26,25,1.41,1
132,160,38,9,2,159,158,157,156,154,151,41,39,37,36,35,34,33,32,31,30,29,28,27,159,158,157,156,110,109,41,38,37,36,35,34,33,32,31,30,29,28,27,1.45,1
135,160,46,9,2,159,157,155,153,151,149,41,40,39,38,37,36,35,34,33,32,31,30,29,159,111,110,109,108,107,41,40,39,38,37,36,35,34,33,32,31,30,29,1.50,1
137,160,46,9,2,159,158,157,154,151,149,43,42,41,40,39,38,37,36,35,34,33,32,31,159,158,157,107,106,105,43,42,41,40,39,38,37,36,35,34,33,32,31,1.55,1
139,160,46,10,2,159,157,155,153,150,148,45,44,43,42,41,40,39,38,37,36,35,34,33,159,107,106,105,103,102,45,44,43,42,41,40,39,38,37,36,35,34,33,1.64,1
141,160,46,9,2,159,158,157,155,153,150,49,48,47,46,45,44,43,42,41,40,39,38,37,159,158,157,103,102,100,49,48,47,46,45,44,43,42,41,40,39,38,37,1.73,1
143,160,46,9,2,159,158,157,155,153,150,49,48,47,46,45,44,43,42,41,40,39,38,37,159,158,157,103,102,100,49,48,47,46,45,44,43,42,41,40,39,38,37,1.73,1
145,160,46,10,2,159,158,157,156,155,154,56,53,51,50,49,48,47,46,45,44,43,42,41,159,158,157,156,155,154,53,52,51,50,49,48,47,46,45,44,43,42,41,1.83,1
147,160,46,10,2,159,158,157,156,155,154,56,53,51,50,49,48,47,46,45,44,43,42,41,159,158,157,156,155,154,53,52,51,50,49,48,47,46,45,44,43,42,41,1.83,1
149,160,46,11,2,159,158,157,156,154,152,58,56,54,52,51,50,49,48,47,46,45,44,43,159,158,157,156,94,93,58,54,53,52,51,50,49,48,47,46,45,44,43,1.88,1
151,160,62,12,2,159,158,157,155,153,151,59,58,57,56,55,54,53,52,51,50,49,48,47,159,158,157,93,92,91,59,58,57,56,55,54,53,52,51,50,49,48,47,1.93,1
153,160,62,12,2,159,158,157,155,153,151,59,58,57,56,55,54,53,52,51,50,49,48,47,159,158,157,93,92,91,59,58,57,56,55,54,53,52,51,50,49,48,47,1.93,1
155,160,62,12,2,159,158,157,156,155,153,66,64,62,60,58,56,55,54,53,52,51,50,49,159,158,157,156,155,86,66,60,59,58,57,56,55,54,53,52,51,50,49,2.01,1
157,160,62,13,2,159,158,157,156,153,151,65,64,63,62,61,60,59,58,57,56,55,54,53,159,158,157,156,86,85,65,64,63,62,61,60,59,58,57,56,55,54,53,2.07,1
159,160,62,13,2,159,158,157,156,153,151,65,64,63,62,61,60,59,58,57,56,55,54,53,159,158,157,156,86,85,65,64,63,62,61,60,59,58,57,56,55,54,53,2.07,1
161,160,62,14,2,158,156,154,152,150,148,67,66,65,64,63,62,61,60,59,58,57,56,55,85,84,83,82,81,80,67,66,65,64,63,62,61,60,59,58,57,56,55,2.17,1
163,160,70,14,3,159,158,156,153,151,149,69,68,67,66,65,64,63,62,61,60,59,58,57,159,158,83,81,80,79,69,68,67,66,65,64,63,62,61,60,59,58,57,2.22,1
166,160,76,15,3,159,158,157,155,151,149,71,70,69,68,67,66,65,64,63,62,61,60,59,159,158,157,79,78,77,71,70,69,68,67,66,65,64,63,62,61,60,59,2.26,1
168,160,76,16,3,159,157,155,153,150,148,73,72,71,70,69,68,67,66,65,64,63,62,61,159,79,78,77,75,74,73,72,71,70,69,68,67,66,65,64,63,62,61,2.33,1
170,188,76,15,3,187,186,185,184,183,180,78,75,72,70,69,68,67,66,65,64,63,62,61,187,186,185,184,183,100,73,72,71,70,69,68,67,66,65,64,63,62,61,2.10,1
173,186,72,16,2,185,184,183,182,180,177,76,72,69,68,67,66,65,64,63,62,61,60,59,185,184,183,182,100,99,71,70,69,68,67,66,65,64,63,62,61,60,59,2.15,1
175,184,80,16,2,183,182,181,179,177,175,75,71,69,67,65,64,63,62,61,60,59,58,57,183,182,181,99,98,97,69,68,67,66,65,64,63,62,61,60,59,58,57,2.11,1
177,182,78,15,2,181,180,179,177,175,173,73,69,67,65,63,62,61,60,59,58,57,56,55,181,180,179,99,98,97,67,66,65,64,63,62,61,60,59,58,57,56,55,2.08,1
179,180,70,13,2,179,178,177,176,175,173,78,73,69,64,61,60,59,58,57,56,55,54,53,179,178,177,176,175,92,65,64,63,62,61,60,59,58,57,56,55,54,53,2.13,1
181,178,70,14,2,177,176,175,174,171,169,75,70,66,63,60,58,57,56,55,54,53,52,51,177,176,175,174,92,91,63,62,61,60,59,58,57,56,55,54,53,52,51,2.12,1
183,176,78,15,2,175,174,173,171,169,167,75,71,68,65,62,60,58,56,54,52,51,50,49,175,174,173,91,90,89,61,60,59,58,57,56,55,54,53,52,51,50,49,2.12,1
185,174,78,15,2,173,172,171,169,167,165,73,69,66,63,60,58,56,54,52,50,49,48,47,173,172,171,91,90,89,59,58,57,56,55,54,53,52,51,50,49,48,47,2.11,1
187,172,70,14,2,171,170,169,168,167,165,78,73,69,65,61,58,56,54,52,50,48,46,45,171,170,169,168,167,84,57,56,55,54,53,52,51,50,49,48,47,46,45,2.15,1
189,170,70,15,2,169,168,167,166,164,162,76,72,69,66,63,61,59,57,55,53,51,49,47,169,168,167,166,84,83,55,54,53,52,51,50,49,48,47,46,45,44,43,2.13,1
191,168,70,15,2,167,166,165,164,162,160,74,70,67,64,61,59,57,55,53,51,49,47,45,167,166,165,164,84,83,53,52,51,50,49,48,47,46,45,44,43,42,41,2.08,1
193,166,70,16,2,165,164,163,161,158,154,73,69,66,63,60,58,56,54,52,50,48,46,44,165,164,163,81,79,78,51,50,49,48,47,46,45,44,43,42,41,40,39,2.12,1
195,164,68,13,3,163,162,160,157,155,153,73,69,66,63,60,58,56,54,52,50,48,46,44,163,162,81,79,78,77,49,48,47,46,45,44,43,42,41,40,39,38,37,2.14,1
197,162,74,14,3,161,159,157,155,153,151,73,69,66,63,60,58,56,54,52,50,48,46,44,161,80,79,78,77,76,47,46,45,44,43,42,41,40,39,38,37,36,35,2.16,1
199,160,12,11,0,153,136,124,115,108,103,0,0,0,0,0,0,0,0,0,0,0,0,0,103,102,101,100,99,98,0,0,0,0,0,0,0,0,0,0,0,0,0,1.08,0
201,170,12,11,0,163,146,134,125,118,113,0,0,0,0,0,0,0,0,0,0,0,0,0,113,112,111,110,109,108,0,0,0,0,0,0,0,0,0,0,0,0,0,1.03,0
203,160,0,6,0,154,142,133,125,121,118,0,0,0,0,0,0,0,0,0,0,0,0,0,124,123,121,119,118,117,0,0,0,0,0,0,0,0,0,0,0,0,0,0.91,0
205,240,0,9,0,232,214,203,192,182,177,0,0,0,0,0,0,0,0,0,0,0,0,0,103,99,98,97,94,93,0,0,0,0,0,0,0,0,0,0,0,0,0,0.92,0
207,240,0,7,0,231,214,207,199,185,179,0,0,0,0,0,0,0,0,0,0,0,0,0,90,89,88,87,85,84,0,0,0,0,0,0,0,0,0,0,0,0,0,0.73,0
209,186,0,5,0,179,167,161,155,145,138,0,0,0,0,0,0,0,0,0,0,0,0,0,116,82,81,80,79,76,0,0,0,0,0,0,0,0,0,0,0,0,0,0.63,0
211,160,12,11,0,153,136,124,115,108,103,0,0,0,0,0,0,0,0,0,0,0,0,0,103,102,101,100,99,98,0,0,0,0,0,0,0,0,0,0,0,0,0,1.08,0
213,170,12,11,0,163,146,134,125,118,113,0,0,0,0,0,0,0,0,0,0,0,0,0,113,112,111,110,109,108,0,0,0,0,0,0,0,0,0,0,0,0,0,1.03,0
215,160,6,12,0,154,137,125,118,110,108,0,0,0,0,0,0,0,0,0,0,0,0,0,114,113,112,111,109,108,0,0,0,0,0,0,0,0,0,0,0,0,0,1.06,0
217,182,6,13,0,175,156,143,135,125,122,0,0,0,0,0,0,0,0,0,0,0,0,0,80,78,77,76,75,74,0,0,0,0,0,0,0,0,0,0,0,0,0,1.05,0
219,92,2,1,0,91,87,83,77,75,74,0,0,0,0,0,0,0,0,0,0,0,0,0,91,78,77,76,75,74,0,0,0,0,0,0,0,0,0,0,0,0,0,0.41,0
221,108,6,2,0,107,106,102,93,80,76,0,0,0,0,0,0,0,0,0,0,0,0,0,107,106,80,79,77,76,0,0,0,0,0,0,0,0,0,0,0,0,0,0.45,0
223,114,0,1,0,112,109,106,103,99,97,0,0,0,0,0,0,0,0,0,0,0,0,0,112,79,78,77,76,75,0,0,0,0,0,0,0,0,0,0,0,0,0,0.27,0
225,82,0,0,0,81,80,79,78,77,76,0,0,0,0,0,0,0,0,0,0,0,0,0,81,80,79,78,77,76,0,0,0,0,0,0,0,0,0,0,0,0,0,0.00,0
227,92,0,0,0,91,90,89,88,87,86,0,0,0,0,0,0,0,0,0,0,0,0,0,91,90,89,88,87,86,0,0,0,0,0,0,0,0,0,0,0,0,0,0.00,0
229,96,0,0,0,95,94,93,92,91,90,0,0,0,0,0,0,0,0,0,0,0,0,0,95,94,93,92,91,90,0,0,0,0,0,0,0,0,0,0,0,0,0,0.00,0
231,160,0,1,1,158,152,149,145,139,136,0,0,0,0,0,0,0,0,0,0,0,0,0,156,132,131,130,129,128,0,0,0,0,0,0,0,0,0,0,0,0,0,0.28,0
233,212,0,4,1,205,196,190,182,170,166,0,0,0,0,0,0,0,0,0,0,0,0,0,117,88,87,85,83,82,0,0,0,0,0,0,0,0,0,0,0,0,0,0.56,0
235,82,0,0,0,81,80,79,78,77,76,0,0,0,0,0,0,0,0,0,0,0,0,0,81,80,79,78,77,76,0,0,0,0,0,0,0,0,0,0,0,0,0,0.00,0
237,86,0,1,0,85,83,81,79,78,77,0,0,0,0,0,0,0,0,0,0,0,0,0,85,82,81,79,78,77,0,0,0,0,0,0,0,0,0,0,0,0,0,0.09,0
239,86,0,0,0,85,84,83,82,81,80,0,0,0,0,0,0,0,0,0,0,0,0,0,85,84,83,82,81,80,0,0,0,0,0,0,0,0,0,0,0,0,0,0.00,0
241,86,0,0,0,85,84,83,82,81,80,0,0,0,0,0,0,0,0,0,0,0,0,0,85,84,83,82,81,80,0,0,0,0,0,0,0,0,0,0,0,0,0,0.00,0
243,82,0,0,0,81,80,79,78,77,76,0,0,0,0,0,0,0,0,0,0,0,0,0,81,80,79,78,77,76,0,0,0,0,0,0,0,0,0,0,0,0,0,0.00,0
245,84,0,0,0,83,82,81,80,79,78,0,0,0,0,0,0,0,0,0,0,0,0,0,83,82,81,80,79,78,0,0,0,0,0,0,0,0,0,0,0,0,0,0.00,0
247,104,0,0,0,103,90,83,76,75,74,0,0,0,0,0,0,0,0,0,0,0,0,0,103,78,77,76,75,74,0,0,0,0,0,0,0,0,0,0,0,0,0,0.52,0
249,112,0,0,0,111,94,85,76,75,74,0,0,0,0,0,0,0,0,0,0,0,0,0,111,78,77,76,75,74,0,0,0,0,0,0,0,0,0,0,0,0,0,0.59,0
251,160,0,0,0,149,136,126,109,95,89,0,0,0,0,0,0,0,0,0,0,0,0,0,97,92,79,78,76,75,0,0,0,0,0,0,0,0,0,0,0,0,0,0.85,0
253,240,0,0,0,219,192,173,140,114,103,0,0,0,0,0,0,0,0,0,0,0,0,0,105,78,77,76,75,74,0,0,0,0,0,0,0,0,0,0,0,0,0,1.04,0
255,216,0,0,0,195,170,154,127,109,101,0,0,0,0,0,0,0,0,0,0,0,0,0,89,84,83,82,81,80,0,0,0,0,0,0,0,0,0,0,0,0,0,1.05,0
257,160,0,0,0,159,152,149,144,139,136,0,0,0,0,0,0,0,0,0,0,0,0,0,159,96,95,94,93,92,0,0,0,0,0,0,0,0,0,0,0,0,0,0.23,0
259,170,0,0,0,169,162,159,154,149,146,0,0,0,0,0,0,0,0,0,0,0,0,0,169,106,105,104,103,102,0,0,0,0,0,0,0,0,0,0,0,0,0,0.22,0
261,140,0,0,0,139,132,129,124,119,116,0,0,0,0,0,0,0,0,0,0,0,0,0,139,96,95,94,93,92,0,0,0,0,0,0,0,0,0,0,0,0,0,0.26,0
263,88,0,0,0,87,86,85,84,83,82,0,0,0,0,0,0,0,0,0,0,0,0,0,87,86,85,84,83,82,0,0,0,0,0,0,0,0,0,0,0,0,0,0.00,0
267,144,0,6,1,136,128,119,108,84,76,0,0,0,0,0,0,0,0,0,0,0,0,0,81,80,79,78,76,75,0,0,0,0,0,0,0,0,0,0,0,0,0,0.72,0
269,112,0,2,0,109,106,103,99,94,90,0,0,0,0,0,0,0,0,0,0,0,0,0,92,91,83,82,78,77,0,0,0,0,0,0,0,0,0,0,0,0,0,0.28,0
317,160,12,11,0,153,136,124,115,108,103,0,0,0,0,0,0,0,0,0,0,0,0,0,103,102,101,100,99,98,0,0,0,0,0,0,0,0,0,0,0,0,0,1.08,0
319,170,12,11,0,163,146,134,125,118,113,0,0,0,0,0,0,0,0,0,0,0,0,0,113,112,111,110,109,108,0,0,0,0,0,0,0,0,0,0,0,0,0,1.03,0
321,160,12,11,0,153,136,124,115,108,103,0,0,0,0,0,0,0,0,0,0,0,0,0,103,102,101,100,99,98,0,0,0,0,0,0,0,0,0,0,0,0,0,1.08,0
323,170,12,11,0,163,146,134,125,118,113,0,0,0,0,0,0,0,0,0,0,0,0,0,113,112,111,110,109,108,0,0,0,0,0,0,0,0,0,0,0,0,0,1.03,0
325,160,6,13,0,153,134,121,113,103,100,0,0,0,0,0,0,0,0,0,0,0,0,0,58,56,55,54,53,52,0,0,0,0,0,0,0,0,0,0,0,0,0,1.16,0
327,182,6,13,0,175,156,143,135,125,122,0,0,0,0,0,0,0,0,0,0,0,0,0,80,78,77,76,75,74,0,0,0,0,0,0,0,0,0,0,0,0,0,1.05,0
329,160,0,9,0,152,134,123,112,102,97,0,0,0,0,0,0,0,0,0,0,0,0,0,99,91,89,87,84,83,0,0,0,0,0,0,0,0,0,0,0,0,0,1.28,0
331,240,0,13,0,226,198,183,168,151,143,0,0,0,0,0,0,0,0,0,0,0,0,0,99,91,89,87,84,83,0,0,0,0,0,0,0,0,0,0,0,0,0,1.33,0
333,240,0,8,0,231,213,205,196,180,171,0,0,0,0,0,0,0,0,0,0,0,0,0,90,56,55,54,53,50,0,0,0,0,0,0,0,0,0,0,0,0,0,0.81,0
335,186,0,5,0,179,167,161,155,145,138,0,0,0,0,0,0,0,0,0,0,0,0,0,116,82,81,80,79,76,0,0,0,0,0,0,0,0,0,0,0,0,0,0.63,0
