pkt#,size,#dec,#op,#rung,#2gram,#3gram,#4gram,#5gram,#6gram,#7gram,#8gram,#9gram,#10gram,#11gram,#12gram,#13gram,#14gram,#15gram,#16gram,#17gram,#18gram,#19gram,#20gram,L2gram,L3gram,L4gram,L5gram,L6gram,L7gram,L8gram,L9gram,L10gram,L11gram,L12gram,L13gram,L14gram,L15gram,L16gram,L17gram,L18gram,L19gram,L20gram,entropy,class
1283,82,0,0,0,80,79,78,77,75,74,0,0,0,0,0,0,0,0,0,0,0,0,0,80,79,78,77,75,74,0,0,0,0,0,0,0,0,0,0,0,0,0,0.19,0
1285,158,0,10,1,147,132,119,112,107,104,0,0,0,0,0,0,0,0,0,0,0,0,0,82,80,79,78,77,76,0,0,0,0,0,0,0,0,0,0,0,0,0,1.26,0
1287,160,6,11,1,140,113,99,89,83,78,1,0,0,0,0,0,0,0,0,0,0,0,0,81,79,78,77,76,75,1,0,0,0,0,0,0,0,0,0,0,0,0,1.84,0
1289,240,6,17,0,206,151,125,106,91,80,1,0,0,0,0,0,0,0,0,0,0,0,0,83,80,79,77,76,74,1,0,0,0,0,0,0,0,0,0,0,0,0,2.59,0
1291,240,6,7,2,218,163,138,116,92,77,1,0,0,0,0,0,0,0,0,0,0,0,0,93,80,79,77,76,74,1,0,0,0,0,0,0,0,0,0,0,0,0,2.42,0
1293,234,16,15,1,213,164,139,117,90,78,0,0,0,0,0,0,0,0,0,0,0,0,0,84,83,81,80,79,78,0,0,0,0,0,0,0,0,0,0,0,0,0,2.13,0
1295,144,0,2,0,132,123,116,114,113,111,1,0,0,0,0,0,0,0,0,0,0,0,0,117,116,115,114,113,111,1,0,0,0,0,0,0,0,0,0,0,0,0,1.22,0
1297,160,0,0,0,159,158,157,156,155,154,0,0,0,0,0,0,0,0,0,0,0,0,0,159,158,157,156,155,154,0,0,0,0,0,0,0,0,0,0,0,0,0,0.00,1
1299,160,0,0,0,158,156,154,152,151,150,0,0,0,0,0,0,0,0,0,0,0,0,0,155,154,153,152,151,150,0,0,0,0,0,0,0,0,0,0,0,0,0,0.11,1
1301,160,0,2,1,159,158,156,154,152,149,0,0,0,0,0,0,0,0,0,0,0,0,0,159,158,153,152,151,149,0,0,0,0,0,0,0,0,0,0,0,0,0,0.16,1
1303,160,6,2,1,159,158,157,154,151,149,1,0,0,0,0,0,0,0,0,0,0,0,0,159,158,157,149,148,147,1,0,0,0,0,0,0,0,0,0,0,0,0,0.22,1
1305,160,8,3,1,159,157,155,153,150,148,3,2,1,0,0,0,0,0,0,0,0,0,0,159,149,148,147,145,144,3,2,1,0,0,0,0,0,0,0,0,0,0,0.33,1
1307,160,10,4,1,159,158,157,155,153,151,7,5,3,2,1,0,0,0,0,0,0,0,0,159,158,157,145,144,143,7,4,3,2,1,0,0,0,0,0,0,0,0,0.38,1
1309,160,10,5,1,159,157,155,153,150,148,7,6,5,4,3,2,1,0,0,0,0,0,0,159,145,144,143,141,140,7,6,5,4,3,2,1,0,0,0,0,0,0,0.49,1
1311,160,10,4,1,159,157,155,153,151,148,9,8,7,6,5,4,3,2,1,0,0,0,0,159,143,142,141,140,138,9,8,7,6,5,4,3,2,1,0,0,0,0,0.60,1
1313,160,10,4,1,159,158,157,155,152,149,11,10,9,8,7,6,5,4,3,2,1,0,0,159,158,157,141,138,137,11,10,9,8,7,6,5,4,3,2,1,0,0,0.65,1
1315,160,18,5,1,159,157,155,153,150,148,13,12,11,10,9,8,7,6,5,4,3,2,1,159,139,138,137,135,134,13,12,11,10,9,8,7,6,5,4,3,2,1,0.75,1
1317,160,20,4,1,159,158,156,153,151,149,15,14,13,12,11,10,9,8,7,6,5,4,3,159,158,137,135,134,133,15,14,13,12,11,10,9,8,7,6,5,4,3,0.80,1
1319,160,22,6,1,159,158,157,155,153,151,19,18,16,15,14,13,12,11,10,9,8,7,6,159,158,157,133,132,131,19,18,16,15,14,13,12,11,10,9,8,7,6,0.84,1
1321,160,22,6,1,159,158,157,155,152,149,19,18,17,16,15,14,13,12,11,10,9,8,7,159,158,157,133,129,128,19,18,17,16,15,14,13,12,11,10,9,8,7,0.90,1
1323,160,22,6,1,159,158,157,155,153,150,23,22,21,20,19,18,17,15,13,12,11,10,9,159,158,157,129,128,126,23,22,21,20,19,18,17,14,13,12,11,10,9,0.99,1
1325,160,22,7,1,159,158,157,155,152,149,23,22,21,20,19,18,17,16,15,14,13,12,11,159,158,157,129,126,125,23,22,21,20,19,18,17,16,15,14,13,12,11,1.03,1
1327,160,30,7,1,159,158,157,154,151,149,25,24,23,22,21,20,19,18,17,16,15,14,13,159,158,157,125,124,123,25,24,23,22,21,20,19,18,17,16,15,14,13,1.09,1
1329,160,32,8,1,159,158,156,154,151,149,27,26,25,24,23,22,21,20,19,18,17,16,15,159,158,125,124,122,121,27,26,25,24,23,22,21,20,19,18,17,16,15,1.14,1
1331,160,34,8,1,159,158,157,155,152,150,30,28,27,26,25,24,23,22,21,20,19,18,17,159,158,157,121,120,119,30,28,27,26,25,24,23,22,21,20,19,18,17,1.19,1
1333,160,34,9,1,159,157,155,153,150,148,31,30,29,28,27,26,25,24,23,22,21,20,19,159,121,120,119,117,116,31,30,29,28,27,26,25,24,23,22,21,20,19,1.27,1
1335,160,34,8,1,159,158,156,154,152,149,33,32,31,30,29,28,27,26,25,24,23,22,21,159,158,119,118,117,114,33,32,31,30,29,28,27,26,25,24,23,22,21,1.36,1
1337,160,34,9,1,159,158,157,155,151,149,35,34,33,32,31,30,29,28,27,26,25,24,23,159,158,157,117,114,113,35,34,33,32,31,30,29,28,27,26,25,24,23,1.41,1
1339,160,42,10,1,159,158,157,155,152,150,38,37,36,35,34,33,32,31,30,29,28,27,26,159,158,157,113,112,111,38,37,36,35,34,33,32,31,30,29,28,27,26,1.45,1
1341,160,42,10,1,159,158,157,155,152,149,39,38,37,36,35,34,33,32,31,30,29,28,27,159,158,157,113,109,108,39,38,37,36,35,34,33,32,31,30,29,28,27,1.49,1
1343,160,42,10,1,159,158,157,155,153,150,43,42,41,40,39,38,37,36,35,34,33,32,31,159,158,157,109,108,106,43,42,41,40,39,38,37,36,35,34,33,32,31,1.56,1
1345,160,42,10,1,159,158,157,155,153,150,43,42,41,40,39,38,37,36,35,34,33,32,31,159,158,157,109,108,106,43,42,41,40,39,38,37,36,35,34,33,32,31,1.56,1
1347,160,50,12,1,159,158,157,155,153,149,45,44,43,42,41,40,39,38,37,36,35,34,33,159,158,157,105,104,103,45,44,43,42,41,40,39,38,37,36,35,34,33,1.59,1
1349,160,50,13,1,159,157,155,153,150,148,47,46,45,44,43,42,41,40,39,38,37,36,35,159,105,104,103,101,100,47,46,45,44,43,42,41,40,39,38,37,36,35,1.68,1
1351,160,50,12,1,159,158,157,156,155,152,53,50,47,46,45,44,43,42,41,40,39,38,37,159,158,157,156,155,98,53,48,47,46,45,44,43,42,41,40,39,38,37,1.77,1
1353,160,50,13,1,159,158,157,155,152,149,51,50,49,48,47,46,45,44,43,42,41,40,39,159,158,157,101,98,97,51,50,49,48,47,46,45,44,43,42,41,40,39,1.82,1
1355,160,58,14,1,159,158,157,155,151,149,53,52,51,50,49,48,47,46,45,44,43,42,41,159,158,157,97,96,95,53,52,51,50,49,48,47,46,45,44,43,42,41,1.85,1
1357,160,58,15,1,159,157,155,153,150,148,55,54,53,52,51,50,49,48,47,46,45,44,43,159,97,96,95,93,92,55,54,53,52,51,50,49,48,47,46,45,44,43,1.92,1
1359,160,58,14,1,159,157,155,153,151,148,57,56,55,54,53,52,51,50,49,48,47,46,45,159,95,94,93,92,90,57,56,55,54,53,52,51,50,49,48,47,46,45,2.00,1
1361,160,58,15,1,159,158,157,155,152,149,59,58,57,56,55,54,53,52,51,50,49,48,47,159,158,157,93,90,89,59,58,57,56,55,54,53,52,51,50,49,48,47,2.03,1
1363,160,66,16,1,159,158,157,155,151,149,61,60,59,58,57,56,55,54,53,52,51,50,49,159,158,157,89,88,87,61,60,59,58,57,56,55,54,53,52,51,50,49,2.06,1
1365,160,66,17,1,159,157,155,153,150,148,63,62,61,60,59,58,57,56,55,54,53,52,51,159,89,88,87,85,84,63,62,61,60,59,58,57,56,55,54,53,52,51,2.12,1
1367,160,66,16,1,159,158,157,156,155,152,69,66,63,62,61,60,59,58,57,56,55,54,53,159,158,157,156,155,82,69,64,63,62,61,60,59,58,57,56,55,54,53,2.19,1
1369,160,66,17,1,159,158,157,155,151,149,67,66,65,64,63,62,61,60,59,58,57,56,55,159,158,157,85,82,81,67,66,65,64,63,62,61,60,59,58,57,56,55,2.22,1
1371,160,74,17,1,159,157,155,153,150,148,69,68,67,66,65,64,63,62,61,60,59,58,57,159,83,82,81,79,78,69,68,67,66,65,64,63,62,61,60,59,58,57,2.30,1
1373,160,74,18,1,159,158,156,154,151,149,71,70,69,68,67,66,65,64,63,62,61,60,59,159,158,81,80,78,77,71,70,69,68,67,66,65,64,63,62,61,60,59,2.33,1
1375,160,74,18,1,159,157,155,153,150,148,73,72,71,70,69,68,67,66,65,64,63,62,61,159,79,78,77,75,74,73,72,71,70,69,68,67,66,65,64,63,62,61,2.41,1
1377,240,74,17,1,239,237,235,233,230,226,73,72,71,70,69,68,67,66,65,64,63,62,61,239,157,156,155,154,152,73,72,71,70,69,68,67,66,65,64,63,62,61,1.81,1
1379,238,68,17,0,237,236,234,232,228,223,71,70,69,68,67,66,65,64,63,62,61,60,59,237,236,157,156,152,151,71,70,69,68,67,66,65,64,63,62,61,60,59,1.85,1
1381,236,68,17,0,235,234,232,230,226,221,69,68,67,66,65,64,63,62,61,60,59,58,57,235,234,157,156,152,151,69,68,67,66,65,64,63,62,61,60,59,58,57,1.78,1
1383,234,68,16,0,232,230,227,224,220,216,68,66,65,64,63,62,61,60,59,58,57,56,55,151,150,149,148,147,146,67,66,65,64,63,62,61,60,59,58,57,56,55,1.83,1
1385,232,76,16,0,231,230,227,223,219,215,68,66,64,62,61,60,59,58,57,56,55,54,53,231,230,149,147,146,145,65,64,63,62,61,60,59,58,57,56,55,54,53,1.84,1
1387,230,80,16,0,229,228,226,222,217,213,68,66,64,62,60,58,57,56,55,54,53,52,51,229,228,157,145,144,143,63,62,61,60,59,58,57,56,55,54,53,52,51,1.83,1
1389,228,74,15,0,227,225,222,219,214,210,68,66,64,62,60,58,56,54,53,52,51,50,49,227,145,144,143,141,140,61,60,59,58,57,56,55,54,53,52,51,50,49,1.89,1
1391,226,76,16,0,225,224,222,219,215,211,70,68,64,62,60,58,56,54,52,50,49,48,47,225,224,157,141,140,139,59,58,57,56,55,54,53,52,51,50,49,48,47,1.87,1
1393,224,76,17,0,223,221,218,215,210,206,68,66,64,62,60,58,56,54,52,50,48,46,45,223,141,140,139,137,136,57,56,55,54,53,52,51,50,49,48,47,46,45,1.88,1
1395,222,76,16,0,221,220,217,214,210,205,68,66,64,62,60,58,56,54,52,50,48,46,44,221,220,139,138,137,134,55,54,53,52,51,50,49,48,47,46,45,44,43,1.91,1
1397,220,74,17,0,219,218,216,213,207,203,68,66,64,62,60,58,56,54,52,50,48,46,44,219,218,157,137,134,133,53,52,51,50,49,48,47,46,45,44,43,42,41,1.88,1
1399,218,80,17,0,217,215,212,209,204,200,68,66,64,62,60,58,56,54,52,50,48,46,44,217,135,134,133,131,130,51,50,49,48,47,46,45,44,43,42,41,40,39,1.93,1
1401,216,74,14,1,215,214,211,207,203,199,68,66,64,62,60,58,56,54,52,50,48,46,44,215,214,133,131,130,129,49,48,47,46,45,44,43,42,41,40,39,38,37,1.96,1
1403,214,76,16,1,213,212,210,207,203,199,70,67,64,62,60,58,56,54,52,50,48,46,44,213,212,157,129,128,127,47,46,45,44,43,42,41,40,39,38,37,36,35,1.97,1
1405,212,76,17,1,211,209,206,203,198,194,68,66,64,62,60,58,56,54,52,50,48,46,44,211,129,128,127,125,124,45,44,43,42,41,40,39,38,37,36,35,34,33,1.98,1
1407,210,76,16,1,209,207,204,201,197,192,68,66,64,62,60,58,56,54,52,50,48,46,44,209,127,126,125,124,122,43,42,41,40,39,38,37,36,35,34,33,32,31,2.03,1
1409,208,74,16,1,207,206,204,201,196,191,68,66,64,62,60,58,56,54,52,50,48,46,44,207,206,157,125,122,121,41,40,39,38,37,36,35,34,33,32,31,30,29,2.04,1
1411,206,80,16,1,205,204,202,199,195,191,69,67,65,63,61,59,57,55,53,51,49,47,45,205,204,157,121,120,119,39,38,37,36,35,34,33,32,31,30,29,28,27,2.05,1
1413,204,72,15,1,203,202,200,197,192,187,68,66,64,62,60,58,56,54,52,50,48,46,44,203,202,157,121,117,116,37,36,35,34,33,32,31,30,29,28,27,26,25,2.05,1
1415,202,72,15,1,201,200,198,195,191,186,70,67,64,62,60,58,56,54,52,50,48,46,44,201,200,157,117,116,114,35,34,33,32,31,30,29,28,27,26,25,24,23,2.07,1
1417,200,72,16,1,199,198,196,193,188,183,68,66,64,62,60,58,56,54,52,50,48,46,44,199,198,157,117,114,113,35,34,33,32,31,30,29,28,27,26,25,24,23,2.06,1
1419,198,80,16,0,197,196,194,190,185,181,68,66,64,62,60,58,56,54,52,50,48,46,44,197,196,157,113,112,111,37,36,35,34,33,32,31,30,29,28,27,26,25,2.08,1
1421,196,74,15,0,195,194,191,188,183,179,68,66,64,62,60,58,56,54,52,50,48,46,44,195,194,113,112,110,109,39,38,37,36,35,34,33,32,31,30,29,28,27,2.12,1
1423,194,76,15,0,193,191,188,185,180,176,68,66,64,62,60,58,56,54,52,50,48,46,44,193,111,110,109,107,106,41,40,39,38,37,36,35,34,33,32,31,30,29,2.17,1
1425,192,76,16,0,191,190,187,184,179,175,68,66,64,62,60,58,56,54,52,50,48,46,44,191,190,109,108,106,105,43,42,41,40,39,38,37,36,35,34,33,32,31,2.16,1
1427,190,76,16,1,189,187,184,181,176,172,68,66,64,62,60,58,56,54,52,50,48,46,44,189,107,106,105,103,102,45,44,43,42,41,40,39,38,37,36,35,34,33,2.24,1
1429,188,68,13,1,187,186,183,180,176,171,68,66,64,62,60,58,56,54,52,50,48,46,44,187,186,105,104,103,100,47,46,45,44,43,42,41,40,39,38,37,36,35,2.28,1
1431,186,68,14,1,185,184,182,180,175,171,70,68,66,64,62,60,58,56,54,52,50,48,46,185,184,157,156,100,99,51,50,49,48,47,46,45,44,43,42,41,40,39,2.28,1
1433,184,68,14,1,183,182,180,178,173,169,68,66,64,62,60,58,56,54,52,50,48,46,44,183,182,157,156,100,99,51,50,49,48,47,46,45,44,43,42,41,40,39,2.24,1
1435,182,68,15,1,181,178,175,172,168,164,68,66,64,62,60,58,56,54,52,50,48,46,44,181,98,97,96,95,94,53,52,51,50,49,48,47,46,45,44,43,42,41,2.31,1
1437,180,70,13,2,179,178,175,171,167,163,68,66,64,62,60,58,56,54,52,50,48,46,44,179,178,97,95,94,93,55,54,53,52,51,50,49,48,47,46,45,44,43,2.35,1
1439,178,76,14,2,177,176,174,171,165,161,68,66,64,62,60,58,56,54,52,50,48,46,45,177,176,157,93,92,91,57,56,55,54,53,52,51,50,49,48,47,46,45,2.34,1
1441,176,76,15,2,175,173,170,167,162,158,68,66,64,62,60,58,56,54,52,50,49,48,47,175,93,92,91,89,88,59,58,57,56,55,54,53,52,51,50,49,48,47,2.34,1
1443,174,76,14,2,173,171,168,165,161,156,68,66,64,62,60,58,56,54,53,52,51,50,49,173,91,90,89,88,86,61,60,59,58,57,56,55,54,53,52,51,50,49,2.38,1
1445,172,68,12,2,171,170,168,165,160,155,68,66,64,62,60,58,57,56,55,54,53,52,51,171,170,157,89,86,85,63,62,61,60,59,58,57,56,55,54,53,52,51,2.42,1
1447,170,76,13,2,169,168,166,163,157,153,68,66,64,62,61,60,59,58,57,56,55,54,53,169,168,157,85,84,83,65,64,63,62,61,60,59,58,57,56,55,54,53,2.40,1
1449,168,76,14,2,167,165,162,159,154,150,68,66,65,64,63,62,61,60,59,58,57,56,55,167,85,84,83,81,80,67,66,65,64,63,62,61,60,59,58,57,56,55,2.40,1
1451,166,76,13,2,165,164,161,158,154,149,69,68,67,66,65,64,63,62,61,60,59,58,57,165,164,83,82,81,78,69,68,67,66,65,64,63,62,61,60,59,58,57,2.45,1
1453,164,66,13,2,163,162,160,157,152,149,71,70,69,68,67,66,65,64,63,62,61,60,59,163,162,157,81,78,77,71,70,69,68,67,66,65,64,63,62,61,60,59,2.44,1
1455,162,74,14,2,161,160,158,155,153,150,73,72,71,70,69,68,67,66,65,64,63,62,61,161,160,157,78,77,75,73,72,71,70,69,68,67,66,65,64,63,62,61,2.49,1
1457,174,74,14,2,173,172,171,169,167,164,73,72,71,70,69,68,67,66,65,64,63,62,61,173,172,171,91,90,89,73,72,71,70,69,68,67,66,65,64,63,62,61,2.30,1
1459,172,74,14,2,171,170,169,168,167,163,76,74,72,70,68,66,65,64,63,62,61,60,59,171,170,169,168,167,84,71,70,69,68,67,66,65,64,63,62,61,60,59,2.34,1
1461,170,74,14,2,169,168,167,166,164,160,74,72,70,68,66,64,63,62,61,60,59,58,57,169,168,167,166,84,83,69,68,67,66,65,64,63,62,61,60,59,58,57,2.36,1
1463,168,68,14,0,167,166,165,164,162,158,72,70,68,66,64,62,61,60,59,58,57,56,55,167,166,165,164,84,83,67,66,65,64,63,62,61,60,59,58,57,56,55,2.38,1
1465,166,68,15,0,165,164,163,161,158,152,71,69,67,65,63,61,59,58,57,56,55,54,53,165,164,163,81,79,78,65,64,63,62,61,60,59,58,57,56,55,54,53,2.34,1
1467,164,76,13,0,163,162,160,157,155,151,71,69,67,65,63,61,59,57,55,54,53,52,51,163,162,81,79,78,77,63,62,61,60,59,58,57,56,55,54,53,52,51,2.35,1
1469,162,80,14,0,161,159,157,155,153,149,71,69,67,65,63,61,59,57,55,53,51,50,49,161,80,79,78,77,75,61,60,59,58,57,56,55,54,53,52,51,50,49,2.38,1
1471,160,12,11,0,153,136,124,115,108,103,0,0,0,0,0,0,0,0,0,0,0,0,0,103,102,101,100,99,98,0,0,0,0,0,0,0,0,0,0,0,0,0,1.08,0
1473,170,12,11,0,163,146,134,125,118,113,0,0,0,0,0,0,0,0,0,0,0,0,0,113,112,111,110,109,108,0,0,0,0,0,0,0,0,0,0,0,0,0,1.03,0
1475,160,0,6,0,154,142,133,125,121,118,0,0,0,0,0,0,0,0,0,0,0,0,0,124,123,121,119,118,117,0,0,0,0,0,0,0,0,0,0,0,0,0,0.91,0
1477,240,0,9,0,232,214,203,192,182,177,0,0,0,0,0,0,0,0,0,0,0,0,0,103,99,98,97,94,93,0,0,0,0,0,0,0,0,0,0,0,0,0,0.92,0
1479,240,0,7,0,231,214,207,199,185,179,0,0,0,0,0,0,0,0,0,0,0,0,0,90,89,88,87,85,84,0,0,0,0,0,0,0,0,0,0,0,0,0,0.73,0
1481,186,0,5,0,179,167,161,155,145,138,0,0,0,0,0,0,0,0,0,0,0,0,0,116,82,81,80,79,76,0,0,0,0,0,0,0,0,0,0,0,0,0,0.63,0
1483,160,12,11,0,153,136,124,115,108,103,0,0,0,0,0,0,0,0,0,0,0,0,0,103,102,101,100,99,98,0,0,0,0,0,0,0,0,0,0,0,0,0,1.08,0
1485,170,12,11,0,163,146,134,125,118,113,0,0,0,0,0,0,0,0,0,0,0,0,0,113,112,111,110,109,108,0,0,0,0,0,0,0,0,0,0,0,0,0,1.03,0
1487,160,6,12,0,154,137,125,118,110,108,0,0,0,0,0,0,0,0,0,0,0,0,0,114,113,112,111,109,108,0,0,0,0,0,0,0,0,0,0,0,0,0,1.06,0
1489,182,6,13,0,175,156,143,135,125,122,0,0,0,0,0,0,0,0,0,0,0,0,0,80,78,77,76,75,74,0,0,0,0,0,0,0,0,0,0,0,0,0,1.05,0
1491,92,2,1,0,91,87,83,77,75,74,0,0,0,0,0,0,0,0,0,0,0,0,0,91,78,77,76,75,74,0,0,0,0,0,0,0,0,0,0,0,0,0,0.41,0
1493,108,6,2,0,107,106,102,93,80,76,0,0,0,0,0,0,0,0,0,0,0,0,0,107,106,80,79,77,76,0,0,0,0,0,0,0,0,0,0,0,0,0,0.45,0
1495,114,0,1,0,112,109,106,103,99,97,0,0,0,0,0,0,0,0,0,0,0,0,0,112,79,78,77,76,75,0,0,0,0,0,0,0,0,0,0,0,0,0,0.27,0
1497,82,0,0,0,81,80,79,78,77,76,0,0,0,0,0,0,0,0,0,0,0,0,0,81,80,79,78,77,76,0,0,0,0,0,0,0,0,0,0,0,0,0,0.00,0
1499,92,0,0,0,91,90,89,88,87,86,0,0,0,0,0,0,0,0,0,0,0,0,0,91,90,89,88,87,86,0,0,0,0,0,0,0,0,0,0,0,0,0,0.00,0
1501,96,0,0,0,95,94,93,92,91,90,0,0,0,0,0,0,0,0,0,0,0,0,0,95,94,93,92,91,90,0,0,0,0,0,0,0,0,0,0,0,0,0,0.00,0
1503,160,0,1,1,158,152,149,145,139,136,0,0,0,0,0,0,0,0,0,0,0,0,0,156,132,131,130,129,128,0,0,0,0,0,0,0,0,0,0,0,0,0,0.28,0
1505,212,0,4,1,205,196,190,182,170,166,0,0,0,0,0,0,0,0,0,0,0,0,0,117,88,87,85,83,82,0,0,0,0,0,0,0,0,0,0,0,0,0,0.56,0
1507,100,6,0,0,99,98,97,95,91,87,0,0,0,0,0,0,0,0,0,0,0,0,0,99,98,97,77,76,75,0,0,0,0,0,0,0,0,0,0,0,0,0,0.08,0
1510,98,0,2,0,97,94,89,86,80,78,0,0,0,0,0,0,0,0,0,0,0,0,0,97,83,81,80,78,77,0,0,0,0,0,0,0,0,0,0,0,0,0,0.29,0
1512,86,0,0,0,85,84,83,82,81,80,0,0,0,0,0,0,0,0,0,0,0,0,0,85,84,83,82,81,80,0,0,0,0,0,0,0,0,0,0,0,0,0,0.00,0
1514,86,0,0,0,85,84,83,82,81,80,0,0,0,0,0,0,0,0,0,0,0,0,0,85,84,83,82,81,80,0,0,0,0,0,0,0,0,0,0,0,0,0,0.00,0
1516,82,0,0,0,81,80,79,78,77,76,0,0,0,0,0,0,0,0,0,0,0,0,0,81,80,79,78,77,76,0,0,0,0,0,0,0,0,0,0,0,0,0,0.00,0
1518,84,0,0,0,83,82,81,80,79,78,0,0,0,0,0,0,0,0,0,0,0,0,0,83,82,81,80,79,78,0,0,0,0,0,0,0,0,0,0,0,0,0,0.00,0
1520,104,0,0,0,103,90,83,76,75,74,0,0,0,0,0,0,0,0,0,0,0,0,0,103,78,77,76,75,74,0,0,0,0,0,0,0,0,0,0,0,0,0,0.52,0
1522,112,0,0,0,111,94,85,76,75,74,0,0,0,0,0,0,0,0,0,0,0,0,0,111,78,77,76,75,74,0,0,0,0,0,0,0,0,0,0,0,0,0,0.59,0
1524,160,0,0,0,149,136,126,109,95,89,0,0,0,0,0,0,0,0,0,0,0,0,0,97,92,79,78,76,75,0,0,0,0,0,0,0,0,0,0,0,0,0,0.85,0
1526,240,0,0,0,219,192,173,140,114,103,0,0,0,0,0,0,0,0,0,0,0,0,0,105,78,77,76,75,74,0,0,0,0,0,0,0,0,0,0,0,0,0,1.04,0
1528,216,0,0,0,195,170,154,127,109,101,0,0,0,0,0,0,0,0,0,0,0,0,0,89,84,83,82,81,80,0,0,0,0,0,0,0,0,0,0,0,0,0,1.05,0
1530,160,0,0,0,159,152,149,144,139,136,0,0,0,0,0,0,0,0,0,0,0,0,0,159,96,95,94,93,92,0,0,0,0,0,0,0,0,0,0,0,0,0,0.23,0
1532,170,0,0,0,169,162,159,154,149,146,0,0,0,0,0,0,0,0,0,0,0,0,0,169,106,105,104,103,102,0,0,0,0,0,0,0,0,0,0,0,0,0,0.22,0
1534,140,0,0,0,139,132,129,124,119,116,0,0,0,0,0,0,0,0,0,0,0,0,0,139,96,95,94,93,92,0,0,0,0,0,0,0,0,0,0,0,0,0,0.26,0
1536,88,0,0,0,87,86,85,84,83,82,0,0,0,0,0,0,0,0,0,0,0,0,0,87,86,85,84,83,82,0,0,0,0,0,0,0,0,0,0,0,0,0,0.00,0
1538,144,0,6,1,136,128,119,108,84,76,0,0,0,0,0,0,0,0,0,0,0,0,0,81,80,79,78,76,75,0,0,0,0,0,0,0,0,0,0,0,0,0,0.72,0
1540,112,0,2,0,109,106,103,99,94,90,0,0,0,0,0,0,0,0,0,0,0,0,0,92,91,83,82,78,77,0,0,0,0,0,0,0,0,0,0,0,0,0,0.28,0
1564,160,12,11,0,153,136,124,115,108,103,0,0,0,0,0,0,0,0,0,0,0,0,0,103,102,101,100,99,98,0,0,0,0,0,0,0,0,0,0,0,0,0,1.08,0
1568,170,12,11,0,163,146,134,125,118,113,0,0,0,0,0,0,0,0,0,0,0,0,0,113,112,111,110,109,108,0,0,0,0,0,0,0,0,0,0,0,0,0,1.03,0
1570,160,12,11,0,153,136,124,115,108,103,0,0,0,0,0,0,0,0,0,0,0,0,0,103,102,101,100,99,98,0,0,0,0,0,0,0,0,0,0,0,0,0,1.08,0
1572,170,12,11,0,163,146,134,125,118,113,0,0,0,0,0,0,0,0,0,0,0,0,0,113,112,111,110,109,108,0,0,0,0,0,0,0,0,0,0,0,0,0,1.03,0
1574,160,6,13,0,153,134,121,113,103,100,0,0,0,0,0,0,0,0,0,0,0,0,0,58,56,55,54,53,52,0,0,0,0,0,0,0,0,0,0,0,0,0,1.16,0
1576,182,6,13,0,175,156,143,135,125,122,0,0,0,0,0,0,0,0,0,0,0,0,0,80,78,77,76,75,74,0,0,0,0,0,0,0,0,0,0,0,0,0,1.05,0
1578,160,0,9,0,152,134,123,112,102,97,0,0,0,0,0,0,0,0,0,0,0,0,0,99,91,89,87,84,83,0,0,0,0,0,0,0,0,0,0,0,0,0,1.28,0
1580,240,0,13,0,226,198,183,168,151,143,0,0,0,0,0,0,0,0,0,0,0,0,0,99,91,89,87,84,83,0,0,0,0,0,0,0,0,0,0,0,0,0,1.33,0
1582,240,0,8,0,231,213,205,196,180,171,0,0,0,0,0,0,0,0,0,0,0,0,0,90,56,55,54,53,50,0,0,0,0,0,0,0,0,0,0,0,0,0,0.81,0
1584,186,0,5,0,179,167,161,155,145,138,0,0,0,0,0,0,0,0,0,0,0,0,0,116,82,81,80,79,76,0,0,0,0,0,0,0,0,0,0,0,0,0,0.63,0
