pkt#,size,#dec,#op,#rung,#2gram,#3gram,#4gram,#5gram,#6gram,#7gram,#8gram,#9gram,#10gram,#11gram,#12gram,#13gram,#14gram,#15gram,#16gram,#17gram,#18gram,#19gram,#20gram,L2gram,L3gram,L4gram,L5gram,L6gram,L7gram,L8gram,L9gram,L10gram,L11gram,L12gram,L13gram,L14gram,L15gram,L16gram,L17gram,L18gram,L19gram,L20gram,entropy,class
19,82,0,0,0,80,79,78,77,75,74,0,0,0,0,0,0,0,0,0,0,0,0,0,80,79,78,77,75,74,0,0,0,0,0,0,0,0,0,0,0,0,0,0.19,0
21,158,0,10,1,146,131,119,112,107,104,0,0,0,0,0,0,0,0,0,0,0,0,0,82,80,79,78,77,76,0,0,0,0,0,0,0,0,0,0,0,0,0,1.26,0
23,160,6,12,1,140,114,100,90,84,79,1,0,0,0,0,0,0,0,0,0,0,0,0,80,79,78,77,76,75,1,0,0,0,0,0,0,0,0,0,0,0,0,1.83,0
25,240,6,20,0,205,150,124,106,91,80,1,0,0,0,0,0,0,0,0,0,0,0,0,83,80,79,77,76,74,1,0,0,0,0,0,0,0,0,0,0,0,0,2.58,0
27,240,6,9,2,218,163,137,118,94,77,1,0,0,0,0,0,0,0,0,0,0,0,0,93,80,79,78,77,74,1,0,0,0,0,0,0,0,0,0,0,0,0,2.42,0
29,234,16,15,0,214,167,140,119,92,79,0,0,0,0,0,0,0,0,0,0,0,0,0,84,83,81,80,79,78,0,0,0,0,0,0,0,0,0,0,0,0,0,2.12,0
31,144,0,1,0,132,122,115,113,112,110,0,0,0,0,0,0,0,0,0,0,0,0,0,116,115,114,113,112,110,0,0,0,0,0,0,0,0,0,0,0,0,0,1.17,0
33,112,0,0,0,111,110,109,108,107,106,0,0,0,0,0,0,0,0,0,0,0,0,0,111,110,109,108,107,106,0,0,0,0,0,0,0,0,0,0,0,0,0,0.00,1
35,112,0,0,0,110,108,106,105,103,102,0,0,0,0,0,0,0,0,0,0,0,0,0,108,107,106,105,103,102,0,0,0,0,0,0,0,0,0,0,0,0,0,0.15,1
37,112,0,0,1,109,107,105,103,102,101,0,0,0,0,0,0,0,0,0,0,0,0,0,107,106,105,103,102,101,0,0,0,0,0,0,0,0,0,0,0,0,0,0.22,1
39,112,6,2,1,109,107,105,103,101,99,0,0,0,0,0,0,0,0,0,0,0,0,0,107,106,105,101,100,99,0,0,0,0,0,0,0,0,0,0,0,0,0,0.29,1
41,112,6,3,1,109,106,103,101,98,96,0,0,0,0,0,0,0,0,0,0,0,0,0,107,101,100,99,97,96,0,0,0,0,0,0,0,0,0,0,0,0,0,0.44,1
43,112,6,2,1,109,106,103,100,98,94,0,0,0,0,0,0,0,0,0,0,0,0,0,107,100,99,97,96,94,0,0,0,0,0,0,0,0,0,0,0,0,0,0.59,1
45,112,6,2,1,109,105,102,99,96,93,0,0,0,0,0,0,0,0,0,0,0,0,0,107,99,98,95,94,93,0,0,0,0,0,0,0,0,0,0,0,0,0,0.66,1
47,112,14,3,1,109,104,100,97,95,92,1,0,0,0,0,0,0,0,0,0,0,0,0,107,97,96,94,93,92,1,0,0,0,0,0,0,0,0,0,0,0,0,0.73,1
49,112,14,4,1,109,104,100,97,92,89,0,0,0,0,0,0,0,0,0,0,0,0,0,107,97,96,93,90,89,0,0,0,0,0,0,0,0,0,0,0,0,0,0.80,1
51,112,14,4,1,109,103,98,95,91,87,0,0,0,0,0,0,0,0,0,0,0,0,0,107,91,90,89,87,86,0,0,0,0,0,0,0,0,0,0,0,0,0,0.93,1
53,112,14,3,1,109,102,97,93,90,85,0,0,0,0,0,0,0,0,0,0,0,0,0,107,90,89,87,86,84,0,0,0,0,0,0,0,0,0,0,0,0,0,1.04,1
55,112,14,3,1,109,102,97,93,90,85,0,0,0,0,0,0,0,0,0,0,0,0,0,107,90,89,87,86,84,0,0,0,0,0,0,0,0,0,0,0,0,0,1.04,1
57,112,14,3,1,109,102,97,93,90,85,0,0,0,0,0,0,0,0,0,0,0,0,0,107,90,89,87,86,84,0,0,0,0,0,0,0,0,0,0,0,0,0,1.04,1
59,112,14,4,1,109,102,97,92,87,80,0,0,0,0,0,0,0,0,0,0,0,0,0,107,90,89,80,79,78,0,0,0,0,0,0,0,0,0,0,0,0,0,1.11,1
61,112,24,3,2,109,102,96,90,86,81,2,1,0,0,0,0,0,0,0,0,0,0,0,107,90,81,79,78,77,2,1,0,0,0,0,0,0,0,0,0,0,0,1.16,1
63,112,30,4,2,109,101,95,90,86,81,4,3,2,1,0,0,0,0,0,0,0,0,0,107,79,78,77,76,75,4,3,2,1,0,0,0,0,0,0,0,0,0,1.23,1
65,160,12,11,0,153,136,124,115,108,103,0,0,0,0,0,0,0,0,0,0,0,0,0,103,102,101,100,99,98,0,0,0,0,0,0,0,0,0,0,0,0,0,1.08,0
67,170,12,11,0,163,146,134,125,118,113,0,0,0,0,0,0,0,0,0,0,0,0,0,113,112,111,110,109,108,0,0,0,0,0,0,0,0,0,0,0,0,0,1.03,0
69,160,0,6,0,154,142,133,125,121,118,0,0,0,0,0,0,0,0,0,0,0,0,0,124,123,121,119,118,117,0,0,0,0,0,0,0,0,0,0,0,0,0,0.91,0
71,240,0,9,0,232,214,203,192,182,177,0,0,0,0,0,0,0,0,0,0,0,0,0,103,99,98,97,94,93,0,0,0,0,0,0,0,0,0,0,0,0,0,0.92,0
73,240,0,7,0,231,214,207,199,185,179,0,0,0,0,0,0,0,0,0,0,0,0,0,90,89,88,87,85,84,0,0,0,0,0,0,0,0,0,0,0,0,0,0.73,0
75,186,0,5,0,179,167,161,155,145,138,0,0,0,0,0,0,0,0,0,0,0,0,0,116,82,81,80,79,76,0,0,0,0,0,0,0,0,0,0,0,0,0,0.63,0
77,160,12,11,0,153,136,124,115,108,103,0,0,0,0,0,0,0,0,0,0,0,0,0,103,102,101,100,99,98,0,0,0,0,0,0,0,0,0,0,0,0,0,1.08,0
79,170,12,11,0,163,146,134,125,118,113,0,0,0,0,0,0,0,0,0,0,0,0,0,113,112,111,110,109,108,0,0,0,0,0,0,0,0,0,0,0,0,0,1.03,0
81,160,6,12,0,154,137,125,118,110,108,0,0,0,0,0,0,0,0,0,0,0,0,0,114,113,112,111,109,108,0,0,0,0,0,0,0,0,0,0,0,0,0,1.06,0
83,182,6,13,0,175,156,143,135,125,122,0,0,0,0,0,0,0,0,0,0,0,0,0,80,78,77,76,75,74,0,0,0,0,0,0,0,0,0,0,0,0,0,1.05,0
85,92,2,1,0,91,87,83,77,75,74,0,0,0,0,0,0,0,0,0,0,0,0,0,91,78,77,76,75,74,0,0,0,0,0,0,0,0,0,0,0,0,0,0.41,0
87,108,6,2,0,107,106,102,93,80,76,0,0,0,0,0,0,0,0,0,0,0,0,0,107,106,80,79,77,76,0,0,0,0,0,0,0,0,0,0,0,0,0,0.45,0
89,114,0,1,0,112,109,106,103,99,97,0,0,0,0,0,0,0,0,0,0,0,0,0,112,79,78,77,76,75,0,0,0,0,0,0,0,0,0,0,0,0,0,0.27,0
91,82,0,0,0,81,80,79,78,77,76,0,0,0,0,0,0,0,0,0,0,0,0,0,81,80,79,78,77,76,0,0,0,0,0,0,0,0,0,0,0,0,0,0.00,0
93,92,0,0,0,91,90,89,88,87,86,0,0,0,0,0,0,0,0,0,0,0,0,0,91,90,89,88,87,86,0,0,0,0,0,0,0,0,0,0,0,0,0,0.00,0
95,96,0,0,0,95,94,93,92,91,90,0,0,0,0,0,0,0,0,0,0,0,0,0,95,94,93,92,91,90,0,0,0,0,0,0,0,0,0,0,0,0,0,0.00,0
97,160,0,1,1,158,152,149,145,139,136,0,0,0,0,0,0,0,0,0,0,0,0,0,156,132,131,130,129,128,0,0,0,0,0,0,0,0,0,0,0,0,0,0.28,0
99,212,0,4,1,205,196,190,182,170,166,0,0,0,0,0,0,0,0,0,0,0,0,0,117,88,87,85,83,82,0,0,0,0,0,0,0,0,0,0,0,0,0,0.56,0
101,88,0,0,0,87,86,85,84,83,82,0,0,0,0,0,0,0,0,0,0,0,0,0,87,86,85,84,83,82,0,0,0,0,0,0,0,0,0,0,0,0,0,0.00,0
103,86,0,0,0,85,84,83,82,81,80,0,0,0,0,0,0,0,0,0,0,0,0,0,85,84,83,82,81,80,0,0,0,0,0,0,0,0,0,0,0,0,0,0.00,0
105,86,0,0,0,85,84,83,82,81,80,0,0,0,0,0,0,0,0,0,0,0,0,0,85,84,83,82,81,80,0,0,0,0,0,0,0,0,0,0,0,0,0,0.00,0
107,86,0,0,0,85,84,83,82,81,80,0,0,0,0,0,0,0,0,0,0,0,0,0,85,84,83,82,81,80,0,0,0,0,0,0,0,0,0,0,0,0,0,0.00,0
109,82,0,0,0,81,80,79,78,77,76,0,0,0,0,0,0,0,0,0,0,0,0,0,81,80,79,78,77,76,0,0,0,0,0,0,0,0,0,0,0,0,0,0.00,0
111,84,0,0,0,83,82,81,80,79,78,0,0,0,0,0,0,0,0,0,0,0,0,0,83,82,81,80,79,78,0,0,0,0,0,0,0,0,0,0,0,0,0,0.00,0
113,104,0,0,0,103,90,83,76,75,74,0,0,0,0,0,0,0,0,0,0,0,0,0,103,78,77,76,75,74,0,0,0,0,0,0,0,0,0,0,0,0,0,0.52,0
115,112,0,0,0,111,94,85,76,75,74,0,0,0,0,0,0,0,0,0,0,0,0,0,111,78,77,76,75,74,0,0,0,0,0,0,0,0,0,0,0,0,0,0.59,0
117,160,0,0,0,149,136,126,109,95,89,0,0,0,0,0,0,0,0,0,0,0,0,0,97,92,79,78,76,75,0,0,0,0,0,0,0,0,0,0,0,0,0,0.85,0
119,240,0,0,0,219,192,173,140,114,103,0,0,0,0,0,0,0,0,0,0,0,0,0,105,78,77,76,75,74,0,0,0,0,0,0,0,0,0,0,0,0,0,1.04,0
121,216,0,0,0,195,170,154,127,109,101,0,0,0,0,0,0,0,0,0,0,0,0,0,89,84,83,82,81,80,0,0,0,0,0,0,0,0,0,0,0,0,0,1.05,0
123,160,0,0,0,159,152,149,144,139,136,0,0,0,0,0,0,0,0,0,0,0,0,0,159,96,95,94,93,92,0,0,0,0,0,0,0,0,0,0,0,0,0,0.23,0
125,170,0,0,0,169,162,159,154,149,146,0,0,0,0,0,0,0,0,0,0,0,0,0,169,106,105,104,103,102,0,0,0,0,0,0,0,0,0,0,0,0,0,0.22,0
127,140,0,0,0,139,132,129,124,119,116,0,0,0,0,0,0,0,0,0,0,0,0,0,139,96,95,94,93,92,0,0,0,0,0,0,0,0,0,0,0,0,0,0.26,0
129,88,0,0,0,87,86,85,84,83,82,0,0,0,0,0,0,0,0,0,0,0,0,0,87,86,85,84,83,82,0,0,0,0,0,0,0,0,0,0,0,0,0,0.00,0
131,144,0,6,1,136,128,119,108,84,76,0,0,0,0,0,0,0,0,0,0,0,0,0,81,80,79,78,76,75,0,0,0,0,0,0,0,0,0,0,0,0,0,0.72,0
133,112,0,2,0,109,106,103,99,94,90,0,0,0,0,0,0,0,0,0,0,0,0,0,92,91,83,82,78,77,0,0,0,0,0,0,0,0,0,0,0,0,0,0.28,0
