pkt#,size,#dec,#op,#rung,#2gram,#3gram,#4gram,#5gram,#6gram,#7gram,#8gram,#9gram,#10gram,#11gram,#12gram,#13gram,#14gram,#15gram,#16gram,#17gram,#18gram,#19gram,#20gram,L2gram,L3gram,L4gram,L5gram,L6gram,L7gram,L8gram,L9gram,L10gram,L11gram,L12gram,L13gram,L14gram,L15gram,L16gram,L17gram,L18gram,L19gram,L20gram,entropy,class
10700,82,0,0,0,80,79,78,77,75,74,0,0,0,0,0,0,0,0,0,0,0,0,0,80,79,78,77,75,74,0,0,0,0,0,0,0,0,0,0,0,0,0,0.19,0
10702,158,0,10,1,146,131,119,111,107,104,0,0,0,0,0,0,0,0,0,0,0,0,0,82,80,79,78,77,76,0,0,0,0,0,0,0,0,0,0,0,0,0,1.26,0
10704,160,6,12,1,141,114,100,89,83,78,1,0,0,0,0,0,0,0,0,0,0,0,0,80,79,78,77,76,75,1,0,0,0,0,0,0,0,0,0,0,0,0,1.84,0
10706,240,6,20,0,206,154,126,106,91,79,1,0,0,0,0,0,0,0,0,0,0,0,0,83,80,79,77,76,74,1,0,0,0,0,0,0,0,0,0,0,0,0,2.59,0
10708,240,6,16,2,214,163,136,118,94,78,2,0,0,0,0,0,0,0,0,0,0,0,0,80,79,78,77,76,75,1,0,0,0,0,0,0,0,0,0,0,0,0,2.45,0
10710,234,16,23,0,210,163,138,120,93,81,1,0,0,0,0,0,0,0,0,0,0,0,0,84,83,81,80,79,78,1,0,0,0,0,0,0,0,0,0,0,0,0,2.16,0
10712,144,0,2,0,129,120,115,113,112,111,1,0,0,0,0,0,0,0,0,0,0,0,0,116,115,114,113,112,111,1,0,0,0,0,0,0,0,0,0,0,0,0,1.22,0
10714,160,0,0,0,159,158,157,156,155,154,0,0,0,0,0,0,0,0,0,0,0,0,0,159,158,157,156,155,154,0,0,0,0,0,0,0,0,0,0,0,0,0,0.00,1
10716,160,0,1,0,158,156,154,152,151,150,0,0,0,0,0,0,0,0,0,0,0,0,0,155,154,153,152,151,150,0,0,0,0,0,0,0,0,0,0,0,0,0,0.11,1
10718,160,0,0,1,159,157,155,153,151,149,0,0,0,0,0,0,0,0,0,0,0,0,0,159,153,152,151,150,149,0,0,0,0,0,0,0,0,0,0,0,0,0,0.16,1
10720,160,6,0,1,159,158,157,154,151,149,1,0,0,0,0,0,0,0,0,0,0,0,0,159,158,157,149,148,147,1,0,0,0,0,0,0,0,0,0,0,0,0,0.22,1
10722,160,8,1,1,159,157,155,153,150,148,3,2,1,0,0,0,0,0,0,0,0,0,0,159,149,148,147,145,144,3,2,1,0,0,0,0,0,0,0,0,0,0,0.33,1
10724,160,10,2,1,159,158,157,155,153,151,7,6,4,3,2,1,0,0,0,0,0,0,0,159,158,157,145,144,143,7,6,4,3,2,1,0,0,0,0,0,0,0,0.38,1
10726,160,10,2,1,159,158,157,155,152,149,7,6,5,4,3,2,1,0,0,0,0,0,0,159,158,157,145,141,140,7,6,5,4,3,2,1,0,0,0,0,0,0,0.44,1
10728,160,10,2,1,159,158,157,155,153,150,10,8,7,6,5,4,3,2,1,0,0,0,0,159,158,157,141,140,138,9,8,7,6,5,4,3,2,1,0,0,0,0,0.54,1
10730,160,10,3,1,159,158,156,153,151,149,11,10,9,8,7,6,5,4,3,2,1,0,0,159,158,141,139,138,137,11,10,9,8,7,6,5,4,3,2,1,0,0,0.60,1
10732,160,18,3,1,159,158,157,154,151,149,13,12,11,10,9,8,7,6,5,4,3,2,1,159,158,157,137,136,135,13,12,11,10,9,8,7,6,5,4,3,2,1,0.64,1
10734,160,20,4,1,159,157,155,153,150,148,15,14,13,12,11,10,9,8,7,6,5,4,3,159,137,136,135,133,132,15,14,13,12,11,10,9,8,7,6,5,4,3,0.72,1
10736,160,22,5,1,159,158,157,155,153,151,19,17,15,14,13,12,11,10,9,8,7,6,5,159,158,157,133,132,131,19,16,15,14,13,12,11,10,9,8,7,6,5,0.77,1
10738,160,22,6,1,159,157,155,153,150,148,19,18,17,16,15,14,13,12,11,10,9,8,7,159,133,132,131,129,128,19,18,17,16,15,14,13,12,11,10,9,8,7,0.86,1
10740,160,22,5,1,159,158,156,154,152,149,21,20,19,18,17,16,15,14,13,12,11,10,9,159,158,131,130,129,126,21,20,19,18,17,16,15,14,13,12,11,10,9,0.96,1
10742,160,22,5,1,159,158,157,156,154,152,25,23,21,20,19,18,17,16,15,14,13,12,11,159,158,157,156,126,125,25,22,21,20,19,18,17,16,15,14,13,12,11,0.99,1
10744,160,30,6,1,159,157,155,153,150,148,25,24,23,22,21,20,19,18,17,16,15,14,13,159,127,126,125,123,122,25,24,23,22,21,20,19,18,17,16,15,14,13,1.08,1
10746,160,32,5,1,159,158,156,153,151,149,27,26,25,24,23,22,21,20,19,18,17,16,15,159,158,125,123,122,121,27,26,25,24,23,22,21,20,19,18,17,16,15,1.13,1
10748,160,34,7,1,159,158,157,155,153,151,31,30,27,26,25,24,23,22,21,20,19,18,17,159,158,157,121,120,119,31,30,27,26,25,24,23,22,21,20,19,18,17,1.17,1
10750,160,34,8,1,159,157,155,153,150,148,31,30,29,28,27,26,25,24,23,22,21,20,19,159,121,120,119,117,116,31,30,29,28,27,26,25,24,23,22,21,20,19,1.24,1
10752,160,34,7,1,159,158,156,154,152,148,33,32,31,30,29,28,27,26,25,24,23,22,21,159,158,119,118,117,114,33,32,31,30,29,28,27,26,25,24,23,22,21,1.33,1
10754,160,34,8,1,159,158,157,155,152,149,35,34,33,32,31,30,29,28,27,26,25,24,23,159,158,157,117,114,113,35,34,33,32,31,30,29,28,27,26,25,24,23,1.37,1
10756,160,42,8,1,159,158,157,154,151,149,37,36,35,34,33,32,31,30,29,28,27,26,25,159,158,157,113,112,111,37,36,35,34,33,32,31,30,29,28,27,26,25,1.42,1
10758,160,44,9,1,159,158,156,154,151,149,39,38,37,36,35,34,33,32,31,30,29,28,27,159,158,113,112,110,109,39,38,37,36,35,34,33,32,31,30,29,28,27,1.48,1
10760,160,46,9,1,159,157,155,153,150,148,41,40,39,38,37,36,35,34,33,32,31,30,29,159,111,110,109,107,106,41,40,39,38,37,36,35,34,33,32,31,30,29,1.55,1
10762,160,48,8,1,159,158,156,153,151,149,43,42,41,40,39,38,37,36,35,34,33,32,31,159,158,109,107,106,105,43,42,41,40,39,38,37,36,35,34,33,32,31,1.59,1
10764,160,50,9,1,159,158,157,155,153,150,46,44,43,42,41,40,39,38,37,36,35,34,33,159,158,157,105,104,103,46,44,43,42,41,40,39,38,37,36,35,34,33,1.64,1
10766,160,50,10,1,159,157,155,153,150,148,47,46,45,44,43,42,41,40,39,38,37,36,35,159,105,104,103,101,100,47,46,45,44,43,42,41,40,39,38,37,36,35,1.70,1
10768,160,50,9,1,159,158,157,156,155,151,51,49,47,46,45,44,43,42,41,40,39,38,37,159,158,157,156,155,98,49,48,47,46,45,44,43,42,41,40,39,38,37,1.79,1
10771,160,50,9,1,159,158,157,154,151,149,51,50,49,48,47,46,45,44,43,42,41,40,39,159,158,157,99,98,97,51,50,49,48,47,46,45,44,43,42,41,40,39,1.82,1
10773,160,58,10,1,159,158,157,154,151,149,53,52,51,50,49,48,47,46,45,44,43,42,41,159,158,157,97,96,95,53,52,51,50,49,48,47,46,45,44,43,42,41,1.86,1
10775,160,60,11,1,159,158,156,154,151,149,55,54,53,52,51,50,49,48,47,46,45,44,43,159,158,97,96,94,93,55,54,53,52,51,50,49,48,47,46,45,44,43,1.90,1
10777,160,62,12,1,159,158,157,155,153,151,59,58,56,54,53,52,51,50,49,48,47,46,45,159,158,157,93,92,91,59,58,55,54,53,52,51,50,49,48,47,46,45,1.95,1
10779,160,62,13,1,159,157,155,153,150,148,59,58,57,56,55,54,53,52,51,50,49,48,47,159,93,92,91,89,88,59,58,57,56,55,54,53,52,51,50,49,48,47,2.01,1
10781,160,62,12,1,159,158,156,154,152,149,61,60,59,58,57,56,55,54,53,52,51,50,49,159,158,91,90,89,86,61,60,59,58,57,56,55,54,53,52,51,50,49,2.08,1
10783,160,62,12,1,159,158,157,156,154,152,65,64,63,62,61,60,59,58,57,56,55,54,53,159,158,157,156,86,85,65,64,63,62,61,60,59,58,57,56,55,54,53,2.10,1
10785,160,62,12,1,159,158,157,156,154,152,65,64,63,62,61,60,59,58,57,56,55,54,53,159,158,157,156,86,85,65,64,63,62,61,60,59,58,57,56,55,54,53,2.10,1
10787,160,62,13,1,158,156,154,152,150,148,67,66,65,64,63,62,61,60,59,58,57,56,55,85,84,83,82,81,80,67,66,65,64,63,62,61,60,59,58,57,56,55,2.21,1
10789,160,70,14,2,159,157,155,153,151,149,69,68,67,66,65,64,63,62,61,60,59,58,57,159,83,82,81,80,79,69,68,67,66,65,64,63,62,61,60,59,58,57,2.26,1
10791,160,76,14,2,159,158,157,154,151,149,71,70,69,68,67,66,65,64,63,62,61,60,59,159,158,157,79,78,77,71,70,69,68,67,66,65,64,63,62,61,60,59,2.29,1
10793,160,78,15,2,159,157,155,153,150,148,73,72,71,70,69,68,67,66,65,64,63,62,61,159,79,78,77,75,74,73,72,71,70,69,68,67,66,65,64,63,62,61,2.35,1
10795,240,80,16,2,239,238,237,235,233,230,75,73,71,70,69,68,67,66,65,64,63,62,61,239,238,237,155,154,153,73,72,71,70,69,68,67,66,65,64,63,62,61,1.75,1
10797,238,74,16,0,237,236,235,233,230,226,73,71,69,68,67,66,65,64,63,62,61,60,59,237,236,235,155,151,150,71,70,69,68,67,66,65,64,63,62,61,60,59,1.78,1
10799,236,74,16,0,235,234,233,231,229,225,74,71,69,67,65,64,63,62,61,60,59,58,57,235,234,233,151,150,148,69,68,67,66,65,64,63,62,61,60,59,58,57,1.76,1
10801,234,74,17,0,233,232,230,227,225,222,73,71,69,67,65,63,61,60,59,58,57,56,55,233,232,151,149,148,147,67,66,65,64,63,62,61,60,59,58,57,56,55,1.77,1
10803,232,80,17,0,231,229,227,225,222,219,73,71,68,65,63,61,59,58,57,56,55,54,53,231,149,148,147,145,144,65,64,63,62,61,60,59,58,57,56,55,54,53,1.80,1
10805,230,80,16,0,229,228,226,223,221,218,73,71,68,65,62,59,57,56,55,54,53,52,51,229,228,147,145,144,143,63,62,61,60,59,58,57,56,55,54,53,52,51,1.79,1
10807,228,74,15,1,227,226,225,223,221,217,74,71,68,65,62,59,56,54,53,52,51,50,49,227,226,225,143,142,141,61,60,59,58,57,56,55,54,53,52,51,50,49,1.81,1
10809,226,74,16,1,225,223,221,219,216,213,73,71,68,65,62,59,56,54,52,50,49,48,47,225,143,142,141,139,138,59,58,57,56,55,54,53,52,51,50,49,48,47,1.84,1
10811,224,74,15,1,223,222,221,220,219,214,75,72,68,65,62,59,56,54,52,50,48,46,45,223,222,221,220,219,136,57,56,55,54,53,52,51,50,49,48,47,46,45,1.86,1
10813,222,74,14,1,221,220,219,216,213,210,73,71,68,65,62,59,56,54,52,50,48,46,44,221,220,219,137,136,135,55,54,53,52,51,50,49,48,47,46,45,44,43,1.86,1
10815,220,80,15,1,219,218,217,214,211,208,73,71,68,65,62,59,56,54,52,50,48,46,44,219,218,217,135,134,133,53,52,51,50,49,48,47,46,45,44,43,42,41,1.88,1
10817,218,80,16,1,217,216,214,212,209,206,73,71,68,65,62,59,56,54,52,50,48,46,44,217,216,135,134,132,131,51,50,49,48,47,46,45,44,43,42,41,40,39,1.87,1
10819,216,74,14,1,215,213,211,209,206,203,73,71,68,65,62,59,56,54,52,50,48,46,44,215,133,132,131,129,128,49,48,47,46,45,44,43,42,41,40,39,38,37,1.91,1
10821,214,74,15,1,213,212,210,208,205,202,73,71,68,65,62,59,56,54,52,50,48,46,44,213,212,131,130,128,127,47,46,45,44,43,42,41,40,39,38,37,36,35,1.92,1
10823,212,74,15,1,211,209,207,205,202,199,73,71,68,65,62,59,56,54,52,50,48,46,44,211,129,128,127,125,124,45,44,43,42,41,40,39,38,37,36,35,34,33,1.97,1
10825,210,74,15,1,209,208,206,204,202,198,74,71,68,65,62,59,56,54,52,50,48,46,44,209,208,127,126,125,123,43,42,41,40,39,38,37,36,35,34,33,32,31,2.03,1
10827,208,72,15,1,207,206,205,204,201,198,75,73,70,67,64,61,58,56,54,52,50,48,46,207,206,205,204,122,121,41,40,39,38,37,36,35,34,33,32,31,30,29,2.04,1
10829,206,70,15,1,205,204,203,202,199,196,73,71,68,65,62,59,56,54,52,50,48,46,44,205,204,203,202,122,121,39,38,37,36,35,34,33,32,31,30,29,28,27,2.02,1
10831,204,62,14,1,202,200,198,196,194,191,73,71,68,65,62,59,56,54,52,50,48,46,44,121,120,119,118,117,116,37,36,35,34,33,32,31,30,29,28,27,26,25,2.08,1
10833,202,72,14,2,201,200,198,195,193,190,73,71,68,65,62,59,56,54,52,50,48,46,44,201,200,119,117,116,115,38,37,33,32,31,30,29,28,27,26,25,24,23,2.09,1
10835,200,78,15,2,199,198,197,195,191,188,73,71,68,65,62,59,56,54,52,50,48,46,44,199,198,197,115,114,113,40,39,33,32,31,30,29,28,27,26,25,24,23,2.07,1
10837,198,78,16,2,197,195,193,191,188,185,73,71,68,65,62,59,56,54,52,50,48,46,44,197,115,114,113,111,110,42,41,35,34,33,32,31,30,29,28,27,26,25,2.12,1
10839,196,76,15,2,195,194,192,190,188,184,74,71,68,65,62,59,56,54,52,50,48,46,44,195,194,113,112,111,109,44,43,37,36,35,34,33,32,31,30,29,28,27,2.17,1
10841,194,74,15,2,193,192,190,188,185,182,73,71,68,65,62,59,56,54,52,50,48,46,44,193,192,111,110,108,107,46,45,39,38,37,36,35,34,33,32,31,30,29,2.20,1
10843,192,80,15,2,191,190,189,186,183,180,73,71,68,65,62,59,56,54,52,50,48,46,44,191,190,189,107,106,105,48,47,41,40,39,38,37,36,35,34,33,32,31,2.19,1
10845,190,80,16,2,189,187,185,183,180,177,73,71,68,65,62,59,56,54,52,50,48,46,44,189,107,106,105,103,102,50,49,43,42,41,40,39,38,37,36,35,34,33,2.23,1
10847,188,76,16,2,187,186,185,183,181,178,75,73,68,65,62,59,56,54,52,50,48,46,44,187,186,185,103,102,101,54,53,45,44,43,42,41,40,39,38,37,36,35,2.25,1
10849,186,76,17,2,185,183,181,179,176,173,73,71,68,65,62,59,56,54,52,50,48,46,44,185,103,102,101,99,98,54,53,47,46,45,44,43,42,41,40,39,38,37,2.27,1
10851,184,76,16,2,183,182,180,178,176,172,73,71,68,65,62,59,56,54,52,50,48,46,44,183,182,101,100,99,96,56,55,49,48,47,46,45,44,43,42,41,40,39,2.29,1
10853,182,74,16,2,181,180,179,178,176,173,75,72,68,65,62,59,56,54,52,50,48,46,44,181,180,179,178,96,95,60,57,51,50,49,48,47,46,45,44,43,42,41,2.30,1
10855,180,80,16,2,179,177,175,173,170,167,73,71,68,65,62,59,56,54,52,50,48,46,44,179,97,96,95,93,92,60,59,53,52,51,50,49,48,47,46,45,44,43,2.35,1
10857,178,80,15,2,177,176,174,171,169,166,73,71,68,65,62,59,56,54,52,50,48,46,45,177,176,95,93,92,91,62,61,55,54,53,52,51,50,49,48,47,46,45,2.37,1
10859,176,74,15,2,175,174,173,171,169,166,75,73,68,65,62,59,56,54,52,50,49,48,47,175,174,173,91,90,89,66,65,57,56,55,54,53,52,51,50,49,48,47,2.37,1
10861,174,74,16,2,173,171,169,167,164,161,73,71,68,65,62,59,56,54,53,52,51,50,49,173,91,90,89,87,86,66,65,59,58,57,56,55,54,53,52,51,50,49,2.39,1
10863,172,74,15,2,171,170,168,166,164,159,73,71,68,65,62,59,57,56,55,54,53,52,51,171,170,89,88,87,84,68,67,61,60,59,58,57,56,55,54,53,52,51,2.42,1
10865,170,74,16,2,169,168,167,165,162,158,73,71,68,65,63,61,59,58,57,56,55,54,53,169,168,167,87,84,83,70,69,63,62,61,60,59,58,57,56,55,54,53,2.45,1
10867,168,78,16,0,167,166,165,162,159,156,73,71,69,67,65,63,61,60,59,58,57,56,55,167,166,165,83,82,81,72,71,65,64,63,62,61,60,59,58,57,56,55,2.51,1
10869,166,80,17,0,165,164,162,160,157,154,74,73,71,69,67,65,63,62,61,60,59,58,57,165,164,83,82,80,79,74,73,67,66,65,64,63,62,61,60,59,58,57,2.47,1
10871,164,80,16,0,163,162,161,159,157,155,77,76,73,70,68,66,65,64,63,62,61,60,59,163,162,161,80,79,78,77,76,69,68,67,66,65,64,63,62,61,60,59,2.49,1
10873,162,78,17,0,161,159,157,155,152,150,75,74,72,70,69,68,67,66,65,64,63,62,61,161,80,79,78,77,76,75,74,71,70,69,68,67,66,65,64,63,62,61,2.54,1
10875,214,76,16,0,213,212,210,208,206,203,75,74,73,71,69,68,67,66,65,64,63,62,61,213,212,131,130,129,126,75,74,73,70,69,68,67,66,65,64,63,62,61,2.05,1
10877,212,68,14,1,211,210,209,208,206,204,77,76,75,73,71,69,67,65,63,62,61,60,59,211,210,209,208,126,125,77,76,75,68,67,66,65,64,63,62,61,60,59,2.06,1
10879,210,68,14,1,209,208,207,206,204,202,75,74,73,71,69,67,65,63,61,60,59,58,57,209,208,207,206,126,125,75,74,73,66,65,64,63,62,61,60,59,58,57,2.05,1
10881,208,68,16,1,207,205,203,201,198,196,74,72,71,69,67,65,63,61,59,58,57,56,55,207,125,124,123,121,120,73,72,71,64,63,62,61,60,59,58,57,56,55,2.07,1
10883,206,76,16,2,205,204,202,199,197,195,74,72,70,67,65,63,61,59,57,56,55,54,53,205,204,123,121,120,119,71,70,69,62,61,60,59,58,57,56,55,54,53,2.08,1
10885,204,80,16,2,203,202,201,198,195,193,74,72,70,67,64,61,59,57,55,54,53,52,51,203,202,201,119,118,117,69,68,67,60,59,58,57,56,55,54,53,52,51,2.07,1
10887,202,80,17,2,201,199,197,195,192,190,74,72,70,67,64,61,58,55,53,52,51,50,49,201,119,118,117,115,114,67,66,65,58,57,56,55,54,53,52,51,50,49,2.11,1
10889,200,76,17,2,199,198,197,195,193,191,76,74,71,68,65,62,59,56,53,51,49,48,47,199,198,197,115,114,113,65,64,63,56,55,54,53,52,51,50,49,48,47,2.11,1
10891,198,76,17,2,197,196,195,193,190,187,74,72,70,67,64,61,58,55,52,50,48,46,45,197,196,195,115,111,110,63,62,61,54,53,52,51,50,49,48,47,46,45,2.10,1
10893,196,76,17,2,195,194,193,191,189,186,75,72,70,67,64,61,58,55,52,50,48,46,44,195,194,193,111,110,108,61,60,59,52,51,50,49,48,47,46,45,44,43,2.12,1
10895,194,74,18,2,193,192,191,189,186,183,74,72,70,67,64,61,58,55,52,50,48,46,44,193,192,191,111,108,107,59,58,57,50,49,48,47,46,45,44,43,42,41,2.13,1
10897,192,80,17,2,191,189,187,185,182,180,74,72,70,67,64,61,58,55,52,50,48,46,44,191,109,108,107,105,104,57,56,55,48,47,46,45,44,43,42,41,40,39,2.18,1
10899,190,80,16,2,189,188,186,183,181,179,74,72,70,67,64,61,58,55,52,50,48,46,44,189,188,107,105,104,103,55,54,53,46,45,44,43,42,41,40,39,38,37,2.19,1
10901,188,72,16,2,187,186,185,183,181,178,75,72,70,67,64,61,58,55,52,50,48,46,44,187,186,185,103,102,101,53,52,51,44,43,42,41,40,39,38,37,36,35,2.20,1
10903,186,72,17,2,185,183,181,179,176,174,74,72,70,67,64,61,58,55,52,50,48,46,44,185,103,102,101,99,98,51,50,49,42,41,40,39,38,37,36,35,34,33,2.24,1
10905,184,72,16,2,183,182,181,180,179,175,76,73,70,67,64,61,58,55,52,50,48,46,44,183,182,181,180,179,96,49,48,47,40,39,38,37,36,35,34,33,32,31,2.25,1
10907,182,72,16,2,181,180,179,176,173,171,74,72,70,67,64,61,58,55,52,50,48,46,44,181,180,179,97,96,95,47,46,45,38,37,36,35,34,33,32,31,30,29,2.23,1
10909,180,80,16,2,179,178,177,174,171,169,74,72,70,67,64,61,58,55,52,50,48,46,44,179,178,177,95,94,93,45,44,43,36,35,34,33,32,31,30,29,28,27,2.24,1
10911,178,76,17,1,177,176,174,172,169,167,74,72,70,67,64,61,58,55,52,50,48,46,44,177,176,95,94,92,91,43,42,41,34,33,32,31,30,29,28,27,26,25,2.29,1
10913,176,78,18,1,175,174,173,171,169,167,76,74,71,67,64,61,58,55,52,50,48,46,44,175,174,173,91,90,89,41,40,39,32,31,30,29,28,27,26,25,24,23,2.25,1
10915,174,78,19,1,173,171,169,167,164,162,74,72,70,67,64,61,58,55,52,50,48,46,44,173,91,90,89,87,86,39,38,37,32,31,30,29,28,27,26,25,24,23,2.27,1
10917,172,70,16,1,171,170,168,166,164,160,74,72,70,67,64,61,58,55,52,50,48,46,44,171,170,89,88,87,84,37,36,35,34,33,32,31,30,29,28,27,26,25,2.33,1
10919,170,70,16,1,169,168,167,166,164,162,77,75,73,70,67,64,61,58,55,53,51,49,47,169,168,167,166,84,83,42,41,40,39,38,37,36,35,34,33,32,31,30,2.32,1
10921,168,70,16,1,167,166,165,164,162,160,75,73,71,68,65,62,59,56,53,51,49,47,45,167,166,165,164,84,83,42,41,40,39,38,37,36,35,34,33,32,31,30,2.24,1
10923,166,70,16,1,165,164,163,161,158,154,74,72,70,67,64,61,58,55,52,50,48,46,44,165,164,163,81,79,78,43,42,41,40,39,38,37,36,35,34,33,32,31,2.24,1
10925,164,76,15,2,163,162,160,157,155,153,74,72,70,67,64,61,58,55,52,50,48,46,44,163,162,81,79,78,77,45,44,43,42,41,40,39,38,37,36,35,34,33,2.26,1
10927,162,80,16,2,161,159,157,155,153,151,74,72,70,67,64,61,58,55,52,50,48,46,44,161,80,79,78,77,76,47,46,45,44,43,42,41,40,39,38,37,36,35,2.27,1
10929,160,12,11,0,153,136,124,115,108,103,0,0,0,0,0,0,0,0,0,0,0,0,0,103,102,101,100,99,98,0,0,0,0,0,0,0,0,0,0,0,0,0,1.08,0
10931,170,12,11,0,163,146,134,125,118,113,0,0,0,0,0,0,0,0,0,0,0,0,0,113,112,111,110,109,108,0,0,0,0,0,0,0,0,0,0,0,0,0,1.03,0
10933,160,0,6,0,154,142,133,125,121,118,0,0,0,0,0,0,0,0,0,0,0,0,0,124,123,121,119,118,117,0,0,0,0,0,0,0,0,0,0,0,0,0,0.91,0
10935,240,0,9,0,232,214,203,192,182,177,0,0,0,0,0,0,0,0,0,0,0,0,0,103,99,98,97,94,93,0,0,0,0,0,0,0,0,0,0,0,0,0,0.92,0
10937,240,0,7,0,231,214,207,199,185,179,0,0,0,0,0,0,0,0,0,0,0,0,0,90,89,88,87,85,84,0,0,0,0,0,0,0,0,0,0,0,0,0,0.73,0
10939,186,0,5,0,179,167,161,155,145,138,0,0,0,0,0,0,0,0,0,0,0,0,0,116,82,81,80,79,76,0,0,0,0,0,0,0,0,0,0,0,0,0,0.63,0
10941,160,12,11,0,153,136,124,115,108,103,0,0,0,0,0,0,0,0,0,0,0,0,0,103,102,101,100,99,98,0,0,0,0,0,0,0,0,0,0,0,0,0,1.08,0
10943,170,12,11,0,163,146,134,125,118,113,0,0,0,0,0,0,0,0,0,0,0,0,0,113,112,111,110,109,108,0,0,0,0,0,0,0,0,0,0,0,0,0,1.03,0
10945,160,6,12,0,154,137,125,118,110,108,0,0,0,0,0,0,0,0,0,0,0,0,0,114,113,112,111,109,108,0,0,0,0,0,0,0,0,0,0,0,0,0,1.06,0
10947,182,6,13,0,175,156,143,135,125,122,0,0,0,0,0,0,0,0,0,0,0,0,0,80,78,77,76,75,74,0,0,0,0,0,0,0,0,0,0,0,0,0,1.05,0
10949,92,2,1,0,91,87,83,77,75,74,0,0,0,0,0,0,0,0,0,0,0,0,0,91,78,77,76,75,74,0,0,0,0,0,0,0,0,0,0,0,0,0,0.41,0
10951,108,6,2,0,107,106,102,93,80,76,0,0,0,0,0,0,0,0,0,0,0,0,0,107,106,80,79,77,76,0,0,0,0,0,0,0,0,0,0,0,0,0,0.45,0
10953,114,0,1,0,112,109,106,103,99,97,0,0,0,0,0,0,0,0,0,0,0,0,0,112,79,78,77,76,75,0,0,0,0,0,0,0,0,0,0,0,0,0,0.27,0
10957,82,0,0,0,81,80,79,78,77,76,0,0,0,0,0,0,0,0,0,0,0,0,0,81,80,79,78,77,76,0,0,0,0,0,0,0,0,0,0,0,0,0,0.00,0
10959,92,0,0,0,91,90,89,88,87,86,0,0,0,0,0,0,0,0,0,0,0,0,0,91,90,89,88,87,86,0,0,0,0,0,0,0,0,0,0,0,0,0,0.00,0
10961,96,0,0,0,95,94,93,92,91,90,0,0,0,0,0,0,0,0,0,0,0,0,0,95,94,93,92,91,90,0,0,0,0,0,0,0,0,0,0,0,0,0,0.00,0
10963,160,0,1,1,158,152,149,145,139,136,0,0,0,0,0,0,0,0,0,0,0,0,0,156,132,131,130,129,128,0,0,0,0,0,0,0,0,0,0,0,0,0,0.28,0
10965,212,0,4,1,205,196,190,182,170,166,0,0,0,0,0,0,0,0,0,0,0,0,0,117,88,87,85,83,82,0,0,0,0,0,0,0,0,0,0,0,0,0,0.56,0
10967,98,6,2,0,97,96,93,86,82,79,0,0,0,0,0,0,0,0,0,0,0,0,0,97,96,78,77,76,75,0,0,0,0,0,0,0,0,0,0,0,0,0,0.25,0
10969,160,0,0,0,159,158,157,156,155,154,0,0,0,0,0,0,0,0,0,0,0,0,0,159,158,157,156,155,154,0,0,0,0,0,0,0,0,0,0,0,0,0,0.00,0
10971,170,0,1,0,168,166,164,161,158,156,0,0,0,0,0,0,0,0,0,0,0,0,0,85,84,83,81,80,79,0,0,0,0,0,0,0,0,0,0,0,0,0,0.10,0
10973,86,0,0,0,85,84,83,82,81,80,0,0,0,0,0,0,0,0,0,0,0,0,0,85,84,83,82,81,80,0,0,0,0,0,0,0,0,0,0,0,0,0,0.00,0
10975,86,0,0,0,85,84,83,82,81,80,0,0,0,0,0,0,0,0,0,0,0,0,0,85,84,83,82,81,80,0,0,0,0,0,0,0,0,0,0,0,0,0,0.00,0
10977,82,0,0,0,81,80,79,78,77,76,0,0,0,0,0,0,0,0,0,0,0,0,0,81,80,79,78,77,76,0,0,0,0,0,0,0,0,0,0,0,0,0,0.00,0
10979,84,0,0,0,83,82,81,80,79,78,0,0,0,0,0,0,0,0,0,0,0,0,0,83,82,81,80,79,78,0,0,0,0,0,0,0,0,0,0,0,0,0,0.00,0
10981,104,0,0,0,103,90,83,76,75,74,0,0,0,0,0,0,0,0,0,0,0,0,0,103,78,77,76,75,74,0,0,0,0,0,0,0,0,0,0,0,0,0,0.52,0
10983,112,0,0,0,111,94,85,76,75,74,0,0,0,0,0,0,0,0,0,0,0,0,0,111,78,77,76,75,74,0,0,0,0,0,0,0,0,0,0,0,0,0,0.59,0
10985,160,0,0,0,149,136,126,109,95,89,0,0,0,0,0,0,0,0,0,0,0,0,0,97,92,79,78,76,75,0,0,0,0,0,0,0,0,0,0,0,0,0,0.85,0
10987,240,0,0,0,219,192,173,140,114,103,0,0,0,0,0,0,0,0,0,0,0,0,0,105,78,77,76,75,74,0,0,0,0,0,0,0,0,0,0,0,0,0,1.04,0
10989,216,0,0,0,195,170,154,127,109,101,0,0,0,0,0,0,0,0,0,0,0,0,0,89,84,83,82,81,80,0,0,0,0,0,0,0,0,0,0,0,0,0,1.05,0
10991,160,0,0,0,159,152,149,144,139,136,0,0,0,0,0,0,0,0,0,0,0,0,0,159,96,95,94,93,92,0,0,0,0,0,0,0,0,0,0,0,0,0,0.23,0
10993,170,0,0,0,169,162,159,154,149,146,0,0,0,0,0,0,0,0,0,0,0,0,0,169,106,105,104,103,102,0,0,0,0,0,0,0,0,0,0,0,0,0,0.22,0
10995,140,0,0,0,139,132,129,124,119,116,0,0,0,0,0,0,0,0,0,0,0,0,0,139,96,95,94,93,92,0,0,0,0,0,0,0,0,0,0,0,0,0,0.26,0
10997,88,0,0,0,87,86,85,84,83,82,0,0,0,0,0,0,0,0,0,0,0,0,0,87,86,85,84,83,82,0,0,0,0,0,0,0,0,0,0,0,0,0,0.00,0
10999,144,0,6,1,136,128,119,108,84,76,0,0,0,0,0,0,0,0,0,0,0,0,0,81,80,79,78,76,75,0,0,0,0,0,0,0,0,0,0,0,0,0,0.72,0
11001,112,0,2,0,109,106,103,99,94,90,0,0,0,0,0,0,0,0,0,0,0,0,0,92,91,83,82,78,77,0,0,0,0,0,0,0,0,0,0,0,0,0,0.28,0
11025,160,12,11,0,153,136,124,115,108,103,0,0,0,0,0,0,0,0,0,0,0,0,0,103,102,101,100,99,98,0,0,0,0,0,0,0,0,0,0,0,0,0,1.08,0
11027,170,12,11,0,163,146,134,125,118,113,0,0,0,0,0,0,0,0,0,0,0,0,0,113,112,111,110,109,108,0,0,0,0,0,0,0,0,0,0,0,0,0,1.03,0
11029,160,12,11,0,153,136,124,115,108,103,0,0,0,0,0,0,0,0,0,0,0,0,0,103,102,101,100,99,98,0,0,0,0,0,0,0,0,0,0,0,0,0,1.08,0
11031,170,12,11,0,163,146,134,125,118,113,0,0,0,0,0,0,0,0,0,0,0,0,0,113,112,111,110,109,108,0,0,0,0,0,0,0,0,0,0,0,0,0,1.03,0
11033,160,6,13,0,153,134,121,113,103,100,0,0,0,0,0,0,0,0,0,0,0,0,0,58,56,55,54,53,52,0,0,0,0,0,0,0,0,0,0,0,0,0,1.16,0
11035,182,6,13,0,175,156,143,135,125,122,0,0,0,0,0,0,0,0,0,0,0,0,0,80,78,77,76,75,74,0,0,0,0,0,0,0,0,0,0,0,0,0,1.05,0
11037,160,0,9,0,152,134,123,112,102,97,0,0,0,0,0,0,0,0,0,0,0,0,0,99,91,89,87,84,83,0,0,0,0,0,0,0,0,0,0,0,0,0,1.28,0
11039,240,0,13,0,226,198,183,168,151,143,0,0,0,0,0,0,0,0,0,0,0,0,0,99,91,89,87,84,83,0,0,0,0,0,0,0,0,0,0,0,0,0,1.33,0
11041,240,0,8,0,231,213,205,196,180,171,0,0,0,0,0,0,0,0,0,0,0,0,0,90,56,55,54,53,50,0,0,0,0,0,0,0,0,0,0,0,0,0,0.81,0
11043,186,0,5,0,179,167,161,155,145,138,0,0,0,0,0,0,0,0,0,0,0,0,0,116,82,81,80,79,76,0,0,0,0,0,0,0,0,0,0,0,0,0,0.63,0
