pkt#,size,#dec,#op,#rung,#2gram,#3gram,#4gram,#5gram,#6gram,#7gram,#8gram,#9gram,#10gram,#11gram,#12gram,#13gram,#14gram,#15gram,#16gram,#17gram,#18gram,#19gram,#20gram,L2gram,L3gram,L4gram,L5gram,L6gram,L7gram,L8gram,L9gram,L10gram,L11gram,L12gram,L13gram,L14gram,L15gram,L16gram,L17gram,L18gram,L19gram,L20gram,entropy,class
43,82,0,0,0,80,79,78,77,75,74,0,0,0,0,0,0,0,0,0,0,0,0,0,80,79,78,77,75,74,0,0,0,0,0,0,0,0,0,0,0,0,0,0.19,0
45,158,0,10,1,147,131,119,112,107,104,0,0,0,0,0,0,0,0,0,0,0,0,0,82,80,79,78,77,76,0,0,0,0,0,0,0,0,0,0,0,0,0,1.26,0
47,160,6,13,1,143,116,102,90,83,78,1,0,0,0,0,0,0,0,0,0,0,0,0,82,81,80,77,76,75,1,0,0,0,0,0,0,0,0,0,0,0,0,1.83,0
49,240,6,20,0,208,151,125,106,90,79,1,0,0,0,0,0,0,0,0,0,0,0,0,83,80,79,77,76,74,1,0,0,0,0,0,0,0,0,0,0,0,0,2.55,0
51,240,6,8,1,217,161,136,119,95,78,1,0,0,0,0,0,0,0,0,0,0,0,0,93,79,78,77,76,74,1,0,0,0,0,0,0,0,0,0,0,0,0,2.39,0
53,234,16,15,0,213,165,140,120,93,80,0,0,0,0,0,0,0,0,0,0,0,0,0,84,83,81,80,79,78,0,0,0,0,0,0,0,0,0,0,0,0,0,2.11,0
55,144,0,2,0,133,122,115,114,113,110,0,0,0,0,0,0,0,0,0,0,0,0,0,117,116,115,114,113,110,0,0,0,0,0,0,0,0,0,0,0,0,0,1.17,0
57,160,0,0,0,159,158,157,156,155,154,0,0,0,0,0,0,0,0,0,0,0,0,0,159,158,157,156,155,154,0,0,0,0,0,0,0,0,0,0,0,0,0,0.00,1
59,160,0,1,0,158,156,154,152,151,150,0,0,0,0,0,0,0,0,0,0,0,0,0,155,154,153,152,151,150,0,0,0,0,0,0,0,0,0,0,0,0,0,0.11,1
61,160,0,1,1,159,158,156,153,151,149,0,0,0,0,0,0,0,0,0,0,0,0,0,159,158,153,151,150,149,0,0,0,0,0,0,0,0,0,0,0,0,0,0.16,1
63,160,6,1,1,159,158,157,155,152,150,2,1,0,0,0,0,0,0,0,0,0,0,0,159,158,157,149,148,147,2,1,0,0,0,0,0,0,0,0,0,0,0,0.22,1
65,160,6,1,1,159,158,157,155,152,149,3,2,1,0,0,0,0,0,0,0,0,0,0,159,158,157,149,145,144,3,2,1,0,0,0,0,0,0,0,0,0,0,0.27,1
67,160,6,1,1,159,158,157,155,153,150,7,5,3,2,1,0,0,0,0,0,0,0,0,159,158,157,145,144,142,7,4,3,2,1,0,0,0,0,0,0,0,0,0.38,1
69,160,6,2,1,159,158,157,155,151,149,7,6,5,4,3,2,1,0,0,0,0,0,0,159,158,157,145,142,141,7,6,5,4,3,2,1,0,0,0,0,0,0,0.44,1
71,160,14,2,1,159,158,157,154,151,149,9,8,7,6,5,4,3,2,1,0,0,0,0,159,158,157,141,140,139,9,8,7,6,5,4,3,2,1,0,0,0,0,0.49,1
73,160,16,3,1,159,157,155,153,150,148,11,10,9,8,7,6,5,4,3,2,1,0,0,159,141,140,139,137,136,11,10,9,8,7,6,5,4,3,2,1,0,0,0.60,1
75,160,18,4,1,159,157,155,153,151,149,13,12,11,10,9,8,7,6,5,4,3,2,1,159,139,138,137,136,135,13,12,11,10,9,8,7,6,5,4,3,2,1,0.65,1
77,160,18,5,1,159,158,157,155,151,149,15,14,13,12,11,10,9,8,7,6,5,4,3,159,158,157,137,134,133,15,14,13,12,11,10,9,8,7,6,5,4,3,0.69,1
79,160,18,5,1,159,157,155,153,150,148,17,16,15,14,13,12,11,10,9,8,7,6,5,159,135,134,133,131,130,17,16,15,14,13,12,11,10,9,8,7,6,5,0.80,1
81,160,18,4,1,159,158,157,156,155,152,23,22,21,20,18,16,15,14,13,12,11,10,9,159,158,157,156,155,128,23,22,21,20,17,16,15,14,13,12,11,10,9,0.90,1
83,160,18,4,1,159,158,157,156,155,152,23,22,21,20,18,16,15,14,13,12,11,10,9,159,158,157,156,155,128,23,22,21,20,17,16,15,14,13,12,11,10,9,0.90,1
85,160,28,5,1,159,157,155,153,150,148,23,22,21,20,19,18,17,16,15,14,13,12,11,159,129,128,127,125,124,23,22,21,20,19,18,17,16,15,14,13,12,11,0.99,1
87,160,30,4,1,159,158,156,153,151,149,25,24,23,22,21,20,19,18,17,16,15,14,13,159,158,127,125,124,123,25,24,23,22,21,20,19,18,17,16,15,14,13,1.05,1
89,160,32,5,1,159,158,157,155,153,150,28,26,25,24,23,22,21,20,19,18,17,16,15,159,158,157,123,122,121,28,26,25,24,23,22,21,20,19,18,17,16,15,1.09,1
91,160,32,6,1,159,157,155,153,150,148,29,28,27,26,25,24,23,22,21,20,19,18,17,159,123,122,121,119,118,29,28,27,26,25,24,23,22,21,20,19,18,17,1.16,1
93,160,32,5,1,159,158,157,155,153,149,31,30,29,28,27,26,25,24,23,22,21,20,19,159,158,157,121,120,116,31,30,29,28,27,26,25,24,23,22,21,20,19,1.24,1
95,160,32,6,1,159,158,157,155,152,149,33,32,31,30,29,28,27,26,25,24,23,22,21,159,158,157,119,116,115,33,32,31,30,29,28,27,26,25,24,23,22,21,1.29,1
97,160,40,7,1,159,158,157,155,152,149,35,34,33,32,31,30,29,28,27,26,25,24,23,159,158,157,115,114,113,35,34,33,32,31,30,29,28,27,26,25,24,23,1.35,1
99,160,40,8,1,159,157,155,153,150,148,37,36,35,34,33,32,31,30,29,28,27,26,25,159,115,114,113,111,110,37,36,35,34,33,32,31,30,29,28,27,26,25,1.44,1
101,160,40,7,1,159,158,157,156,155,152,43,41,39,37,35,34,33,32,31,30,29,28,27,159,158,157,156,155,108,43,38,37,36,35,34,33,32,31,30,29,28,27,1.53,1
103,160,40,8,1,159,158,157,156,154,151,43,42,41,39,37,36,35,34,33,32,31,30,29,159,158,157,156,108,107,43,42,41,38,37,36,35,34,33,32,31,30,29,1.57,1
105,160,48,8,1,159,157,155,153,150,148,43,42,41,40,39,38,37,36,35,34,33,32,31,159,109,108,107,105,104,43,42,41,40,39,38,37,36,35,34,33,32,31,1.64,1
107,160,50,8,1,159,158,157,156,154,152,48,46,45,44,43,42,41,40,39,38,37,36,35,159,158,157,156,104,103,48,46,45,44,43,42,41,40,39,38,37,36,35,1.70,1
109,160,50,8,1,159,158,157,156,154,152,48,46,45,44,43,42,41,40,39,38,37,36,35,159,158,157,156,104,103,48,46,45,44,43,42,41,40,39,38,37,36,35,1.70,1
111,160,50,9,1,158,156,154,152,150,148,49,48,47,46,45,44,43,42,41,40,39,38,37,103,102,101,100,99,98,49,48,47,46,45,44,43,42,41,40,39,38,37,1.80,1
113,160,52,9,2,159,158,156,153,151,149,51,50,49,48,47,46,45,44,43,42,41,40,39,159,158,101,99,98,97,51,50,49,48,47,46,45,44,43,42,41,40,39,1.85,1
115,160,58,9,2,159,158,157,154,151,149,53,52,51,50,49,48,47,46,45,44,43,42,41,159,158,157,97,96,95,53,52,51,50,49,48,47,46,45,44,43,42,41,1.89,1
117,160,60,10,2,159,157,155,153,150,148,55,54,53,52,51,50,49,48,47,46,45,44,43,159,97,96,95,93,92,55,54,53,52,51,50,49,48,47,46,45,44,43,1.96,1
119,160,62,11,2,159,158,157,155,153,151,59,58,56,55,54,53,52,51,50,49,48,47,46,159,158,157,93,92,91,59,58,56,55,54,53,52,51,50,49,48,47,46,2.02,1
121,160,62,11,2,159,158,157,155,152,149,59,58,57,56,55,54,53,52,51,50,49,48,47,159,158,157,93,89,88,59,58,57,56,55,54,53,52,51,50,49,48,47,2.05,1
123,160,62,11,2,159,158,157,155,153,150,62,60,59,58,57,56,55,54,53,52,51,50,49,159,158,157,89,88,86,61,60,59,58,57,56,55,54,53,52,51,50,49,2.12,1
125,160,62,12,2,159,158,157,155,151,149,63,62,61,60,59,58,57,56,55,54,53,52,51,159,158,157,89,86,85,63,62,61,60,59,58,57,56,55,54,53,52,51,2.15,1
127,160,70,12,2,159,157,155,153,150,148,65,64,63,62,61,60,59,58,57,56,55,54,53,159,87,86,85,83,82,65,64,63,62,61,60,59,58,57,56,55,54,53,2.21,1
129,160,72,11,2,159,158,156,153,151,149,67,66,65,64,63,62,61,60,59,58,57,56,55,159,158,85,83,82,81,67,66,65,64,63,62,61,60,59,58,57,56,55,2.25,1
131,160,74,13,2,159,158,157,155,153,151,71,69,67,66,65,64,63,62,61,60,59,58,57,159,158,157,81,80,79,71,68,67,66,65,64,63,62,61,60,59,58,57,2.29,1
133,160,74,14,2,159,157,155,153,150,148,71,70,69,68,67,66,65,64,63,62,61,60,59,159,81,80,79,77,76,71,70,69,68,67,66,65,64,63,62,61,60,59,2.36,1
135,160,74,13,2,159,158,157,156,155,152,77,74,71,70,69,68,67,66,65,64,63,62,61,159,158,157,156,155,78,77,72,71,70,69,68,67,66,65,64,63,62,61,2.43,1
137,204,74,14,2,203,202,201,200,198,195,77,74,71,70,69,68,67,66,65,64,63,62,61,203,202,201,200,118,117,77,72,71,70,69,68,67,66,65,64,63,62,61,2.04,1
139,202,76,14,0,201,200,199,195,191,189,73,71,69,68,67,66,65,64,63,62,61,60,59,201,200,199,117,116,115,73,70,69,68,67,66,65,64,63,62,61,60,59,2.10,1
141,200,78,15,0,199,198,196,193,189,186,71,69,67,66,65,64,63,62,61,60,59,58,57,199,198,117,116,114,113,71,68,67,66,65,64,63,62,61,60,59,58,57,2.07,1
143,198,80,16,0,197,196,195,192,189,186,73,70,67,65,63,62,61,60,59,58,57,56,55,197,196,195,113,112,111,69,66,65,64,63,62,61,60,59,58,57,56,55,2.07,1
145,196,72,16,1,195,193,191,188,184,181,71,68,65,63,61,60,59,58,57,56,55,54,53,195,113,112,111,109,108,67,64,63,62,61,60,59,58,57,56,55,54,53,2.11,1
147,194,72,15,1,193,192,191,189,187,183,75,72,69,67,65,62,59,57,55,54,53,52,51,193,192,191,121,120,106,65,62,61,60,59,58,57,56,55,54,53,52,51,2.15,1
149,192,72,16,1,191,190,189,187,183,180,73,70,67,65,63,61,58,56,54,52,51,50,49,191,190,189,121,106,105,63,60,59,58,57,56,55,54,53,52,51,50,49,2.16,1
151,190,72,15,1,189,188,187,185,181,178,71,68,65,63,61,59,56,54,52,50,49,48,47,189,188,187,121,106,105,61,58,57,56,55,54,53,52,51,50,49,48,47,2.15,1
153,188,70,16,1,187,185,183,179,176,173,71,68,65,63,61,59,56,54,52,50,48,46,45,187,105,104,102,101,100,59,56,55,54,53,52,51,50,49,48,47,46,45,2.22,1
155,186,76,15,2,185,183,181,178,175,172,71,68,65,63,61,59,56,54,52,50,48,46,44,185,103,102,101,100,99,57,54,53,52,51,50,49,48,47,46,45,44,43,2.22,1
157,184,74,15,2,183,182,181,178,175,171,72,69,66,64,62,60,57,55,53,51,49,47,45,183,182,181,99,98,97,55,52,51,50,49,48,47,46,45,44,43,42,41,2.23,1
159,182,74,15,2,181,180,179,176,172,168,71,68,65,63,61,59,56,54,52,50,48,46,44,181,180,179,99,95,94,53,50,49,48,47,46,45,44,43,42,41,40,39,2.24,1
161,180,74,15,2,179,178,177,174,171,167,73,70,66,63,61,59,56,54,52,50,48,46,44,179,178,177,95,94,92,51,48,47,46,45,44,43,42,41,40,39,38,37,2.24,1
163,178,74,16,2,177,176,175,172,167,164,71,68,65,63,61,59,56,54,52,50,48,46,44,177,176,175,95,92,91,49,46,45,44,43,42,41,40,39,38,37,36,35,2.23,1
165,176,80,17,2,175,174,173,169,165,162,71,68,65,63,61,59,56,54,52,50,48,46,44,175,174,173,91,90,89,47,44,43,42,41,40,39,38,37,36,35,34,33,2.28,1
167,174,78,18,2,173,171,169,166,162,159,71,68,65,63,61,59,56,54,52,50,48,46,44,173,91,90,89,87,86,45,42,41,40,39,38,37,36,35,34,33,32,31,2.29,1
169,172,76,17,2,171,170,169,167,165,161,75,71,67,64,61,59,56,54,52,50,48,46,44,171,170,169,121,120,84,43,40,39,38,37,36,35,34,33,32,31,30,29,2.33,1
171,170,68,16,2,169,168,167,165,162,159,74,71,68,66,64,62,59,57,55,53,51,49,47,169,168,167,121,84,83,41,38,37,36,35,34,33,32,31,30,29,28,27,2.35,1
173,168,68,16,2,167,166,165,163,160,157,72,69,66,64,62,60,57,55,53,51,49,47,45,167,166,165,121,84,83,39,36,35,34,33,32,31,30,29,28,27,26,25,2.29,1
175,166,68,17,2,165,164,163,160,156,151,71,68,65,63,61,59,56,54,52,50,48,46,44,165,164,163,80,79,78,37,34,33,32,31,30,29,28,27,26,25,24,23,2.27,1
177,164,76,16,3,163,162,160,156,153,150,71,68,65,63,61,59,56,54,52,50,48,46,44,163,162,81,79,78,77,36,35,34,33,32,31,29,28,27,26,25,24,23,2.30,1
179,162,74,15,3,161,159,157,154,151,148,71,68,65,63,61,59,56,54,52,50,48,46,44,161,80,79,77,76,75,38,37,36,35,34,33,31,30,29,28,27,26,25,2.33,1
181,160,12,11,0,153,136,124,115,108,103,0,0,0,0,0,0,0,0,0,0,0,0,0,103,102,101,100,99,98,0,0,0,0,0,0,0,0,0,0,0,0,0,1.08,0
183,170,12,11,0,163,146,134,125,118,113,0,0,0,0,0,0,0,0,0,0,0,0,0,113,112,111,110,109,108,0,0,0,0,0,0,0,0,0,0,0,0,0,1.03,0
185,160,0,6,0,154,142,133,125,121,118,0,0,0,0,0,0,0,0,0,0,0,0,0,124,123,121,119,118,117,0,0,0,0,0,0,0,0,0,0,0,0,0,0.91,0
187,240,0,9,0,232,214,203,192,182,177,0,0,0,0,0,0,0,0,0,0,0,0,0,103,99,98,97,94,93,0,0,0,0,0,0,0,0,0,0,0,0,0,0.92,0
189,240,0,3,0,237,230,227,223,216,213,0,0,0,0,0,0,0,0,0,0,0,0,0,183,179,178,177,174,173,0,0,0,0,0,0,0,0,0,0,0,0,0,0.31,0
191,186,0,1,0,183,181,179,177,174,172,0,0,0,0,0,0,0,0,0,0,0,0,0,102,101,100,99,97,96,0,0,0,0,0,0,0,0,0,0,0,0,0,0.10,0
193,160,12,11,0,153,136,124,115,108,103,0,0,0,0,0,0,0,0,0,0,0,0,0,103,102,101,100,99,98,0,0,0,0,0,0,0,0,0,0,0,0,0,1.08,0
195,170,12,11,0,163,146,134,125,118,113,0,0,0,0,0,0,0,0,0,0,0,0,0,113,112,111,110,109,108,0,0,0,0,0,0,0,0,0,0,0,0,0,1.03,0
197,160,6,9,0,157,145,135,132,125,121,0,0,0,0,0,0,0,0,0,0,0,0,0,141,127,126,125,122,121,0,0,0,0,0,0,0,0,0,0,0,0,0,0.68,0
199,182,6,10,0,178,165,154,149,140,135,0,0,0,0,0,0,0,0,0,0,0,0,0,82,79,78,76,75,74,0,0,0,0,0,0,0,0,0,0,0,0,0,0.71,0
201,92,2,1,0,91,87,83,77,75,74,0,0,0,0,0,0,0,0,0,0,0,0,0,91,78,77,76,75,74,0,0,0,0,0,0,0,0,0,0,0,0,0,0.41,0
203,108,6,2,0,107,106,102,93,80,76,0,0,0,0,0,0,0,0,0,0,0,0,0,107,106,80,79,77,76,0,0,0,0,0,0,0,0,0,0,0,0,0,0.45,0
205,114,0,1,0,112,109,106,103,99,97,0,0,0,0,0,0,0,0,0,0,0,0,0,112,79,78,77,76,75,0,0,0,0,0,0,0,0,0,0,0,0,0,0.27,0
207,82,0,0,0,81,80,79,78,77,76,0,0,0,0,0,0,0,0,0,0,0,0,0,81,80,79,78,77,76,0,0,0,0,0,0,0,0,0,0,0,0,0,0.00,0
209,92,0,0,0,91,90,89,88,87,86,0,0,0,0,0,0,0,0,0,0,0,0,0,91,90,89,88,87,86,0,0,0,0,0,0,0,0,0,0,0,0,0,0.00,0
211,96,0,0,0,95,94,93,92,91,90,0,0,0,0,0,0,0,0,0,0,0,0,0,95,94,93,92,91,90,0,0,0,0,0,0,0,0,0,0,0,0,0,0.00,0
213,160,0,1,1,158,152,149,145,139,136,0,0,0,0,0,0,0,0,0,0,0,0,0,156,132,131,130,129,128,0,0,0,0,0,0,0,0,0,0,0,0,0,0.28,0
215,212,0,4,1,205,196,190,182,170,166,0,0,0,0,0,0,0,0,0,0,0,0,0,117,88,87,85,83,82,0,0,0,0,0,0,0,0,0,0,0,0,0,0.56,0
217,82,0,0,0,81,80,79,78,77,76,0,0,0,0,0,0,0,0,0,0,0,0,0,81,80,79,78,77,76,0,0,0,0,0,0,0,0,0,0,0,0,0,0.00,0
219,86,0,1,0,85,83,81,79,77,76,0,0,0,0,0,0,0,0,0,0,0,0,0,85,81,80,79,77,76,0,0,0,0,0,0,0,0,0,0,0,0,0,0.18,0
221,86,0,0,0,85,84,83,82,81,80,0,0,0,0,0,0,0,0,0,0,0,0,0,85,84,83,82,81,80,0,0,0,0,0,0,0,0,0,0,0,0,0,0.00,0
223,86,0,0,0,85,84,83,82,81,80,0,0,0,0,0,0,0,0,0,0,0,0,0,85,84,83,82,81,80,0,0,0,0,0,0,0,0,0,0,0,0,0,0.00,0
225,82,0,0,0,81,80,79,78,77,76,0,0,0,0,0,0,0,0,0,0,0,0,0,81,80,79,78,77,76,0,0,0,0,0,0,0,0,0,0,0,0,0,0.00,0
227,84,0,0,0,83,82,81,80,79,78,0,0,0,0,0,0,0,0,0,0,0,0,0,83,82,81,80,79,78,0,0,0,0,0,0,0,0,0,0,0,0,0,0.00,0
229,104,0,0,0,103,90,83,76,75,74,0,0,0,0,0,0,0,0,0,0,0,0,0,103,78,77,76,75,74,0,0,0,0,0,0,0,0,0,0,0,0,0,0.52,0
231,112,0,0,0,111,94,85,76,75,74,0,0,0,0,0,0,0,0,0,0,0,0,0,111,78,77,76,75,74,0,0,0,0,0,0,0,0,0,0,0,0,0,0.59,0
233,160,0,0,0,149,136,126,109,95,89,0,0,0,0,0,0,0,0,0,0,0,0,0,97,92,79,78,76,75,0,0,0,0,0,0,0,0,0,0,0,0,0,0.85,0
235,240,0,0,0,219,192,173,140,114,103,0,0,0,0,0,0,0,0,0,0,0,0,0,105,78,77,76,75,74,0,0,0,0,0,0,0,0,0,0,0,0,0,1.04,0
237,216,0,0,0,195,170,154,127,109,101,0,0,0,0,0,0,0,0,0,0,0,0,0,89,84,83,82,81,80,0,0,0,0,0,0,0,0,0,0,0,0,0,1.05,0
239,160,0,0,0,159,152,149,144,139,136,0,0,0,0,0,0,0,0,0,0,0,0,0,159,96,95,94,93,92,0,0,0,0,0,0,0,0,0,0,0,0,0,0.23,0
241,170,0,0,0,169,162,159,154,149,146,0,0,0,0,0,0,0,0,0,0,0,0,0,169,106,105,104,103,102,0,0,0,0,0,0,0,0,0,0,0,0,0,0.22,0
243,140,0,0,0,139,132,129,124,119,116,0,0,0,0,0,0,0,0,0,0,0,0,0,139,96,95,94,93,92,0,0,0,0,0,0,0,0,0,0,0,0,0,0.26,0
245,88,0,0,0,87,86,85,84,83,82,0,0,0,0,0,0,0,0,0,0,0,0,0,87,86,85,84,83,82,0,0,0,0,0,0,0,0,0,0,0,0,0,0.00,0
247,144,0,6,1,136,128,119,108,84,76,0,0,0,0,0,0,0,0,0,0,0,0,0,81,80,79,78,76,75,0,0,0,0,0,0,0,0,0,0,0,0,0,0.72,0
249,112,0,2,0,109,106,103,99,94,90,0,0,0,0,0,0,0,0,0,0,0,0,0,92,91,83,82,78,77,0,0,0,0,0,0,0,0,0,0,0,0,0,0.28,0
