pkt#,size,#dec,#op,#rung,#2gram,#3gram,#4gram,#5gram,#6gram,#7gram,#8gram,#9gram,#10gram,#11gram,#12gram,#13gram,#14gram,#15gram,#16gram,#17gram,#18gram,#19gram,#20gram,L2gram,L3gram,L4gram,L5gram,L6gram,L7gram,L8gram,L9gram,L10gram,L11gram,L12gram,L13gram,L14gram,L15gram,L16gram,L17gram,L18gram,L19gram,L20gram,entropy,class
25,708,0,0,0,706,1,0,0,0,0,0,0,0,0,0,0,0,0,0,0,0,0,0,470,1,0,0,0,0,0,0,0,0,0,0,0,0,0,0,0,0,0,0.02,0
28,708,0,0,0,707,2,1,0,0,0,0,0,0,0,0,0,0,0,0,0,0,0,0,707,2,1,0,0,0,0,0,0,0,0,0,0,0,0,0,0,0,0,0.03,0
31,708,3,0,0,706,3,2,1,0,0,0,0,0,0,0,0,0,0,0,0,0,0,0,470,3,2,1,0,0,0,0,0,0,0,0,0,0,0,0,0,0,0,0.05,0
34,708,5,1,0,707,5,4,3,2,1,0,0,0,0,0,0,0,0,0,0,0,0,0,707,5,4,3,2,1,0,0,0,0,0,0,0,0,0,0,0,0,0,0.06,0
37,708,5,1,0,707,5,4,3,2,1,0,0,0,0,0,0,0,0,0,0,0,0,0,707,5,4,3,2,1,0,0,0,0,0,0,0,0,0,0,0,0,0,0.06,0
40,708,5,2,1,706,6,5,4,3,1,0,0,0,0,0,0,0,0,0,0,0,0,0,470,6,5,4,3,1,0,0,0,0,0,0,0,0,0,0,0,0,0,0.08,0
43,708,7,2,1,706,7,6,5,4,2,0,0,0,0,0,0,0,0,0,0,0,0,0,470,7,6,5,4,1,0,0,0,0,0,0,0,0,0,0,0,0,0,0.09,0
46,708,7,3,1,706,8,7,6,5,3,1,0,0,0,0,0,0,0,0,0,0,0,0,470,8,7,6,5,2,1,0,0,0,0,0,0,0,0,0,0,0,0,0.11,0
49,708,7,3,1,706,9,8,7,6,4,2,1,0,0,0,0,0,0,0,0,0,0,0,470,9,8,7,6,3,2,1,0,0,0,0,0,0,0,0,0,0,0,0.12,0
52,708,12,3,1,707,12,11,9,7,5,3,2,1,0,0,0,0,0,0,0,0,0,0,707,12,11,8,7,4,3,2,1,0,0,0,0,0,0,0,0,0,0,0.14,0
55,708,7,3,1,706,11,10,9,8,6,4,3,2,1,0,0,0,0,0,0,0,0,0,470,11,10,9,8,5,4,3,2,1,0,0,0,0,0,0,0,0,0,0.15,0
58,708,7,3,1,706,12,11,10,9,7,5,4,3,2,1,0,0,0,0,0,0,0,0,470,12,11,10,9,6,5,4,3,2,1,0,0,0,0,0,0,0,0,0.17,0
61,708,7,3,1,706,13,12,11,10,8,6,5,4,3,2,1,0,0,0,0,0,0,0,470,13,12,11,10,7,6,5,4,3,2,1,0,0,0,0,0,0,0,0.18,0
64,708,7,3,1,707,15,13,12,11,9,7,6,5,4,3,2,1,0,0,0,0,0,0,707,14,13,12,11,8,7,6,5,4,3,2,1,0,0,0,0,0,0,0.20,0
67,708,7,3,1,706,15,14,13,12,10,8,7,6,5,4,3,2,1,0,0,0,0,0,470,15,14,13,12,9,8,7,6,5,4,3,2,1,0,0,0,0,0,0.21,0
70,708,16,3,1,706,16,15,14,13,11,9,8,7,6,5,4,3,2,1,0,0,0,0,470,16,15,14,13,10,9,8,7,6,5,4,3,2,1,0,0,0,0,0.22,0
73,708,16,3,1,706,17,16,15,14,12,10,9,8,7,6,5,4,3,2,1,0,0,0,470,17,16,15,14,11,10,9,8,7,6,5,4,3,2,1,0,0,0,0.24,0
76,708,16,3,1,707,18,17,16,15,13,11,10,9,8,7,6,5,4,3,2,1,0,0,707,18,17,16,15,12,11,10,9,8,7,6,5,4,3,2,1,0,0,0.25,0
79,708,19,3,1,706,19,18,17,16,14,12,11,10,9,8,7,6,5,4,3,2,1,0,470,19,18,17,16,13,12,11,10,9,8,7,6,5,4,3,2,1,0,0.26,0
82,708,19,3,1,706,20,19,18,17,15,13,12,11,10,9,8,7,6,5,4,3,2,1,470,20,19,18,17,14,13,12,11,10,9,8,7,6,5,4,3,2,1,0.28,0
85,708,23,3,1,707,23,22,21,20,17,14,13,12,11,10,9,8,7,6,5,4,3,2,707,23,22,21,20,15,14,13,12,11,10,9,8,7,6,5,4,3,2,0.29,0
88,708,23,3,1,706,22,21,20,19,17,15,14,13,12,11,10,9,8,7,6,5,4,3,470,22,21,20,19,16,15,14,13,12,11,10,9,8,7,6,5,4,3,0.30,0
91,708,23,3,1,706,23,22,21,20,18,16,15,14,13,12,11,10,9,8,7,6,5,4,470,23,22,21,20,17,16,15,14,13,12,11,10,9,8,7,6,5,4,0.32,0
94,708,23,3,1,706,24,23,22,21,19,17,16,15,14,13,12,11,10,9,8,7,6,5,470,24,23,22,21,18,17,16,15,14,13,12,11,10,9,8,7,6,5,0.33,0
97,708,23,3,1,706,25,24,23,22,20,18,17,16,15,14,13,12,11,10,9,8,7,6,470,25,24,23,22,19,18,17,16,15,14,13,12,11,10,9,8,7,6,0.34,0
100,708,28,3,1,707,28,27,26,25,23,21,20,19,18,17,16,15,14,13,12,11,10,9,707,28,27,26,25,22,21,20,19,18,17,16,15,14,13,12,11,10,9,0.36,0
103,708,28,3,1,707,28,27,26,25,23,21,20,19,18,17,16,15,14,13,12,11,10,9,707,28,27,26,25,22,21,20,19,18,17,16,15,14,13,12,11,10,9,0.36,0
106,708,28,3,1,707,28,27,26,25,23,21,20,19,18,17,16,15,14,13,12,11,10,9,707,28,27,26,25,22,21,20,19,18,17,16,15,14,13,12,11,10,9,0.36,0
109,708,28,3,2,706,29,28,27,26,24,22,21,20,19,18,17,16,15,14,13,12,11,10,470,29,28,27,26,23,22,21,20,19,18,17,16,15,14,13,12,11,10,0.37,0
112,708,28,3,2,707,30,29,28,27,25,23,22,21,20,19,18,17,16,15,14,13,12,11,707,30,29,28,27,24,23,22,21,20,19,18,17,16,15,14,13,12,11,0.38,0
115,708,31,3,2,706,31,30,29,28,26,24,23,22,21,20,19,18,17,16,15,14,13,12,470,31,30,29,28,25,24,23,22,21,20,19,18,17,16,15,14,13,12,0.39,0
118,708,31,3,2,706,32,31,30,29,27,25,24,23,22,21,20,19,18,17,16,15,14,13,470,32,31,30,29,26,25,24,23,22,21,20,19,18,17,16,15,14,13,0.40,0
121,708,35,3,2,707,35,34,33,32,30,28,27,26,25,24,23,22,21,20,19,18,17,16,707,35,34,33,32,29,28,27,26,25,24,23,22,21,20,19,18,17,16,0.41,0
124,708,35,3,2,707,35,34,33,32,30,28,27,26,25,24,23,22,21,20,19,18,17,16,707,35,34,33,32,29,28,27,26,25,24,23,22,21,20,19,18,17,16,0.41,0
127,708,35,3,2,707,35,34,33,32,30,28,27,26,25,24,23,22,21,20,19,18,17,16,707,35,34,33,32,29,28,27,26,25,24,23,22,21,20,19,18,17,16,0.41,0
130,708,35,3,2,706,36,35,34,33,31,29,28,27,26,25,24,23,22,21,20,19,18,17,470,36,35,34,33,30,29,28,27,26,25,24,23,22,21,20,19,18,17,0.43,0
133,708,35,3,2,706,37,36,35,34,32,30,29,28,27,26,25,24,23,22,21,20,19,18,470,37,36,35,34,31,30,29,28,27,26,25,24,23,22,21,20,19,18,0.44,0
136,708,38,3,2,706,38,37,36,35,33,31,30,29,28,27,26,25,24,23,22,21,20,19,470,38,37,36,35,32,31,30,29,28,27,26,25,24,23,22,21,20,19,0.46,0
139,708,38,3,2,706,39,38,37,36,34,32,31,30,29,28,27,26,25,24,23,22,21,20,470,39,38,37,36,33,32,31,30,29,28,27,26,25,24,23,22,21,20,0.47,0
142,708,42,3,3,707,42,41,40,39,37,35,34,33,32,31,30,29,28,27,26,25,24,23,707,42,41,40,39,36,35,34,33,32,31,30,29,28,27,26,25,24,23,0.48,0
145,708,42,3,3,707,42,41,40,39,37,35,34,33,32,31,30,29,28,27,26,25,24,23,707,42,41,40,39,36,35,34,33,32,31,30,29,28,27,26,25,24,23,0.48,0
148,708,42,3,3,707,42,41,40,39,37,35,34,33,32,31,30,29,28,27,26,25,24,23,707,42,41,40,39,36,35,34,33,32,31,30,29,28,27,26,25,24,23,0.48,0
151,708,42,3,3,706,43,42,41,40,38,36,35,34,33,32,31,30,29,28,27,26,25,24,470,43,42,41,40,37,36,35,34,33,32,31,30,29,28,27,26,25,24,0.49,0
154,708,42,3,3,706,44,43,42,41,39,37,36,35,34,33,32,31,30,29,28,27,26,25,470,44,43,42,41,38,37,36,35,34,33,32,31,30,29,28,27,26,25,0.51,0
157,708,47,3,3,707,47,46,45,44,42,40,39,38,37,36,35,34,33,32,31,30,29,28,707,47,46,45,44,41,40,39,38,37,36,35,34,33,32,31,30,29,28,0.52,0
160,708,47,3,3,707,47,46,45,44,42,40,39,38,37,36,35,34,33,32,31,30,29,28,707,47,46,45,44,41,40,39,38,37,36,35,34,33,32,31,30,29,28,0.52,0
163,708,47,3,3,707,47,46,45,44,42,40,39,38,37,36,35,34,33,32,31,30,29,28,707,47,46,45,44,41,40,39,38,37,36,35,34,33,32,31,30,29,28,0.52,0
166,708,47,3,4,706,48,47,46,45,43,41,40,39,38,37,36,35,34,33,32,31,30,29,470,48,47,46,45,42,41,40,39,38,37,36,35,34,33,32,31,30,29,0.53,0
169,708,49,3,4,706,49,48,47,46,44,42,41,40,39,38,37,36,35,34,33,32,31,30,470,49,48,47,46,43,42,41,40,39,38,37,36,35,34,33,32,31,30,0.55,0
172,708,49,3,4,706,50,49,48,47,45,43,42,41,40,39,38,37,36,35,34,33,32,31,470,50,49,48,47,44,43,42,41,40,39,38,37,36,35,34,33,32,31,0.56,0
175,708,49,3,4,706,51,50,49,48,46,44,43,42,41,40,39,38,37,36,35,34,33,32,470,51,50,49,48,45,44,43,42,41,40,39,38,37,36,35,34,33,32,0.57,0
178,708,54,3,4,707,54,53,52,51,49,47,46,45,44,43,42,41,40,39,38,37,36,35,707,54,53,52,51,48,47,46,45,44,43,42,41,40,39,38,37,36,35,0.58,0
181,708,54,3,4,707,54,53,52,51,49,47,46,45,44,43,42,41,40,39,38,37,36,35,707,54,53,52,51,48,47,46,45,44,43,42,41,40,39,38,37,36,35,0.58,0
184,708,54,3,4,707,54,53,52,51,49,47,46,45,44,43,42,41,40,39,38,37,36,35,707,54,53,52,51,48,47,46,45,44,43,42,41,40,39,38,37,36,35,0.58,0
187,708,54,3,4,706,55,54,53,52,50,48,47,46,45,44,43,42,41,40,39,38,37,36,470,55,54,53,52,49,48,47,46,45,44,43,42,41,40,39,38,37,36,0.59,0
190,708,58,3,5,707,58,57,56,55,53,51,50,49,48,47,46,45,44,43,42,41,40,39,707,58,57,56,55,52,51,50,49,48,47,46,45,44,43,42,41,40,39,0.60,0
193,708,58,3,5,707,58,57,56,55,53,51,50,49,48,47,46,45,44,43,42,41,40,39,707,58,57,56,55,52,51,50,49,48,47,46,45,44,43,42,41,40,39,0.60,0
196,708,58,3,5,707,58,57,56,55,53,51,50,49,48,47,46,45,44,43,42,41,40,39,707,58,57,56,55,52,51,50,49,48,47,46,45,44,43,42,41,40,39,0.60,0
199,708,58,3,5,706,59,58,57,56,54,52,51,50,49,48,47,46,45,44,43,42,41,40,470,59,58,57,56,53,52,51,50,49,48,47,46,45,44,43,42,41,40,0.62,0
202,708,58,3,5,706,60,59,58,57,55,53,52,51,50,49,48,47,46,45,44,43,42,41,470,60,59,58,57,54,53,52,51,50,49,48,47,46,45,44,43,42,41,0.63,0
205,708,63,3,5,707,63,62,61,60,58,56,55,54,53,52,51,50,49,48,47,46,45,44,707,63,62,61,60,57,56,55,54,53,52,51,50,49,48,47,46,45,44,0.64,0
208,708,63,3,5,707,63,62,61,60,58,56,55,54,53,52,51,50,49,48,47,46,45,44,707,63,62,61,60,57,56,55,54,53,52,51,50,49,48,47,46,45,44,0.64,0
211,708,63,3,5,707,63,62,61,60,58,56,55,54,53,52,51,50,49,48,47,46,45,44,707,63,62,61,60,57,56,55,54,53,52,51,50,49,48,47,46,45,44,0.64,0
214,708,63,3,5,706,64,63,62,61,59,57,56,55,54,53,52,51,50,49,48,47,46,45,470,64,63,62,61,58,57,56,55,54,53,52,51,50,49,48,47,46,45,0.65,0
217,708,67,3,6,707,67,66,65,64,62,60,59,58,57,56,55,54,53,52,51,50,49,48,707,67,66,65,64,61,60,59,58,57,56,55,54,53,52,51,50,49,48,0.66,0
220,708,67,3,6,707,67,66,65,64,62,60,59,58,57,56,55,54,53,52,51,50,49,48,707,67,66,65,64,61,60,59,58,57,56,55,54,53,52,51,50,49,48,0.66,0
223,708,67,3,6,707,67,66,65,64,62,60,59,58,57,56,55,54,53,52,51,50,49,48,707,67,66,65,64,61,60,59,58,57,56,55,54,53,52,51,50,49,48,0.66,0
226,708,67,3,6,706,68,67,66,65,63,61,60,59,58,57,56,55,54,53,52,51,50,49,470,68,67,66,65,62,61,60,59,58,57,56,55,54,53,52,51,50,49,0.67,0
229,708,67,3,6,706,69,68,67,66,64,62,61,60,59,58,57,56,55,54,53,52,51,50,470,69,68,67,66,63,62,61,60,59,58,57,56,55,54,53,52,51,50,0.68,0
232,708,72,3,6,707,72,71,70,69,67,65,64,63,62,61,60,59,58,57,56,55,54,53,707,72,71,70,69,66,65,64,63,62,61,60,59,58,57,56,55,54,53,0.69,0
235,708,72,3,6,707,72,71,70,69,67,65,64,63,62,61,60,59,58,57,56,55,54,53,707,72,71,70,69,66,65,64,63,62,61,60,59,58,57,56,55,54,53,0.69,0
238,708,72,3,6,707,72,71,70,69,67,65,64,63,62,61,60,59,58,57,56,55,54,53,707,72,71,70,69,66,65,64,63,62,61,60,59,58,57,56,55,54,53,0.69,0
241,708,72,3,6,706,73,72,71,70,68,66,65,64,63,62,61,60,59,58,57,56,55,54,470,73,72,71,70,67,66,65,64,63,62,61,60,59,58,57,56,55,54,0.70,0
244,708,76,3,7,707,76,75,74,73,71,69,68,67,66,65,64,63,62,61,60,59,58,57,707,76,75,74,73,70,69,68,67,66,65,64,63,62,61,60,59,58,57,0.72,0
247,708,76,3,7,707,76,75,74,73,71,69,68,67,66,65,64,63,62,61,60,59,58,57,707,76,75,74,73,70,69,68,67,66,65,64,63,62,61,60,59,58,57,0.72,0
250,708,76,3,7,707,76,75,74,73,71,69,68,67,66,65,64,63,62,61,60,59,58,57,707,76,75,74,73,70,69,68,67,66,65,64,63,62,61,60,59,58,57,0.72,0
253,708,76,3,7,706,77,76,75,74,72,70,69,68,67,66,65,64,63,62,61,60,59,58,470,77,76,75,74,71,70,69,68,67,66,65,64,63,62,61,60,59,58,0.73,0
256,708,76,3,7,706,78,77,76,75,73,71,70,69,68,67,66,65,64,63,62,61,60,59,470,78,77,76,75,72,71,70,69,68,67,66,65,64,63,62,61,60,59,0.74,0
259,708,81,3,7,707,81,80,79,78,76,74,73,72,71,70,69,68,67,66,65,64,63,62,707,81,80,79,78,75,74,73,72,71,70,69,68,67,66,65,64,63,62,0.75,0
262,708,81,3,7,707,81,80,79,78,76,74,73,72,71,70,69,68,67,66,65,64,63,62,707,81,80,79,78,75,74,73,72,71,70,69,68,67,66,65,64,63,62,0.75,0
265,708,81,3,7,707,81,80,79,78,76,74,73,72,71,70,69,68,67,66,65,64,63,62,707,81,80,79,78,75,74,73,72,71,70,69,68,67,66,65,64,63,62,0.75,0
268,708,81,3,8,706,82,81,80,79,77,75,74,73,72,71,70,69,68,67,66,65,64,63,470,82,81,80,79,76,75,74,73,72,71,70,69,68,67,66,65,64,63,0.76,0
271,708,81,3,8,707,83,82,81,80,78,76,75,74,73,72,71,70,69,68,67,66,65,64,707,83,82,81,80,77,76,75,74,73,72,71,70,69,68,67,66,65,64,0.77,0
274,708,84,3,8,706,84,83,82,81,79,77,76,75,74,73,72,71,70,69,68,67,66,65,470,84,83,82,81,78,77,76,75,74,73,72,71,70,69,68,67,66,65,0.78,0
277,708,86,3,8,707,86,85,84,83,81,79,77,76,75,74,73,72,71,70,69,68,67,66,707,86,85,84,83,80,79,77,76,75,74,73,72,71,70,69,68,67,66,0.79,0
280,708,86,3,8,707,86,85,84,83,81,79,78,77,76,75,74,73,72,71,70,69,68,67,707,86,85,84,83,80,79,78,77,76,75,74,73,72,71,70,69,68,67,0.81,0
283,708,86,3,8,706,87,86,85,84,82,80,79,78,77,76,75,74,73,72,71,70,69,68,470,87,86,85,84,81,80,79,78,77,76,75,74,73,72,71,70,69,68,0.82,0
286,708,90,3,8,707,90,89,88,87,85,83,82,81,80,79,78,77,76,75,74,73,72,71,707,90,89,88,87,84,83,82,81,80,79,78,77,76,75,74,73,72,71,0.83,0
289,708,90,3,8,707,90,89,88,87,85,83,82,81,80,79,78,77,76,75,74,73,72,71,707,90,89,88,87,84,83,82,81,80,79,78,77,76,75,74,73,72,71,0.83,0
292,708,90,3,8,707,90,89,88,87,85,83,82,81,80,79,78,77,76,75,74,73,72,71,707,90,89,88,87,84,83,82,81,80,79,78,77,76,75,74,73,72,71,0.83,0
295,708,90,3,8,706,91,90,89,88,86,84,83,82,81,80,79,78,77,76,75,74,73,72,470,91,90,89,88,85,84,83,82,81,80,79,78,77,76,75,74,73,72,0.84,0
298,708,90,3,8,706,92,91,90,89,87,85,84,83,82,81,80,79,78,77,76,75,74,73,470,92,91,90,89,86,85,84,83,82,81,80,79,78,77,76,75,74,73,0.85,0
301,708,95,3,8,707,95,94,93,92,89,86,85,84,83,82,81,80,79,78,77,76,75,74,707,95,94,93,92,87,86,85,84,83,82,81,80,79,78,77,76,75,74,0.86,0
304,708,90,3,8,706,94,93,92,91,89,87,86,85,84,83,82,81,80,79,78,77,76,75,470,94,93,92,91,88,87,86,85,84,83,82,81,80,79,78,77,76,75,0.87,0
307,708,90,3,8,706,95,94,93,92,90,88,87,86,85,84,83,82,81,80,79,78,77,76,470,95,94,93,92,89,88,87,86,85,84,83,82,81,80,79,78,77,76,0.88,0
310,708,90,3,8,706,96,95,94,93,91,89,88,87,86,85,84,83,82,81,80,79,78,77,470,96,95,94,93,90,89,88,87,86,85,84,83,82,81,80,79,78,77,0.89,0
313,708,90,3,8,707,98,96,95,94,92,90,89,88,87,86,85,84,83,82,81,80,79,78,707,97,96,95,94,91,90,89,88,87,86,85,84,83,82,81,80,79,78,0.90,0
316,708,90,3,8,706,98,97,96,95,93,91,90,89,88,87,86,85,84,83,82,81,80,79,470,98,97,96,95,92,91,90,89,88,87,86,85,84,83,82,81,80,79,0.91,0
319,708,99,3,8,706,99,98,97,96,94,92,91,90,89,88,87,86,85,84,83,82,81,80,470,99,98,97,96,93,92,91,90,89,88,87,86,85,84,83,82,81,80,0.92,0
322,708,99,3,8,706,100,99,98,97,95,93,92,91,90,89,88,87,86,85,84,83,82,81,470,100,99,98,97,94,93,92,91,90,89,88,87,86,85,84,83,82,81,0.93,0
325,708,99,3,8,707,101,100,99,98,96,94,93,92,91,90,89,88,87,86,85,84,83,82,707,101,100,99,98,95,94,93,92,91,90,89,88,87,86,85,84,83,82,0.94,0
328,708,102,3,8,706,102,101,100,99,97,95,94,93,92,91,90,89,88,87,86,85,84,83,470,102,101,100,99,96,95,94,93,92,91,90,89,88,87,86,85,84,83,0.95,0
331,708,102,3,8,706,103,102,101,100,98,96,95,94,93,92,91,90,89,88,87,86,85,84,470,103,102,101,100,97,96,95,94,93,92,91,90,89,88,87,86,85,84,0.96,0
334,708,106,3,8,707,106,105,104,103,100,97,96,95,94,93,92,91,90,89,88,87,86,85,707,106,105,104,103,98,97,96,95,94,93,92,91,90,89,88,87,86,85,0.97,0
337,708,106,3,8,706,105,104,103,102,100,98,97,96,95,94,93,92,91,90,89,88,87,86,470,105,104,103,102,99,98,97,96,95,94,93,92,91,90,89,88,87,86,0.99,0
340,708,106,3,8,706,106,105,104,103,101,99,98,97,96,95,94,93,92,91,90,89,88,87,470,106,105,104,103,100,99,98,97,96,95,94,93,92,91,90,89,88,87,1.00,0
343,708,106,3,8,706,107,106,105,104,102,100,99,98,97,96,95,94,93,92,91,90,89,88,470,107,106,105,104,101,100,99,98,97,96,95,94,93,92,91,90,89,88,1.01,0
346,708,106,3,8,706,108,107,106,105,103,101,100,99,98,97,96,95,94,93,92,91,90,89,470,108,107,106,105,102,101,100,99,98,97,96,95,94,93,92,91,90,89,1.02,0
349,708,109,3,8,706,109,108,107,106,104,102,101,100,99,98,97,96,95,94,93,92,91,90,470,109,108,107,106,103,102,101,100,99,98,97,96,95,94,93,92,91,90,1.03,0
352,708,109,3,9,706,110,109,108,107,105,103,102,101,100,99,98,97,96,95,94,93,92,91,470,110,109,108,107,104,103,102,101,100,99,98,97,96,95,94,93,92,91,1.04,0
355,708,109,3,9,707,111,110,109,108,106,104,103,102,101,100,99,98,97,96,95,94,93,92,707,111,110,109,108,105,104,103,102,101,100,99,98,97,96,95,94,93,92,1.05,0
358,708,112,3,9,706,112,111,110,109,107,105,104,103,102,101,100,99,98,97,96,95,94,93,470,112,111,110,109,106,105,104,103,102,101,100,99,98,97,96,95,94,93,1.06,0
361,708,114,3,9,707,113,112,111,110,108,106,105,104,103,102,101,100,99,98,97,96,95,94,707,113,112,111,110,107,106,105,104,103,102,101,100,99,98,97,96,95,94,1.08,0
364,347,2,1,0,341,0,0,0,0,0,0,0,0,0,0,0,0,0,0,0,0,0,0,235,0,0,0,0,0,0,0,0,0,0,0,0,0,0,0,0,0,0,0.11,0
