pkt#,size,#dec,#op,#rung,#2gram,#3gram,#4gram,#5gram,#6gram,#7gram,#8gram,#9gram,#10gram,#11gram,#12gram,#13gram,#14gram,#15gram,#16gram,#17gram,#18gram,#19gram,#20gram,L2gram,L3gram,L4gram,L5gram,L6gram,L7gram,L8gram,L9gram,L10gram,L11gram,L12gram,L13gram,L14gram,L15gram,L16gram,L17gram,L18gram,L19gram,L20gram,entropy,class
34,708,0,1,0,706,1,0,0,0,0,0,0,0,0,0,0,0,0,0,0,0,0,0,470,1,0,0,0,0,0,0,0,0,0,0,0,0,0,0,0,0,0,0.02,0
37,708,4,1,0,707,4,2,1,0,0,0,0,0,0,0,0,0,0,0,0,0,0,0,707,4,2,1,0,0,0,0,0,0,0,0,0,0,0,0,0,0,0,0.03,0
40,708,2,1,0,705,2,0,0,0,0,0,0,0,0,0,0,0,0,0,0,0,0,0,470,2,0,0,0,0,0,0,0,0,0,0,0,0,0,0,0,0,0,0.05,0
43,708,4,1,0,704,2,0,0,0,0,0,0,0,0,0,0,0,0,0,0,0,0,0,470,2,0,0,0,0,0,0,0,0,0,0,0,0,0,0,0,0,0,0.06,0
46,708,4,3,0,703,2,0,0,0,0,0,0,0,0,0,0,0,0,0,0,0,0,0,470,2,0,0,0,0,0,0,0,0,0,0,0,0,0,0,0,0,0,0.08,0
49,708,4,3,0,702,2,0,0,0,0,0,0,0,0,0,0,0,0,0,0,0,0,0,470,2,0,0,0,0,0,0,0,0,0,0,0,0,0,0,0,0,0,0.09,0
52,708,4,3,0,701,2,0,0,0,0,0,0,0,0,0,0,0,0,0,0,0,0,0,470,2,0,0,0,0,0,0,0,0,0,0,0,0,0,0,0,0,0,0.11,0
55,708,4,4,0,701,2,0,0,0,0,0,0,0,0,0,0,0,0,0,0,0,0,0,470,2,0,0,0,0,0,0,0,0,0,0,0,0,0,0,0,0,0,0.12,0
58,708,4,4,0,701,2,0,0,0,0,0,0,0,0,0,0,0,0,0,0,0,0,0,471,2,0,0,0,0,0,0,0,0,0,0,0,0,0,0,0,0,0,0.14,0
61,708,4,4,0,699,2,0,0,0,0,0,0,0,0,0,0,0,0,0,0,0,0,0,470,2,0,0,0,0,0,0,0,0,0,0,0,0,0,0,0,0,0,0.15,0
64,708,4,4,0,698,2,0,0,0,0,0,0,0,0,0,0,0,0,0,0,0,0,0,470,2,0,0,0,0,0,0,0,0,0,0,0,0,0,0,0,0,0,0.17,0
67,708,12,4,1,699,2,0,0,0,0,0,0,0,0,0,0,0,0,0,0,0,0,0,472,2,0,0,0,0,0,0,0,0,0,0,0,0,0,0,0,0,0,0.18,0
70,708,14,4,1,698,2,0,0,0,0,0,0,0,0,0,0,0,0,0,0,0,0,0,471,2,0,0,0,0,0,0,0,0,0,0,0,0,0,0,0,0,0,0.20,0
73,708,14,4,1,697,2,0,0,0,0,0,0,0,0,0,0,0,0,0,0,0,0,0,470,2,0,0,0,0,0,0,0,0,0,0,0,0,0,0,0,0,0,0.22,0
76,708,14,4,1,696,2,0,0,0,0,0,0,0,0,0,0,0,0,0,0,0,0,0,470,2,0,0,0,0,0,0,0,0,0,0,0,0,0,0,0,0,0,0.23,0
79,708,18,4,1,697,3,0,0,0,0,0,0,0,0,0,0,0,0,0,0,0,0,0,472,2,0,0,0,0,0,0,0,0,0,0,0,0,0,0,0,0,0,0.24,0
82,708,18,4,1,696,2,0,0,0,0,0,0,0,0,0,0,0,0,0,0,0,0,0,471,2,0,0,0,0,0,0,0,0,0,0,0,0,0,0,0,0,0,0.26,0
85,708,18,4,1,696,2,0,0,0,0,0,0,0,0,0,0,0,0,0,0,0,0,0,472,2,0,0,0,0,0,0,0,0,0,0,0,0,0,0,0,0,0,0.26,0
88,708,18,4,1,695,2,0,0,0,0,0,0,0,0,0,0,0,0,0,0,0,0,0,470,2,0,0,0,0,0,0,0,0,0,0,0,0,0,0,0,0,0,0.27,0
91,708,22,4,2,696,5,2,1,0,0,0,0,0,0,0,0,0,0,0,0,0,0,0,474,3,2,1,0,0,0,0,0,0,0,0,0,0,0,0,0,0,0,0.29,0
94,708,18,4,1,694,3,0,0,0,0,0,0,0,0,0,0,0,0,0,0,0,0,0,470,2,0,0,0,0,0,0,0,0,0,0,0,0,0,0,0,0,0,0.30,0
97,708,22,4,2,693,3,0,0,0,0,0,0,0,0,0,0,0,0,0,0,0,0,0,470,2,0,0,0,0,0,0,0,0,0,0,0,0,0,0,0,0,0,0.31,0
100,708,22,4,2,692,3,0,0,0,0,0,0,0,0,0,0,0,0,0,0,0,0,0,470,2,0,0,0,0,0,0,0,0,0,0,0,0,0,0,0,0,0,0.33,0
103,708,22,4,2,692,3,0,0,0,0,0,0,0,0,0,0,0,0,0,0,0,0,0,470,2,0,0,0,0,0,0,0,0,0,0,0,0,0,0,0,0,0,0.34,0
106,708,22,4,2,691,3,0,0,0,0,0,0,0,0,0,0,0,0,0,0,0,0,0,470,2,0,0,0,0,0,0,0,0,0,0,0,0,0,0,0,0,0,0.35,0
109,708,22,4,2,691,3,0,0,0,0,0,0,0,0,0,0,0,0,0,0,0,0,0,470,2,0,0,0,0,0,0,0,0,0,0,0,0,0,0,0,0,0,0.37,0
112,708,22,4,2,691,3,0,0,0,0,0,0,0,0,0,0,0,0,0,0,0,0,0,471,2,0,0,0,0,0,0,0,0,0,0,0,0,0,0,0,0,0,0.38,0
115,708,22,4,2,689,3,0,0,0,0,0,0,0,0,0,0,0,0,0,0,0,0,0,470,2,0,0,0,0,0,0,0,0,0,0,0,0,0,0,0,0,0,0.39,0
118,708,22,4,2,688,3,0,0,0,0,0,0,0,0,0,0,0,0,0,0,0,0,0,470,2,0,0,0,0,0,0,0,0,0,0,0,0,0,0,0,0,0,0.40,0
121,708,30,4,2,688,3,0,0,0,0,0,0,0,0,0,0,0,0,0,0,0,0,0,470,2,0,0,0,0,0,0,0,0,0,0,0,0,0,0,0,0,0,0.42,0
124,708,32,4,2,688,3,0,0,0,0,0,0,0,0,0,0,0,0,0,0,0,0,0,471,2,0,0,0,0,0,0,0,0,0,0,0,0,0,0,0,0,0,0.43,0
127,708,32,4,2,687,3,0,0,0,0,0,0,0,0,0,0,0,0,0,0,0,0,0,470,2,0,0,0,0,0,0,0,0,0,0,0,0,0,0,0,0,0,0.45,0
130,708,32,4,2,686,3,0,0,0,0,0,0,0,0,0,0,0,0,0,0,0,0,0,470,2,0,0,0,0,0,0,0,0,0,0,0,0,0,0,0,0,0,0.46,0
133,708,32,4,2,687,5,1,0,0,0,0,0,0,0,0,0,0,0,0,0,0,0,0,472,2,1,0,0,0,0,0,0,0,0,0,0,0,0,0,0,0,0,0.47,0
136,708,36,4,2,687,5,1,0,0,0,0,0,0,0,0,0,0,0,0,0,0,0,0,473,2,1,0,0,0,0,0,0,0,0,0,0,0,0,0,0,0,0,0.49,0
139,708,36,4,2,687,5,1,0,0,0,0,0,0,0,0,0,0,0,0,0,0,0,0,474,2,1,0,0,0,0,0,0,0,0,0,0,0,0,0,0,0,0,0.49,0
142,708,36,4,3,686,6,2,0,0,0,0,0,0,0,0,0,0,0,0,0,0,0,0,470,3,2,0,0,0,0,0,0,0,0,0,0,0,0,0,0,0,0,0.50,0
145,708,36,4,3,687,7,3,1,0,0,0,0,0,0,0,0,0,0,0,0,0,0,0,476,4,3,1,0,0,0,0,0,0,0,0,0,0,0,0,0,0,0,0.52,0
148,708,39,4,3,686,8,4,1,0,0,0,0,0,0,0,0,0,0,0,0,0,0,0,470,5,4,1,0,0,0,0,0,0,0,0,0,0,0,0,0,0,0,0.53,0
151,708,41,4,3,685,8,4,1,0,0,0,0,0,0,0,0,0,0,0,0,0,0,0,470,5,4,1,0,0,0,0,0,0,0,0,0,0,0,0,0,0,0,0.55,0
154,708,41,4,3,685,8,4,1,0,0,0,0,0,0,0,0,0,0,0,0,0,0,0,471,5,4,1,0,0,0,0,0,0,0,0,0,0,0,0,0,0,0,0.55,0
157,708,41,4,3,684,8,4,1,0,0,0,0,0,0,0,0,0,0,0,0,0,0,0,470,5,4,1,0,0,0,0,0,0,0,0,0,0,0,0,0,0,0,0.56,0
160,708,45,4,3,685,11,6,2,0,0,0,0,0,0,0,0,0,0,0,0,0,0,0,473,5,4,1,0,0,0,0,0,0,0,0,0,0,0,0,0,0,0,0.57,0
163,708,41,4,3,683,9,4,1,0,0,0,0,0,0,0,0,0,0,0,0,0,0,0,470,5,4,1,0,0,0,0,0,0,0,0,0,0,0,0,0,0,0,0.58,0
166,708,45,4,3,682,9,4,1,0,0,0,0,0,0,0,0,0,0,0,0,0,0,0,470,5,4,1,0,0,0,0,0,0,0,0,0,0,0,0,0,0,0,0.60,0
169,708,47,4,3,683,10,4,1,0,0,0,0,0,0,0,0,0,0,0,0,0,0,0,472,5,4,1,0,0,0,0,0,0,0,0,0,0,0,0,0,0,0,0.61,0
172,708,47,4,3,682,10,4,1,0,0,0,0,0,0,0,0,0,0,0,0,0,0,0,471,5,4,1,0,0,0,0,0,0,0,0,0,0,0,0,0,0,0,0.62,0
175,708,49,4,3,681,9,4,1,0,0,0,0,0,0,0,0,0,0,0,0,0,0,0,471,5,4,1,0,0,0,0,0,0,0,0,0,0,0,0,0,0,0,0.64,0
178,708,47,4,3,679,9,4,1,0,0,0,0,0,0,0,0,0,0,0,0,0,0,0,470,5,4,1,0,0,0,0,0,0,0,0,0,0,0,0,0,0,0,0.65,0
181,708,47,4,3,679,9,4,1,0,0,0,0,0,0,0,0,0,0,0,0,0,0,0,470,5,4,1,0,0,0,0,0,0,0,0,0,0,0,0,0,0,0,0.66,0
184,708,47,4,3,680,12,6,2,0,0,0,0,0,0,0,0,0,0,0,0,0,0,0,473,5,4,1,0,0,0,0,0,0,0,0,0,0,0,0,0,0,0,0.68,0
187,708,47,4,3,679,11,5,1,0,0,0,0,0,0,0,0,0,0,0,0,0,0,0,470,5,4,1,0,0,0,0,0,0,0,0,0,0,0,0,0,0,0,0.69,0
190,708,47,4,3,679,12,6,2,0,0,0,0,0,0,0,0,0,0,0,0,0,0,0,470,5,4,1,0,0,0,0,0,0,0,0,0,0,0,0,0,0,0,0.70,0
193,708,47,4,3,679,13,7,3,1,0,0,0,0,0,0,0,0,0,0,0,0,0,0,470,5,4,2,1,0,0,0,0,0,0,0,0,0,0,0,0,0,0,0.71,0
196,708,47,4,3,680,15,8,4,2,1,0,0,0,0,0,0,0,0,0,0,0,0,0,477,5,4,3,2,1,0,0,0,0,0,0,0,0,0,0,0,0,0,0.72,0
199,708,47,4,3,679,15,9,5,3,2,1,0,0,0,0,0,0,0,0,0,0,0,0,470,6,5,4,3,2,1,0,0,0,0,0,0,0,0,0,0,0,0,0.74,0
202,708,57,4,3,679,16,10,6,4,3,2,1,0,0,0,0,0,0,0,0,0,0,0,470,7,6,5,4,3,2,1,0,0,0,0,0,0,0,0,0,0,0,0.75,0
205,708,57,4,3,679,17,10,6,4,3,2,1,0,0,0,0,0,0,0,0,0,0,0,470,8,6,5,4,3,2,1,0,0,0,0,0,0,0,0,0,0,0,0.76,0
208,708,57,4,3,680,18,11,6,4,3,2,1,0,0,0,0,0,0,0,0,0,0,0,481,9,6,5,4,3,2,1,0,0,0,0,0,0,0,0,0,0,0,0.77,0
211,708,60,4,3,679,19,12,7,4,3,2,1,0,0,0,0,0,0,0,0,0,0,0,470,10,6,5,4,3,2,1,0,0,0,0,0,0,0,0,0,0,0,0.79,0
214,708,60,4,3,679,20,13,8,5,3,2,1,0,0,0,0,0,0,0,0,0,0,0,470,11,6,5,4,3,2,1,0,0,0,0,0,0,0,0,0,0,0,0.80,0
217,708,64,4,3,680,23,16,11,8,5,2,1,0,0,0,0,0,0,0,0,0,0,0,484,14,6,5,4,3,2,1,0,0,0,0,0,0,0,0,0,0,0,0.81,0
220,708,60,4,3,678,21,14,9,6,4,2,1,0,0,0,0,0,0,0,0,0,0,0,470,12,6,5,4,3,2,1,0,0,0,0,0,0,0,0,0,0,0,0.83,0
223,708,64,4,3,677,21,14,9,6,4,2,1,0,0,0,0,0,0,0,0,0,0,0,470,12,6,5,4,3,2,1,0,0,0,0,0,0,0,0,0,0,0,0.84,0
226,708,66,4,3,677,21,14,9,6,4,2,1,0,0,0,0,0,0,0,0,0,0,0,471,12,6,5,4,3,2,1,0,0,0,0,0,0,0,0,0,0,0,0.85,0
229,708,67,4,3,677,21,14,9,6,4,2,1,0,0,0,0,0,0,0,0,0,0,0,472,12,6,5,4,3,2,1,0,0,0,0,0,0,0,0,0,0,0,0.86,0
232,708,66,4,3,676,22,14,9,6,4,2,1,0,0,0,0,0,0,0,0,0,0,0,470,12,6,5,4,3,2,1,0,0,0,0,0,0,0,0,0,0,0,0.88,0
235,708,68,4,3,675,22,14,9,6,4,2,1,0,0,0,0,0,0,0,0,0,0,0,470,12,6,5,4,3,2,1,0,0,0,0,0,0,0,0,0,0,0,0.89,0
238,708,68,4,4,674,22,14,9,6,4,2,1,0,0,0,0,0,0,0,0,0,0,0,470,12,6,5,4,3,2,1,0,0,0,0,0,0,0,0,0,0,0,0.91,0
241,708,68,4,4,675,22,14,9,6,4,2,1,0,0,0,0,0,0,0,0,0,0,0,472,12,6,5,4,3,2,1,0,0,0,0,0,0,0,0,0,0,0,0.92,0
244,708,71,4,4,674,23,14,9,6,4,2,1,0,0,0,0,0,0,0,0,0,0,0,470,12,6,5,4,3,2,1,0,0,0,0,0,0,0,0,0,0,0,0.93,0
247,708,73,4,4,675,24,15,9,6,4,2,1,0,0,0,0,0,0,0,0,0,0,0,474,12,6,5,4,3,2,1,0,0,0,0,0,0,0,0,0,0,0,0.94,0
250,347,2,1,0,341,0,0,0,0,0,0,0,0,0,0,0,0,0,0,0,0,0,0,235,0,0,0,0,0,0,0,0,0,0,0,0,0,0,0,0,0,0,0.11,0
