pkt#,size,#dec,#op,#rung,#2gram,#3gram,#4gram,#5gram,#6gram,#7gram,#8gram,#9gram,#10gram,#11gram,#12gram,#13gram,#14gram,#15gram,#16gram,#17gram,#18gram,#19gram,#20gram,L2gram,L3gram,L4gram,L5gram,L6gram,L7gram,L8gram,L9gram,L10gram,L11gram,L12gram,L13gram,L14gram,L15gram,L16gram,L17gram,L18gram,L19gram,L20gram,entropy,class
78,708,0,2,0,705,0,0,0,0,0,0,0,0,0,0,0,0,0,0,0,0,0,0,470,0,0,0,0,0,0,0,0,0,0,0,0,0,0,0,0,0,0,0.02,0
81,708,0,3,0,705,0,0,0,0,0,0,0,0,0,0,0,0,0,0,0,0,0,0,470,0,0,0,0,0,0,0,0,0,0,0,0,0,0,0,0,0,0,0.03,0
84,708,0,3,0,706,3,1,0,0,0,0,0,0,0,0,0,0,0,0,0,0,0,0,473,3,1,0,0,0,0,0,0,0,0,0,0,0,0,0,0,0,0,0.05,0
87,708,0,3,0,705,2,1,0,0,0,0,0,0,0,0,0,0,0,0,0,0,0,0,470,2,1,0,0,0,0,0,0,0,0,0,0,0,0,0,0,0,0,0.06,0
90,708,0,4,0,705,3,2,1,0,0,0,0,0,0,0,0,0,0,0,0,0,0,0,470,3,2,1,0,0,0,0,0,0,0,0,0,0,0,0,0,0,0,0.08,0
93,708,6,4,1,705,4,3,2,1,0,0,0,0,0,0,0,0,0,0,0,0,0,0,470,4,3,2,1,0,0,0,0,0,0,0,0,0,0,0,0,0,0,0.09,0
96,708,8,5,1,706,5,4,3,2,1,0,0,0,0,0,0,0,0,0,0,0,0,0,477,5,4,3,2,1,0,0,0,0,0,0,0,0,0,0,0,0,0,0.10,0
99,708,8,5,1,705,6,5,4,3,2,1,0,0,0,0,0,0,0,0,0,0,0,0,470,6,5,4,3,2,1,0,0,0,0,0,0,0,0,0,0,0,0,0.12,0
102,708,8,7,1,705,7,6,5,4,3,2,1,0,0,0,0,0,0,0,0,0,0,0,470,7,6,5,4,3,2,1,0,0,0,0,0,0,0,0,0,0,0,0.13,0
105,708,8,8,1,705,8,7,6,5,4,3,2,1,0,0,0,0,0,0,0,0,0,0,470,8,7,6,5,4,3,2,1,0,0,0,0,0,0,0,0,0,0,0.15,0
108,708,8,8,1,706,11,9,7,6,5,4,3,2,1,0,0,0,0,0,0,0,0,0,481,11,8,7,6,5,4,3,2,1,0,0,0,0,0,0,0,0,0,0.16,0
111,708,8,8,1,705,10,9,8,7,6,5,4,3,2,1,0,0,0,0,0,0,0,0,470,10,9,8,7,6,5,4,3,2,1,0,0,0,0,0,0,0,0,0.17,0
114,708,8,9,1,705,11,10,9,8,7,6,5,4,3,2,1,0,0,0,0,0,0,0,470,11,10,9,8,7,6,5,4,3,2,1,0,0,0,0,0,0,0,0.18,0
117,708,14,6,1,705,12,11,10,9,8,7,6,5,4,3,2,1,0,0,0,0,0,0,470,12,11,10,9,8,7,6,5,4,3,2,1,0,0,0,0,0,0,0.19,0
120,708,16,7,1,706,13,12,11,10,9,8,7,6,5,4,3,2,1,0,0,0,0,0,485,13,12,11,10,9,8,7,6,5,4,3,2,1,0,0,0,0,0,0.21,0
123,708,16,6,1,705,14,13,12,11,10,9,8,7,6,5,4,3,2,1,0,0,0,0,470,14,13,12,11,10,9,8,7,6,5,4,3,2,1,0,0,0,0,0.22,0
126,708,16,7,1,705,15,14,13,12,11,10,9,8,7,6,5,4,3,2,1,0,0,0,470,15,14,13,12,11,10,9,8,7,6,5,4,3,2,1,0,0,0,0.23,0
129,708,16,8,1,705,16,15,14,13,12,11,10,9,8,7,6,5,4,3,2,1,0,0,470,16,15,14,13,12,11,10,9,8,7,6,5,4,3,2,1,0,0,0.24,0
132,708,16,8,1,706,19,17,15,14,13,12,11,10,9,8,7,6,5,4,3,2,1,0,489,19,16,15,14,13,12,11,10,9,8,7,6,5,4,3,2,1,0,0.25,0
135,708,16,8,1,705,18,17,16,15,14,13,12,11,10,9,8,7,6,5,4,3,2,1,470,18,17,16,15,14,13,12,11,10,9,8,7,6,5,4,3,2,1,0.26,0
138,708,16,9,1,705,19,18,17,16,15,14,13,12,11,10,9,8,7,6,5,4,3,2,470,19,18,17,16,15,14,13,12,11,10,9,8,7,6,5,4,3,2,0.27,0
141,708,22,6,1,705,20,19,18,17,16,15,14,13,12,11,10,9,8,7,6,5,4,3,470,20,19,18,17,16,15,14,13,12,11,10,9,8,7,6,5,4,3,0.28,0
144,708,24,7,1,706,21,20,19,18,17,16,15,14,13,12,11,10,9,8,7,6,5,4,493,21,20,19,18,17,16,15,14,13,12,11,10,9,8,7,6,5,4,0.30,0
147,708,24,6,1,705,22,21,20,19,18,17,16,15,14,13,12,11,10,9,8,7,6,5,470,22,21,20,19,18,17,16,15,14,13,12,11,10,9,8,7,6,5,0.31,0
150,708,24,7,1,705,23,22,21,20,19,18,17,16,15,14,13,12,11,10,9,8,7,6,470,23,22,21,20,19,18,17,16,15,14,13,12,11,10,9,8,7,6,0.32,0
153,708,24,8,1,705,24,23,22,21,20,19,18,17,16,15,14,13,12,11,10,9,8,7,470,24,23,22,21,20,19,18,17,16,15,14,13,12,11,10,9,8,7,0.33,0
156,708,24,8,1,706,27,25,23,22,21,20,19,18,17,16,15,14,13,12,11,10,9,8,497,27,24,23,22,21,20,19,18,17,16,15,14,13,12,11,10,9,8,0.34,0
159,708,24,8,1,705,26,25,24,23,22,21,20,19,18,17,16,15,14,13,12,11,10,9,470,26,25,24,23,22,21,20,19,18,17,16,15,14,13,12,11,10,9,0.35,0
162,708,24,9,1,705,27,26,25,24,23,22,21,20,19,18,17,16,15,14,13,12,11,10,470,27,26,25,24,23,22,21,20,19,18,17,16,15,14,13,12,11,10,0.36,0
165,708,30,6,1,705,28,27,26,25,24,23,22,21,20,19,18,17,16,15,14,13,12,11,470,28,27,26,25,24,23,22,21,20,19,18,17,16,15,14,13,12,11,0.37,0
168,708,32,7,1,706,29,28,27,26,25,24,23,22,21,20,19,18,17,16,15,14,13,12,501,29,28,27,26,25,24,23,22,21,20,19,18,17,16,15,14,13,12,0.38,0
171,708,32,6,1,705,30,29,28,27,26,25,24,23,22,21,20,19,18,17,16,15,14,13,470,30,29,28,27,26,25,24,23,22,21,20,19,18,17,16,15,14,13,0.39,0
174,708,32,7,1,705,31,30,29,28,27,26,25,24,23,22,21,20,19,18,17,16,15,14,470,31,30,29,28,27,26,25,24,23,22,21,20,19,18,17,16,15,14,0.40,0
177,708,32,8,1,705,32,31,30,29,28,27,26,25,24,23,22,21,20,19,18,17,16,15,470,32,31,30,29,28,27,26,25,24,23,22,21,20,19,18,17,16,15,0.41,0
180,708,32,8,1,706,35,33,31,30,29,28,27,26,25,24,23,22,21,20,19,18,17,16,505,35,32,31,30,29,28,27,26,25,24,23,22,21,20,19,18,17,16,0.42,0
183,708,32,8,1,705,34,33,32,31,30,29,28,27,26,25,24,23,22,21,20,19,18,17,470,34,33,32,31,30,29,28,27,26,25,24,23,22,21,20,19,18,17,0.43,0
186,708,32,9,1,705,35,34,33,32,31,30,29,28,27,26,25,24,23,22,21,20,19,18,470,35,34,33,32,31,30,29,28,27,26,25,24,23,22,21,20,19,18,0.44,0
189,708,38,6,1,705,36,35,34,33,32,31,30,29,28,27,26,25,24,23,22,21,20,19,470,36,35,34,33,32,31,30,29,28,27,26,25,24,23,22,21,20,19,0.45,0
192,708,40,7,1,706,37,36,35,34,33,32,31,30,29,28,27,26,25,24,23,22,21,20,509,37,36,35,34,33,32,31,30,29,28,27,26,25,24,23,22,21,20,0.46,0
195,708,40,6,1,705,38,37,36,35,34,33,32,31,30,29,28,27,26,25,24,23,22,21,470,38,37,36,35,34,33,32,31,30,29,28,27,26,25,24,23,22,21,0.47,0
198,708,40,7,1,705,39,38,37,36,35,34,33,32,31,30,29,28,27,26,25,24,23,22,470,39,38,37,36,35,34,33,32,31,30,29,28,27,26,25,24,23,22,0.48,0
201,708,40,8,1,705,40,39,38,37,36,35,34,33,32,31,30,29,28,27,26,25,24,23,470,40,39,38,37,36,35,34,33,32,31,30,29,28,27,26,25,24,23,0.49,0
204,708,40,8,1,706,43,41,39,38,37,36,35,34,33,32,31,30,29,28,27,26,25,24,513,43,40,39,38,37,36,35,34,33,32,31,30,29,28,27,26,25,24,0.50,0
207,708,40,8,1,705,42,41,40,39,38,37,36,35,34,33,32,31,30,29,28,27,26,25,470,42,41,40,39,38,37,36,35,34,33,32,31,30,29,28,27,26,25,0.51,0
210,708,40,9,1,705,43,42,41,40,39,38,37,36,35,34,33,32,31,30,29,28,27,26,470,43,42,41,40,39,38,37,36,35,34,33,32,31,30,29,28,27,26,0.52,0
213,708,46,9,1,705,44,43,42,41,40,39,38,37,36,35,34,33,32,31,30,29,28,27,470,44,43,42,41,40,39,38,37,36,35,34,33,32,31,30,29,28,27,0.53,0
216,708,48,10,1,706,45,44,43,42,41,40,39,38,37,36,35,34,33,32,31,30,29,28,517,45,44,43,42,41,40,39,38,37,36,35,34,33,32,31,30,29,28,0.54,0
219,708,48,9,1,705,46,45,44,43,42,41,40,39,38,37,36,35,34,33,32,31,30,29,470,46,45,44,43,42,41,40,39,38,37,36,35,34,33,32,31,30,29,0.55,0
222,708,48,11,1,705,47,46,45,44,43,42,41,40,39,38,37,36,35,34,33,32,31,30,470,47,46,45,44,43,42,41,40,39,38,37,36,35,34,33,32,31,30,0.56,0
225,708,48,12,1,705,48,47,46,45,44,43,42,41,40,39,38,37,36,35,34,33,32,31,470,48,47,46,45,44,43,42,41,40,39,38,37,36,35,34,33,32,31,0.57,0
228,708,48,12,1,706,51,49,47,46,45,44,43,42,41,40,39,38,37,36,35,34,33,32,521,51,48,47,46,45,44,43,42,41,40,39,38,37,36,35,34,33,32,0.58,0
231,708,48,12,1,705,50,49,48,47,46,45,44,43,42,41,40,39,38,37,36,35,34,33,470,50,49,48,47,46,45,44,43,42,41,40,39,38,37,36,35,34,33,0.59,0
234,708,48,13,1,705,51,50,49,48,47,46,45,44,43,42,41,40,39,38,37,36,35,34,470,51,50,49,48,47,46,45,44,43,42,41,40,39,38,37,36,35,34,0.60,0
237,708,54,10,1,705,52,51,50,49,48,47,46,45,44,43,42,41,40,39,38,37,36,35,470,52,51,50,49,48,47,46,45,44,43,42,41,40,39,38,37,36,35,0.61,0
240,708,56,11,1,706,53,52,51,50,49,48,47,46,45,44,43,42,41,40,39,38,37,36,525,53,52,51,50,49,48,47,46,45,44,43,42,41,40,39,38,37,36,0.62,0
243,708,56,10,1,705,54,53,52,51,50,49,48,47,46,45,44,43,42,41,40,39,38,37,470,54,53,52,51,50,49,48,47,46,45,44,43,42,41,40,39,38,37,0.63,0
246,708,56,11,1,705,55,54,53,52,51,50,49,48,47,46,45,44,43,42,41,40,39,38,470,55,54,53,52,51,50,49,48,47,46,45,44,43,42,41,40,39,38,0.64,0
249,708,56,12,1,705,56,55,54,53,52,51,50,49,48,47,46,45,44,43,42,41,40,39,470,56,55,54,53,52,51,50,49,48,47,46,45,44,43,42,41,40,39,0.65,0
252,708,56,12,1,706,59,57,55,54,53,52,51,50,49,48,47,46,45,44,43,42,41,40,529,59,56,55,54,53,52,51,50,49,48,47,46,45,44,43,42,41,40,0.66,0
255,708,56,12,1,705,58,57,56,55,54,53,52,51,50,49,48,47,46,45,44,43,42,41,470,58,57,56,55,54,53,52,51,50,49,48,47,46,45,44,43,42,41,0.66,0
258,708,56,13,1,705,59,58,57,56,55,54,53,52,51,50,49,48,47,46,45,44,43,42,470,59,58,57,56,55,54,53,52,51,50,49,48,47,46,45,44,43,42,0.67,0
261,708,62,10,1,705,60,59,58,57,56,55,54,53,52,51,50,49,48,47,46,45,44,43,470,60,59,58,57,56,55,54,53,52,51,50,49,48,47,46,45,44,43,0.68,0
264,708,64,11,1,706,61,60,59,58,57,56,55,54,53,52,51,50,49,48,47,46,45,44,533,61,60,59,58,57,56,55,54,53,52,51,50,49,48,47,46,45,44,0.69,0
267,708,64,10,1,705,62,61,60,59,58,57,56,55,54,53,52,51,50,49,48,47,46,45,470,62,61,60,59,58,57,56,55,54,53,52,51,50,49,48,47,46,45,0.70,0
270,708,64,11,1,705,63,62,61,60,59,58,57,56,55,54,53,52,51,50,49,48,47,46,470,63,62,61,60,59,58,57,56,55,54,53,52,51,50,49,48,47,46,0.71,0
273,708,64,12,1,705,64,63,62,61,60,59,58,57,56,55,54,53,52,51,50,49,48,47,470,64,63,62,61,60,59,58,57,56,55,54,53,52,51,50,49,48,47,0.72,0
276,708,64,12,1,706,67,65,63,62,61,60,59,58,57,56,55,54,53,52,51,50,49,48,537,67,64,63,62,61,60,59,58,57,56,55,54,53,52,51,50,49,48,0.73,0
279,708,64,12,1,705,66,65,64,63,62,61,60,59,58,57,56,55,54,53,52,51,50,49,470,66,65,64,63,62,61,60,59,58,57,56,55,54,53,52,51,50,49,0.74,0
282,708,64,13,1,705,67,66,65,64,63,62,61,60,59,58,57,56,55,54,53,52,51,50,470,67,66,65,64,63,62,61,60,59,58,57,56,55,54,53,52,51,50,0.75,0
285,708,70,10,1,705,68,67,66,65,64,63,62,61,60,59,58,57,56,55,54,53,52,51,470,68,67,66,65,64,63,62,61,60,59,58,57,56,55,54,53,52,51,0.76,0
288,708,72,11,1,706,69,68,67,66,65,64,63,62,61,60,59,58,57,56,55,54,53,52,541,69,68,67,66,65,64,63,62,61,60,59,58,57,56,55,54,53,52,0.76,0
291,708,72,10,1,705,70,69,68,67,66,65,64,63,62,61,60,59,58,57,56,55,54,53,470,70,69,68,67,66,65,64,63,62,61,60,59,58,57,56,55,54,53,0.77,0
294,708,72,11,1,705,71,70,69,68,67,66,65,64,63,62,61,60,59,58,57,56,55,54,470,71,70,69,68,67,66,65,64,63,62,61,60,59,58,57,56,55,54,0.78,0
297,708,72,12,1,705,72,71,70,69,68,67,66,65,64,63,62,61,60,59,58,57,56,55,470,72,71,70,69,68,67,66,65,64,63,62,61,60,59,58,57,56,55,0.79,0
300,708,72,12,1,706,75,73,71,70,69,68,67,66,65,64,63,62,61,60,59,58,57,56,545,75,72,71,70,69,68,67,66,65,64,63,62,61,60,59,58,57,56,0.80,0
303,708,72,12,1,705,74,73,72,71,70,69,68,67,66,65,64,63,62,61,60,59,58,57,470,74,73,72,71,70,69,68,67,66,65,64,63,62,61,60,59,58,57,0.81,0
306,708,72,13,1,705,75,74,73,72,71,70,69,68,67,66,65,64,63,62,61,60,59,58,470,75,74,73,72,71,70,69,68,67,66,65,64,63,62,61,60,59,58,0.82,0
309,708,78,10,1,705,76,75,74,73,72,71,70,69,68,67,66,65,64,63,62,61,60,59,470,76,75,74,73,72,71,70,69,68,67,66,65,64,63,62,61,60,59,0.83,0
312,708,78,12,1,705,77,76,75,74,73,72,71,70,69,68,67,66,65,64,63,62,61,60,470,77,76,75,74,73,72,71,70,69,68,67,66,65,64,63,62,61,60,0.84,0
315,708,78,12,1,705,78,77,76,75,74,73,72,71,70,69,68,67,66,65,64,63,62,61,470,78,77,76,75,74,73,72,71,70,69,68,67,66,65,64,63,62,61,0.86,0
318,708,81,12,1,705,79,78,77,76,75,74,73,72,71,70,69,68,67,66,65,64,63,62,470,79,78,77,76,75,74,73,72,71,70,69,68,67,66,65,64,63,62,0.87,0
321,708,81,13,2,705,80,79,78,77,76,75,74,73,72,71,70,69,68,67,66,65,64,63,470,80,79,78,77,76,75,74,73,72,71,70,69,68,67,66,65,64,63,0.88,0
324,708,83,13,2,705,81,80,79,78,77,76,75,74,73,72,71,70,69,68,67,66,65,64,470,81,80,79,78,77,76,75,74,73,72,71,70,69,68,67,66,65,64,0.89,0
327,708,85,14,2,704,81,80,79,78,77,76,75,74,73,72,71,70,69,68,67,66,65,64,470,81,80,79,78,77,76,75,74,73,72,71,70,69,68,67,66,65,64,0.91,0
330,708,86,15,2,705,81,80,79,78,77,76,75,74,73,72,71,70,69,68,67,66,65,64,472,81,80,79,78,77,76,75,74,73,72,71,70,69,68,67,66,65,64,0.92,0
333,708,85,16,2,704,82,80,79,78,77,76,75,74,73,72,71,70,69,68,67,66,65,64,470,81,80,79,78,77,76,75,74,73,72,71,70,69,68,67,66,65,64,0.93,0
336,708,87,16,2,704,83,80,79,78,77,76,75,74,73,72,71,70,69,68,67,66,65,64,470,81,80,79,78,77,76,75,74,73,72,71,70,69,68,67,66,65,64,0.95,0
339,708,89,17,2,705,84,81,79,78,77,76,75,74,73,72,71,70,69,68,67,66,65,64,475,81,80,79,78,77,76,75,74,73,72,71,70,69,68,67,66,65,64,0.96,0
342,708,90,18,2,705,85,82,80,78,77,76,75,74,73,72,71,70,69,68,67,66,65,64,476,81,80,79,78,77,76,75,74,73,72,71,70,69,68,67,66,65,64,0.97,0
345,708,89,18,2,704,86,83,81,79,77,76,75,74,73,72,71,70,69,68,67,66,65,64,470,81,80,79,78,77,76,75,74,73,72,71,70,69,68,67,66,65,64,0.98,0
348,708,91,17,2,704,87,84,82,80,78,76,75,74,73,72,71,70,69,68,67,66,65,64,470,81,80,79,78,77,76,75,74,73,72,71,70,69,68,67,66,65,64,0.99,0
351,708,91,17,2,704,88,84,82,80,78,76,75,74,73,72,71,70,69,68,67,66,65,64,471,81,80,79,78,77,76,75,74,73,72,71,70,69,68,67,66,65,64,1.00,0
354,708,91,17,2,703,87,84,82,80,78,76,75,74,73,72,71,70,69,68,67,66,65,64,470,81,80,79,78,77,76,75,74,73,72,71,70,69,68,67,66,65,64,1.01,0
357,708,91,17,2,703,88,84,82,80,78,76,75,74,73,72,71,70,69,68,67,66,65,64,470,81,80,79,78,77,76,75,74,73,72,71,70,69,68,67,66,65,64,1.03,0
360,708,91,17,2,703,89,85,82,80,78,76,75,74,73,72,71,70,69,68,67,66,65,64,470,81,80,79,78,77,76,75,74,73,72,71,70,69,68,67,66,65,64,1.04,0
363,708,91,18,2,704,90,86,83,80,78,76,75,74,73,72,71,70,69,68,67,66,65,64,475,81,80,79,78,77,76,75,74,73,72,71,70,69,68,67,66,65,64,1.05,0
366,708,91,18,2,704,92,87,84,81,78,76,75,74,73,72,71,70,69,68,67,66,65,64,476,81,80,79,78,77,76,75,74,73,72,71,70,69,68,67,66,65,64,1.06,0
369,708,98,18,2,703,92,88,85,82,79,76,75,74,73,72,71,70,69,68,67,66,65,64,470,81,80,79,78,77,76,75,74,73,72,71,70,69,68,67,66,65,64,1.08,0
372,708,98,19,2,702,92,88,85,82,79,76,75,74,73,72,71,70,69,68,67,66,65,64,470,81,80,79,78,77,76,75,74,73,72,71,70,69,68,67,66,65,64,1.08,0
375,708,100,18,2,702,92,88,85,82,79,76,75,74,73,72,71,70,69,68,67,66,65,64,470,81,80,79,78,77,76,75,74,73,72,71,70,69,68,67,66,65,64,1.10,0
378,708,102,19,2,702,93,88,85,82,79,76,75,74,73,72,71,70,69,68,67,66,65,64,470,81,80,79,78,77,76,75,74,73,72,71,70,69,68,67,66,65,64,1.11,0
381,708,103,19,2,703,94,89,85,82,79,76,75,74,73,72,71,70,69,68,67,66,65,64,474,81,80,79,78,77,76,75,74,73,72,71,70,69,68,67,66,65,64,1.12,0
384,708,102,19,2,702,95,90,86,82,79,76,75,74,73,72,71,70,69,68,67,66,65,64,470,81,80,79,78,77,76,75,74,73,72,71,70,69,68,67,66,65,64,1.13,0
387,708,104,18,2,702,96,90,86,82,79,76,75,74,73,72,71,70,69,68,67,66,65,64,470,81,80,79,78,77,76,75,74,73,72,71,70,69,68,67,66,65,64,1.14,0
390,708,104,18,2,702,97,90,86,82,79,76,75,74,73,72,71,70,69,68,67,66,65,64,471,81,80,79,78,77,76,75,74,73,72,71,70,69,68,67,66,65,64,1.14,0
393,708,104,18,2,701,96,90,86,82,79,76,75,74,73,72,71,70,69,68,67,66,65,64,470,81,80,79,78,77,76,75,74,73,72,71,70,69,68,67,66,65,64,1.16,0
396,708,104,18,2,702,98,90,86,82,79,76,75,74,73,72,71,70,69,68,67,66,65,64,473,81,80,79,78,77,76,75,74,73,72,71,70,69,68,67,66,65,64,1.17,0
399,708,104,18,2,702,99,91,86,82,79,76,75,74,73,72,71,70,69,68,67,66,65,64,474,81,80,79,78,77,76,75,74,73,72,71,70,69,68,67,66,65,64,1.18,0
402,708,104,18,2,701,99,92,87,82,79,76,75,74,73,72,71,70,69,68,67,66,65,64,470,81,80,79,78,77,76,75,74,73,72,71,70,69,68,67,66,65,64,1.20,0
405,708,110,18,2,702,100,93,88,83,79,76,75,74,73,72,71,70,69,68,67,66,65,64,476,81,80,79,78,77,76,75,74,73,72,71,70,69,68,67,66,65,64,1.21,0
408,708,112,19,2,702,101,94,89,84,80,76,75,74,73,72,71,70,69,68,67,66,65,64,477,81,80,79,78,77,76,75,74,73,72,71,70,69,68,67,66,65,64,1.22,0
411,708,113,19,2,702,101,94,89,84,80,76,75,74,73,72,71,70,69,68,67,66,65,64,478,81,80,79,78,77,76,75,74,73,72,71,70,69,68,67,66,65,64,1.23,0
414,708,112,19,2,701,102,94,89,84,80,76,75,74,73,72,71,70,69,68,67,66,65,64,470,81,80,79,78,77,76,75,74,73,72,71,70,69,68,67,66,65,64,1.24,0
417,708,114,19,2,702,104,95,89,84,80,76,75,74,73,72,71,70,69,68,67,66,65,64,480,81,80,79,78,77,76,75,74,73,72,71,70,69,68,67,66,65,64,1.25,0
420,708,116,20,2,702,104,96,90,84,80,76,75,74,73,72,71,70,69,68,67,66,65,64,481,81,80,79,78,77,76,75,74,73,72,71,70,69,68,67,66,65,64,1.26,0
423,708,117,20,2,702,105,97,91,85,80,76,75,74,73,72,71,70,69,68,67,66,65,64,482,81,80,79,78,77,76,75,74,73,72,71,70,69,68,67,66,65,64,1.27,0
426,708,116,20,2,701,106,98,92,86,81,76,75,74,73,72,71,70,69,68,67,66,65,64,470,81,80,79,78,77,76,75,74,73,72,71,70,69,68,67,66,65,64,1.28,0
429,708,118,19,2,702,108,99,93,87,82,77,75,74,73,72,71,70,69,68,67,66,65,64,484,81,80,79,78,77,76,75,74,73,72,71,70,69,68,67,66,65,64,1.29,0
432,708,120,20,2,702,108,100,94,88,83,78,76,74,73,72,71,70,69,68,67,66,65,64,485,81,80,79,78,77,76,75,74,73,72,71,70,69,68,67,66,65,64,1.30,0
435,708,121,20,2,702,109,101,95,89,84,79,77,75,73,72,71,70,69,68,67,66,65,64,486,81,80,79,78,77,76,75,74,73,72,71,70,69,68,67,66,65,64,1.31,0
438,708,120,20,2,701,110,102,96,90,85,80,78,76,74,72,71,70,69,68,67,66,65,64,470,81,80,79,78,77,76,75,74,73,72,71,70,69,68,67,66,65,64,1.31,0
441,708,122,19,2,702,112,103,97,91,86,81,79,77,75,73,71,70,69,68,67,66,65,64,488,81,80,79,78,77,76,75,74,73,72,71,70,69,68,67,66,65,64,1.33,0
444,708,124,20,2,702,112,104,98,92,87,82,80,78,76,74,72,70,69,68,67,66,65,64,489,81,80,79,78,77,76,75,74,73,72,71,70,69,68,67,66,65,64,1.33,0
447,708,125,20,2,702,113,105,99,93,88,83,81,79,77,75,73,71,69,68,67,66,65,64,490,81,80,79,78,77,76,75,74,73,72,71,70,69,68,67,66,65,64,1.34,0
450,708,124,20,2,701,114,106,100,94,89,84,82,80,78,76,74,72,70,68,67,66,65,64,470,81,80,79,78,77,76,75,74,73,72,71,70,69,68,67,66,65,64,1.35,0
453,708,126,19,2,702,116,107,101,95,90,85,83,81,79,77,75,73,71,69,67,66,65,64,492,81,80,79,78,77,76,75,74,73,72,71,70,69,68,67,66,65,64,1.36,0
456,708,128,20,2,702,116,108,102,96,91,86,84,82,80,78,76,74,72,70,68,66,65,64,493,81,80,79,78,77,76,75,74,73,72,71,70,69,68,67,66,65,64,1.37,0
459,708,129,20,2,702,117,109,103,97,92,87,85,83,81,79,77,75,73,71,69,67,65,64,494,81,80,79,78,77,76,75,74,73,72,71,70,69,68,67,66,65,64,1.38,0
462,708,128,20,2,701,118,110,104,98,93,88,86,84,82,80,78,76,74,72,70,68,66,64,470,81,80,79,78,77,76,75,74,73,72,71,70,69,68,67,66,65,64,1.38,0
465,708,130,19,2,702,120,111,105,99,94,89,87,85,83,81,79,77,75,73,71,69,67,65,496,81,80,79,78,77,76,75,74,73,72,71,70,69,68,67,66,65,64,1.39,0
468,708,130,21,2,701,120,112,106,100,95,90,88,86,84,82,80,78,76,74,72,70,68,66,470,81,80,79,78,77,76,75,74,73,72,71,70,69,68,67,66,65,64,1.41,0
471,708,130,21,2,701,121,113,107,101,96,91,89,87,85,83,81,79,77,75,73,71,69,67,470,81,80,79,78,77,76,75,74,73,72,71,70,69,68,67,66,65,64,1.42,0
474,708,133,21,2,701,122,114,108,102,97,92,90,88,86,84,82,80,78,76,74,72,70,68,470,81,80,79,78,77,76,75,74,73,72,71,70,69,68,67,66,65,64,1.43,0
477,708,135,22,3,702,123,115,109,103,98,93,91,89,87,85,83,81,79,77,75,73,71,69,500,81,80,79,78,77,76,75,74,73,72,71,70,69,68,67,66,65,64,1.45,0
480,347,2,2,0,342,1,0,0,0,0,0,0,0,0,0,0,0,0,0,0,0,0,0,236,1,0,0,0,0,0,0,0,0,0,0,0,0,0,0,0,0,0,0.11,0
