pkt#,size,#dec,#op,#rung,#2gram,#3gram,#4gram,#5gram,#6gram,#7gram,#8gram,#9gram,#10gram,#11gram,#12gram,#13gram,#14gram,#15gram,#16gram,#17gram,#18gram,#19gram,#20gram,L2gram,L3gram,L4gram,L5gram,L6gram,L7gram,L8gram,L9gram,L10gram,L11gram,L12gram,L13gram,L14gram,L15gram,L16gram,L17gram,L18gram,L19gram,L20gram,entropy,class
221,2,0,0,0,0,0,0,0,0,0,0,0,0,0,0,0,0,0,0,0,0,0,0,0,0,0,0,0,0,0,0,0,0,0,0,0,0,0,0,0,0,0,1.00,0
223,78,0,10,1,66,51,40,34,30,28,0,0,0,0,0,0,0,0,0,0,0,0,0,31,30,29,28,25,24,0,0,0,0,0,0,0,0,0,0,0,0,0,2.19,0
225,80,6,10,0,61,35,22,13,7,3,0,0,0,0,0,0,0,0,0,0,0,0,0,12,8,7,5,4,3,0,0,0,0,0,0,0,0,0,0,0,0,0,3.12,0
227,80,6,8,0,66,39,26,15,6,1,0,0,0,0,0,0,0,0,0,0,0,0,0,9,8,6,5,3,1,0,0,0,0,0,0,0,0,0,0,0,0,0,3.27,0
229,80,6,6,0,71,48,35,24,10,1,0,0,0,0,0,0,0,0,0,0,0,0,0,13,7,6,4,2,1,0,0,0,0,0,0,0,0,0,0,0,0,0,2.56,0
231,80,16,13,0,65,40,28,19,4,0,0,0,0,0,0,0,0,0,0,0,0,0,0,12,6,5,4,2,0,0,0,0,0,0,0,0,0,0,0,0,0,0,2.85,0
233,14,6,2,0,11,7,4,1,0,0,0,0,0,0,0,0,0,0,0,0,0,0,0,5,4,3,1,0,0,0,0,0,0,0,0,0,0,0,0,0,0,0,1.43,0
235,64,0,2,0,51,41,34,33,32,30,0,0,0,0,0,0,0,0,0,0,0,0,0,36,35,34,33,32,30,0,0,0,0,0,0,0,0,0,0,0,0,0,2.34,0
237,80,0,0,0,79,78,77,76,75,74,0,0,0,0,0,0,0,0,0,0,0,0,0,79,78,77,76,75,74,0,0,0,0,0,0,0,0,0,0,0,0,0,0.00,1
239,78,0,1,0,76,74,73,72,71,70,0,0,0,0,0,0,0,0,0,0,0,0,0,75,74,73,72,71,70,0,0,0,0,0,0,0,0,0,0,0,0,0,0.20,1
241,76,0,0,0,75,74,73,71,70,69,0,0,0,0,0,0,0,0,0,0,0,0,0,75,74,73,71,70,69,0,0,0,0,0,0,0,0,0,0,0,0,0,0.10,1
243,74,0,2,0,73,72,71,69,68,67,0,0,0,0,0,0,0,0,0,0,0,0,0,73,72,71,69,68,67,0,0,0,0,0,0,0,0,0,0,0,0,0,0.10,1
245,72,0,0,0,71,70,69,68,66,64,0,0,0,0,0,0,0,0,0,0,0,0,0,71,70,69,68,65,64,0,0,0,0,0,0,0,0,0,0,0,0,0,0.11,1
247,70,0,0,0,69,67,66,65,64,62,0,0,0,0,0,0,0,0,0,0,0,0,0,69,67,66,65,64,62,0,0,0,0,0,0,0,0,0,0,0,0,0,0.22,1
249,68,0,1,0,67,66,65,64,62,61,0,0,0,0,0,0,0,0,0,0,0,0,0,67,66,65,64,62,61,0,0,0,0,0,0,0,0,0,0,0,0,0,0.11,1
251,66,0,1,0,65,63,62,61,59,58,0,0,0,0,0,0,0,0,0,0,0,0,0,65,63,62,61,59,58,0,0,0,0,0,0,0,0,0,0,0,0,0,0.23,1
253,64,0,1,0,63,62,61,60,58,57,0,0,0,0,0,0,0,0,0,0,0,0,0,63,62,61,60,58,57,0,0,0,0,0,0,0,0,0,0,0,0,0,0.12,1
255,62,0,1,0,61,59,58,57,55,54,0,0,0,0,0,0,0,0,0,0,0,0,0,61,59,58,57,55,54,0,0,0,0,0,0,0,0,0,0,0,0,0,0.24,1
257,60,0,1,0,59,58,57,56,55,53,1,0,0,0,0,0,0,0,0,0,0,0,0,59,58,57,56,55,53,1,0,0,0,0,0,0,0,0,0,0,0,0,0.24,1
259,58,0,1,0,57,56,55,54,52,51,0,0,0,0,0,0,0,0,0,0,0,0,0,57,56,55,54,52,51,0,0,0,0,0,0,0,0,0,0,0,0,0,0.13,1
261,56,0,0,0,55,54,53,52,51,50,0,0,0,0,0,0,0,0,0,0,0,0,0,55,54,53,52,51,50,0,0,0,0,0,0,0,0,0,0,0,0,0,0.00,1
263,54,0,1,0,52,50,49,48,47,46,0,0,0,0,0,0,0,0,0,0,0,0,0,51,50,49,48,47,46,0,0,0,0,0,0,0,0,0,0,0,0,0,0.27,1
265,52,0,2,0,51,49,48,47,46,45,0,0,0,0,0,0,0,0,0,0,0,0,0,51,49,48,47,46,45,0,0,0,0,0,0,0,0,0,0,0,0,0,0.14,1
267,50,0,2,0,49,48,47,45,44,43,0,0,0,0,0,0,0,0,0,0,0,0,0,49,48,47,45,44,43,0,0,0,0,0,0,0,0,0,0,0,0,0,0.14,1
269,48,0,0,0,47,46,45,44,42,40,0,0,0,0,0,0,0,0,0,0,0,0,0,47,46,45,44,41,40,0,0,0,0,0,0,0,0,0,0,0,0,0,0.15,1
271,46,0,0,0,45,43,42,41,40,38,0,0,0,0,0,0,0,0,0,0,0,0,0,45,43,42,41,40,38,0,0,0,0,0,0,0,0,0,0,0,0,0,0.30,1
273,44,0,1,0,43,42,41,40,38,37,0,0,0,0,0,0,0,0,0,0,0,0,0,43,42,41,40,38,37,0,0,0,0,0,0,0,0,0,0,0,0,0,0.16,1
275,42,0,2,0,41,39,38,37,35,34,0,0,0,0,0,0,0,0,0,0,0,0,0,41,39,38,37,35,34,0,0,0,0,0,0,0,0,0,0,0,0,0,0.32,1
277,40,0,1,0,39,37,36,35,33,32,0,0,0,0,0,0,0,0,0,0,0,0,0,39,37,36,35,33,32,0,0,0,0,0,0,0,0,0,0,0,0,0,0.34,1
279,38,0,0,0,37,36,35,33,32,30,0,0,0,0,0,0,0,0,0,0,0,0,0,37,36,35,33,32,30,0,0,0,0,0,0,0,0,0,0,0,0,0,0.35,1
281,36,0,0,0,35,34,33,32,31,30,0,0,0,0,0,0,0,0,0,0,0,0,0,35,34,33,32,31,30,0,0,0,0,0,0,0,0,0,0,0,0,0,0.00,1
283,34,0,1,0,33,31,30,29,28,27,0,0,0,0,0,0,0,0,0,0,0,0,0,33,31,30,29,28,27,0,0,0,0,0,0,0,0,0,0,0,0,0,0.19,1
285,32,0,0,0,31,29,28,27,26,25,0,0,0,0,0,0,0,0,0,0,0,0,0,31,29,28,27,26,25,0,0,0,0,0,0,0,0,0,0,0,0,0,0.20,1
287,30,0,0,0,29,28,26,25,23,22,0,0,0,0,0,0,0,0,0,0,0,0,0,29,28,26,25,23,22,0,0,0,0,0,0,0,0,0,0,0,0,0,0.42,1
289,28,0,1,0,27,26,25,23,22,21,1,0,0,0,0,0,0,0,0,0,0,0,0,27,26,25,23,22,21,1,0,0,0,0,0,0,0,0,0,0,0,0,0.44,1
291,26,0,0,0,25,24,23,22,21,20,0,0,0,0,0,0,0,0,0,0,0,0,0,25,24,23,22,21,20,0,0,0,0,0,0,0,0,0,0,0,0,0,0.00,1
293,24,0,1,0,23,21,20,19,17,16,0,0,0,0,0,0,0,0,0,0,0,0,0,23,21,20,19,17,16,0,0,0,0,0,0,0,0,0,0,0,0,0,0.50,1
295,22,0,1,0,21,20,19,18,17,15,1,0,0,0,0,0,0,0,0,0,0,0,0,21,20,19,18,17,15,1,0,0,0,0,0,0,0,0,0,0,0,0,0.53,1
297,20,0,1,0,19,18,17,16,14,13,0,0,0,0,0,0,0,0,0,0,0,0,0,19,18,17,16,14,13,0,0,0,0,0,0,0,0,0,0,0,0,0,0.29,1
299,18,0,1,0,17,15,14,13,11,10,0,0,0,0,0,0,0,0,0,0,0,0,0,17,15,14,13,11,10,0,0,0,0,0,0,0,0,0,0,0,0,0,0.61,1
301,16,0,1,0,15,14,13,12,11,9,1,0,0,0,0,0,0,0,0,0,0,0,0,15,14,13,12,11,9,1,0,0,0,0,0,0,0,0,0,0,0,0,0.67,1
303,14,0,0,0,13,12,11,10,9,8,0,0,0,0,0,0,0,0,0,0,0,0,0,13,12,11,10,9,8,0,0,0,0,0,0,0,0,0,0,0,0,0,0.00,1
305,12,0,0,0,11,10,9,8,7,6,0,0,0,0,0,0,0,0,0,0,0,0,0,11,10,9,8,7,6,0,0,0,0,0,0,0,0,0,0,0,0,0,0.00,1
307,10,0,1,0,9,6,5,4,3,2,0,0,0,0,0,0,0,0,0,0,0,0,0,9,6,5,4,3,2,0,0,0,0,0,0,0,0,0,0,0,0,0,0.92,1
309,8,0,1,0,7,5,4,3,2,1,0,0,0,0,0,0,0,0,0,0,0,0,0,7,5,4,3,2,1,0,0,0,0,0,0,0,0,0,0,0,0,0,0.54,1
311,6,0,2,0,5,4,3,1,0,0,0,0,0,0,0,0,0,0,0,0,0,0,0,5,4,3,1,0,0,0,0,0,0,0,0,0,0,0,0,0,0,0,0.65,1
313,4,0,1,0,3,1,0,0,0,0,0,0,0,0,0,0,0,0,0,0,0,0,0,3,1,0,0,0,0,0,0,0,0,0,0,0,0,0,0,0,0,0,1.50,1
315,2,0,0,0,1,0,0,0,0,0,0,0,0,0,0,0,0,0,0,0,0,0,0,1,0,0,0,0,0,0,0,0,0,0,0,0,0,0,0,0,0,0,1.00,1
317,28,0,1,0,27,26,25,24,22,21,0,0,0,0,0,0,0,0,0,0,0,0,0,27,26,25,24,22,21,0,0,0,0,0,0,0,0,0,0,0,0,0,0.22,1
319,26,0,2,0,25,23,22,21,19,18,0,0,0,0,0,0,0,0,0,0,0,0,0,25,23,22,21,19,18,0,0,0,0,0,0,0,0,0,0,0,0,0,0.47,1
321,24,0,1,0,23,21,20,19,17,16,0,0,0,0,0,0,0,0,0,0,0,0,0,23,21,20,19,17,16,0,0,0,0,0,0,0,0,0,0,0,0,0,0.50,1
323,22,0,0,0,21,20,19,17,16,14,0,0,0,0,0,0,0,0,0,0,0,0,0,21,20,19,17,16,14,0,0,0,0,0,0,0,0,0,0,0,0,0,0.53,1
325,20,0,0,0,19,18,17,16,14,13,0,0,0,0,0,0,0,0,0,0,0,0,0,19,18,17,16,14,13,0,0,0,0,0,0,0,0,0,0,0,0,0,0.29,1
327,18,0,2,0,17,16,14,13,12,11,0,0,0,0,0,0,0,0,0,0,0,0,0,17,16,14,13,12,11,0,0,0,0,0,0,0,0,0,0,0,0,0,0.31,1
329,16,0,1,0,15,14,13,12,10,9,0,0,0,0,0,0,0,0,0,0,0,0,0,15,14,13,12,10,9,0,0,0,0,0,0,0,0,0,0,0,0,0,0.34,1
331,14,0,1,0,13,11,10,9,7,6,0,0,0,0,0,0,0,0,0,0,0,0,0,13,11,10,9,7,6,0,0,0,0,0,0,0,0,0,0,0,0,0,0.73,1
333,12,0,1,0,11,10,9,8,7,6,1,0,0,0,0,0,0,0,0,0,0,0,0,11,10,9,8,7,6,1,0,0,0,0,0,0,0,0,0,0,0,0,0.82,1
335,10,0,0,0,9,8,7,6,5,4,0,0,0,0,0,0,0,0,0,0,0,0,0,9,8,7,6,5,4,0,0,0,0,0,0,0,0,0,0,0,0,0,0.00,1
338,8,0,0,0,7,6,5,4,3,2,0,0,0,0,0,0,0,0,0,0,0,0,0,7,6,5,4,3,2,0,0,0,0,0,0,0,0,0,0,0,0,0,0.00,1
340,6,0,1,0,5,4,3,1,0,0,0,0,0,0,0,0,0,0,0,0,0,0,0,5,4,3,1,0,0,0,0,0,0,0,0,0,0,0,0,0,0,0,0.65,1
342,4,0,0,0,3,2,1,0,0,0,0,0,0,0,0,0,0,0,0,0,0,0,0,3,2,1,0,0,0,0,0,0,0,0,0,0,0,0,0,0,0,0,0.81,1
344,2,0,1,0,1,0,0,0,0,0,0,0,0,0,0,0,0,0,0,0,0,0,0,1,0,0,0,0,0,0,0,0,0,0,0,0,0,0,0,0,0,0,1.00,1
346,80,12,11,0,73,56,44,35,28,23,0,0,0,0,0,0,0,0,0,0,0,0,0,23,22,21,20,19,18,0,0,0,0,0,0,0,0,0,0,0,0,0,1.87,0
348,10,0,0,0,9,8,7,6,5,4,0,0,0,0,0,0,0,0,0,0,0,0,0,9,8,7,6,5,4,0,0,0,0,0,0,0,0,0,0,0,0,0,0.00,0
350,80,0,6,0,74,62,53,45,41,38,0,0,0,0,0,0,0,0,0,0,0,0,0,44,43,41,39,38,37,0,0,0,0,0,0,0,0,0,0,0,0,0,1.59,0
352,80,0,3,0,77,70,67,63,56,53,0,0,0,0,0,0,0,0,0,0,0,0,0,54,46,45,44,41,40,0,0,0,0,0,0,0,0,0,0,0,0,0,0.77,0
354,80,0,4,0,73,62,57,52,44,40,0,0,0,0,0,0,0,0,0,0,0,0,0,35,33,32,31,29,28,0,0,0,0,0,0,0,0,0,0,0,0,0,1.02,0
356,26,0,1,0,25,23,21,19,17,16,0,0,0,0,0,0,0,0,0,0,0,0,0,25,21,20,19,17,16,0,0,0,0,0,0,0,0,0,0,0,0,0,0.47,0
358,80,12,11,0,73,56,44,35,28,23,0,0,0,0,0,0,0,0,0,0,0,0,0,23,22,21,20,19,18,0,0,0,0,0,0,0,0,0,0,0,0,0,1.87,0
360,10,0,0,0,9,8,7,6,5,4,0,0,0,0,0,0,0,0,0,0,0,0,0,9,8,7,6,5,4,0,0,0,0,0,0,0,0,0,0,0,0,0,0.00,0
362,80,6,12,0,74,57,45,38,30,28,0,0,0,0,0,0,0,0,0,0,0,0,0,34,33,32,31,29,28,0,0,0,0,0,0,0,0,0,0,0,0,0,1.81,0
364,22,0,0,0,20,19,18,17,15,14,0,0,0,0,0,0,0,0,0,0,0,0,0,20,19,18,17,15,14,0,0,0,0,0,0,0,0,0,0,0,0,0,0.53,0
366,12,2,1,0,11,9,6,1,0,0,0,0,0,0,0,0,0,0,0,0,0,0,0,11,5,3,1,0,0,0,0,0,0,0,0,0,0,0,0,0,0,0,1.78,0
368,28,6,2,0,27,26,22,14,3,0,0,0,0,0,0,0,0,0,0,0,0,0,0,27,26,14,6,1,0,0,0,0,0,0,0,0,0,0,0,0,0,0,1.30,0
370,34,0,1,0,32,30,28,26,23,22,0,0,0,0,0,0,0,0,0,0,0,0,0,32,29,28,26,23,22,0,0,0,0,0,0,0,0,0,0,0,0,0,0.70,0
372,2,0,0,0,1,0,0,0,0,0,0,0,0,0,0,0,0,0,0,0,0,0,0,1,0,0,0,0,0,0,0,0,0,0,0,0,0,0,0,0,0,0,0.00,0
374,12,0,0,0,11,10,9,8,7,6,0,0,0,0,0,0,0,0,0,0,0,0,0,11,10,9,8,7,6,0,0,0,0,0,0,0,0,0,0,0,0,0,0.00,0
376,16,0,0,0,15,14,13,12,11,10,0,0,0,0,0,0,0,0,0,0,0,0,0,15,14,13,12,11,10,0,0,0,0,0,0,0,0,0,0,0,0,0,0.00,0
378,80,0,1,1,78,72,69,65,59,56,0,0,0,0,0,0,0,0,0,0,0,0,0,76,52,51,50,49,48,0,0,0,0,0,0,0,0,0,0,0,0,0,0.48,0
380,52,0,3,0,46,42,38,34,29,28,0,0,0,0,0,0,0,0,0,0,0,0,0,40,34,33,31,29,28,0,0,0,0,0,0,0,0,0,0,0,0,0,1.04,0
382,10,0,0,0,9,8,7,6,5,4,0,0,0,0,0,0,0,0,0,0,0,0,0,9,8,7,6,5,4,0,0,0,0,0,0,0,0,0,0,0,0,0,0.00,0
384,78,0,0,0,76,74,72,70,68,67,0,0,0,0,0,0,0,0,0,0,0,0,0,73,72,71,70,68,67,0,0,0,0,0,0,0,0,0,0,0,0,0,0.20,0
386,6,0,1,0,5,4,3,2,1,0,0,0,0,0,0,0,0,0,0,0,0,0,0,5,4,3,2,1,0,0,0,0,0,0,0,0,0,0,0,0,0,0,0.65,0
388,66,0,1,0,64,62,60,58,57,56,0,0,0,0,0,0,0,0,0,0,0,0,0,62,61,60,58,57,56,0,0,0,0,0,0,0,0,0,0,0,0,0,0.23,0
390,2,0,0,0,1,0,0,0,0,0,0,0,0,0,0,0,0,0,0,0,0,0,0,1,0,0,0,0,0,0,0,0,0,0,0,0,0,0,0,0,0,0,0.00,0
392,4,0,0,0,3,2,1,0,0,0,0,0,0,0,0,0,0,0,0,0,0,0,0,3,2,1,0,0,0,0,0,0,0,0,0,0,0,0,0,0,0,0,0.00,0
394,80,0,0,0,79,78,77,76,75,74,0,0,0,0,0,0,0,0,0,0,0,0,0,79,78,77,76,75,74,0,0,0,0,0,0,0,0,0,0,0,0,0,0.00,0
396,70,0,0,0,69,68,67,66,65,64,0,0,0,0,0,0,0,0,0,0,0,0,0,69,68,67,66,65,64,0,0,0,0,0,0,0,0,0,0,0,0,0,0.00,0
398,24,0,0,0,23,12,6,0,0,0,0,0,0,0,0,0,0,0,0,0,0,0,0,23,2,1,0,0,0,0,0,0,0,0,0,0,0,0,0,0,0,0,1.00,0
400,32,0,0,0,31,16,8,0,0,0,0,0,0,0,0,0,0,0,0,0,0,0,0,31,2,1,0,0,0,0,0,0,0,0,0,0,0,0,0,0,0,0,1.00,0
402,80,0,0,0,69,56,47,31,19,14,0,0,0,0,0,0,0,0,0,0,0,0,0,26,20,11,9,7,6,0,0,0,0,0,0,0,0,0,0,0,0,0,1.37,0
404,80,0,0,0,69,56,47,31,19,14,0,0,0,0,0,0,0,0,0,0,0,0,0,26,20,11,9,7,6,0,0,0,0,0,0,0,0,0,0,0,0,0,1.37,0
406,56,0,0,0,45,34,27,16,10,7,0,0,0,0,0,0,0,0,0,0,0,0,0,26,20,11,9,7,6,0,0,0,0,0,0,0,0,0,0,0,0,0,1.49,0
408,80,0,0,0,79,72,69,64,59,56,0,0,0,0,0,0,0,0,0,0,0,0,0,79,28,27,25,23,22,0,0,0,0,0,0,0,0,0,0,0,0,0,0.38,0
410,10,0,0,0,9,8,7,6,5,4,0,0,0,0,0,0,0,0,0,0,0,0,0,9,8,7,6,5,4,0,0,0,0,0,0,0,0,0,0,0,0,0,0.00,0
412,60,0,0,0,59,52,49,44,39,36,0,0,0,0,0,0,0,0,0,0,0,0,0,59,18,17,15,13,12,0,0,0,0,0,0,0,0,0,0,0,0,0,0.47,0
414,8,0,0,0,7,6,5,4,3,2,0,0,0,0,0,0,0,0,0,0,0,0,0,7,6,5,4,3,2,0,0,0,0,0,0,0,0,0,0,0,0,0,0.00,0
416,64,0,5,0,56,48,40,30,8,1,0,0,0,0,0,0,0,0,0,0,0,0,0,13,12,5,4,2,1,0,0,0,0,0,0,0,0,0,0,0,0,0,1.33,0
418,32,0,2,0,29,26,23,19,15,12,0,0,0,0,0,0,0,0,0,0,0,0,0,16,15,14,12,10,9,0,0,0,0,0,0,0,0,0,0,0,0,0,0.73,0
442,80,12,11,0,73,56,44,35,28,23,0,0,0,0,0,0,0,0,0,0,0,0,0,23,22,21,20,19,18,0,0,0,0,0,0,0,0,0,0,0,0,0,1.87,0
444,10,0,0,0,9,8,7,6,5,4,0,0,0,0,0,0,0,0,0,0,0,0,0,9,8,7,6,5,4,0,0,0,0,0,0,0,0,0,0,0,0,0,0.00,0
448,80,12,11,0,73,56,44,35,28,23,0,0,0,0,0,0,0,0,0,0,0,0,0,23,22,21,20,19,18,0,0,0,0,0,0,0,0,0,0,0,0,0,1.87,0
450,10,0,0,0,9,8,7,6,5,4,0,0,0,0,0,0,0,0,0,0,0,0,0,9,8,7,6,5,4,0,0,0,0,0,0,0,0,0,0,0,0,0,0.00,0
452,80,6,12,0,74,57,45,38,30,28,0,0,0,0,0,0,0,0,0,0,0,0,0,34,33,32,31,29,28,0,0,0,0,0,0,0,0,0,0,0,0,0,1.81,0
454,22,0,0,0,20,19,18,17,15,14,0,0,0,0,0,0,0,0,0,0,0,0,0,20,19,18,17,15,14,0,0,0,0,0,0,0,0,0,0,0,0,0,0.53,0
456,80,0,6,0,74,62,53,45,41,38,0,0,0,0,0,0,0,0,0,0,0,0,0,44,43,41,39,38,37,0,0,0,0,0,0,0,0,0,0,0,0,0,1.59,0
458,80,0,3,0,77,70,67,63,56,53,0,0,0,0,0,0,0,0,0,0,0,0,0,54,46,45,44,41,40,0,0,0,0,0,0,0,0,0,0,0,0,0,0.77,0
460,80,0,4,0,73,62,57,52,44,40,0,0,0,0,0,0,0,0,0,0,0,0,0,35,33,32,31,29,28,0,0,0,0,0,0,0,0,0,0,0,0,0,1.02,0
462,26,0,1,0,25,23,21,19,17,16,0,0,0,0,0,0,0,0,0,0,0,0,0,25,21,20,19,17,16,0,0,0,0,0,0,0,0,0,0,0,0,0,0.47,0
32508,2,0,0,0,0,0,0,0,0,0,0,0,0,0,0,0,0,0,0,0,0,0,0,0,0,0,0,0,0,0,0,0,0,0,0,0,0,0,0,0,0,0,1.00,0
32510,78,0,10,1,66,51,40,34,30,28,0,0,0,0,0,0,0,0,0,0,0,0,0,31,30,29,28,25,24,0,0,0,0,0,0,0,0,0,0,0,0,0,2.19,0
32512,80,6,10,0,61,35,22,13,7,3,0,0,0,0,0,0,0,0,0,0,0,0,0,12,8,7,5,4,3,0,0,0,0,0,0,0,0,0,0,0,0,0,3.12,0
32514,80,6,8,0,66,39,26,15,6,1,0,0,0,0,0,0,0,0,0,0,0,0,0,9,8,6,5,3,1,0,0,0,0,0,0,0,0,0,0,0,0,0,3.27,0
32516,80,6,6,0,71,48,35,24,10,1,0,0,0,0,0,0,0,0,0,0,0,0,0,13,7,6,4,2,1,0,0,0,0,0,0,0,0,0,0,0,0,0,2.56,0
32518,80,16,13,0,65,40,28,19,4,0,0,0,0,0,0,0,0,0,0,0,0,0,0,12,6,5,4,2,0,0,0,0,0,0,0,0,0,0,0,0,0,0,2.85,0
32520,14,6,2,0,11,7,4,1,0,0,0,0,0,0,0,0,0,0,0,0,0,0,0,5,4,3,1,0,0,0,0,0,0,0,0,0,0,0,0,0,0,0,1.43,0
32522,64,0,2,0,51,41,34,33,32,30,0,0,0,0,0,0,0,0,0,0,0,0,0,36,35,34,33,32,30,0,0,0,0,0,0,0,0,0,0,0,0,0,2.34,0
32524,80,0,0,0,79,78,77,76,75,74,0,0,0,0,0,0,0,0,0,0,0,0,0,79,78,77,76,75,74,0,0,0,0,0,0,0,0,0,0,0,0,0,0.00,1
32526,78,0,1,0,76,74,73,72,71,70,0,0,0,0,0,0,0,0,0,0,0,0,0,75,74,73,72,71,70,0,0,0,0,0,0,0,0,0,0,0,0,0,0.20,1
32528,76,0,0,0,75,74,73,71,70,69,0,0,0,0,0,0,0,0,0,0,0,0,0,75,74,73,71,70,69,0,0,0,0,0,0,0,0,0,0,0,0,0,0.10,1
32530,74,0,2,0,73,72,71,69,68,67,0,0,0,0,0,0,0,0,0,0,0,0,0,73,72,71,69,68,67,0,0,0,0,0,0,0,0,0,0,0,0,0,0.10,1
32532,72,0,0,0,71,70,69,68,66,64,0,0,0,0,0,0,0,0,0,0,0,0,0,71,70,69,68,65,64,0,0,0,0,0,0,0,0,0,0,0,0,0,0.11,1
32534,70,0,0,0,69,67,66,65,64,62,0,0,0,0,0,0,0,0,0,0,0,0,0,69,67,66,65,64,62,0,0,0,0,0,0,0,0,0,0,0,0,0,0.22,1
32536,68,0,1,0,67,66,65,64,62,61,0,0,0,0,0,0,0,0,0,0,0,0,0,67,66,65,64,62,61,0,0,0,0,0,0,0,0,0,0,0,0,0,0.11,1
32538,66,0,1,0,65,63,62,61,59,58,0,0,0,0,0,0,0,0,0,0,0,0,0,65,63,62,61,59,58,0,0,0,0,0,0,0,0,0,0,0,0,0,0.23,1
32540,64,0,1,0,63,62,61,60,58,57,0,0,0,0,0,0,0,0,0,0,0,0,0,63,62,61,60,58,57,0,0,0,0,0,0,0,0,0,0,0,0,0,0.12,1
32542,62,0,1,0,61,59,58,57,55,54,0,0,0,0,0,0,0,0,0,0,0,0,0,61,59,58,57,55,54,0,0,0,0,0,0,0,0,0,0,0,0,0,0.24,1
32544,60,0,1,0,59,58,57,56,55,53,1,0,0,0,0,0,0,0,0,0,0,0,0,59,58,57,56,55,53,1,0,0,0,0,0,0,0,0,0,0,0,0,0.24,1
32546,58,0,1,0,57,56,55,54,52,51,0,0,0,0,0,0,0,0,0,0,0,0,0,57,56,55,54,52,51,0,0,0,0,0,0,0,0,0,0,0,0,0,0.13,1
32548,56,0,0,0,55,54,53,52,51,50,0,0,0,0,0,0,0,0,0,0,0,0,0,55,54,53,52,51,50,0,0,0,0,0,0,0,0,0,0,0,0,0,0.00,1
32550,54,0,1,0,52,50,49,48,47,46,0,0,0,0,0,0,0,0,0,0,0,0,0,51,50,49,48,47,46,0,0,0,0,0,0,0,0,0,0,0,0,0,0.27,1
32552,52,0,2,0,51,49,48,47,46,45,0,0,0,0,0,0,0,0,0,0,0,0,0,51,49,48,47,46,45,0,0,0,0,0,0,0,0,0,0,0,0,0,0.14,1
32554,50,0,2,0,49,48,47,45,44,43,0,0,0,0,0,0,0,0,0,0,0,0,0,49,48,47,45,44,43,0,0,0,0,0,0,0,0,0,0,0,0,0,0.14,1
32556,48,0,0,0,47,46,45,44,42,40,0,0,0,0,0,0,0,0,0,0,0,0,0,47,46,45,44,41,40,0,0,0,0,0,0,0,0,0,0,0,0,0,0.15,1
32558,46,0,0,0,45,43,42,41,40,38,0,0,0,0,0,0,0,0,0,0,0,0,0,45,43,42,41,40,38,0,0,0,0,0,0,0,0,0,0,0,0,0,0.30,1
32560,44,0,1,0,43,42,41,40,38,37,0,0,0,0,0,0,0,0,0,0,0,0,0,43,42,41,40,38,37,0,0,0,0,0,0,0,0,0,0,0,0,0,0.16,1
32562,42,0,2,0,41,39,38,37,35,34,0,0,0,0,0,0,0,0,0,0,0,0,0,41,39,38,37,35,34,0,0,0,0,0,0,0,0,0,0,0,0,0,0.32,1
32564,40,0,1,0,39,37,36,35,33,32,0,0,0,0,0,0,0,0,0,0,0,0,0,39,37,36,35,33,32,0,0,0,0,0,0,0,0,0,0,0,0,0,0.34,1
32566,38,0,0,0,37,36,35,33,32,30,0,0,0,0,0,0,0,0,0,0,0,0,0,37,36,35,33,32,30,0,0,0,0,0,0,0,0,0,0,0,0,0,0.35,1
32568,36,0,0,0,35,34,33,32,31,30,0,0,0,0,0,0,0,0,0,0,0,0,0,35,34,33,32,31,30,0,0,0,0,0,0,0,0,0,0,0,0,0,0.00,1
32570,34,0,1,0,33,31,30,29,28,27,0,0,0,0,0,0,0,0,0,0,0,0,0,33,31,30,29,28,27,0,0,0,0,0,0,0,0,0,0,0,0,0,0.19,1
32572,32,0,0,0,31,29,28,27,26,25,0,0,0,0,0,0,0,0,0,0,0,0,0,31,29,28,27,26,25,0,0,0,0,0,0,0,0,0,0,0,0,0,0.20,1
32574,30,0,0,0,29,28,26,25,23,22,0,0,0,0,0,0,0,0,0,0,0,0,0,29,28,26,25,23,22,0,0,0,0,0,0,0,0,0,0,0,0,0,0.42,1
32576,28,0,1,0,27,26,25,23,22,21,1,0,0,0,0,0,0,0,0,0,0,0,0,27,26,25,23,22,21,1,0,0,0,0,0,0,0,0,0,0,0,0,0.44,1
32578,26,0,0,0,25,24,23,22,21,20,0,0,0,0,0,0,0,0,0,0,0,0,0,25,24,23,22,21,20,0,0,0,0,0,0,0,0,0,0,0,0,0,0.00,1
32580,24,0,1,0,23,21,20,19,17,16,0,0,0,0,0,0,0,0,0,0,0,0,0,23,21,20,19,17,16,0,0,0,0,0,0,0,0,0,0,0,0,0,0.50,1
32582,22,0,1,0,21,20,19,18,17,15,1,0,0,0,0,0,0,0,0,0,0,0,0,21,20,19,18,17,15,1,0,0,0,0,0,0,0,0,0,0,0,0,0.53,1
32584,20,0,1,0,19,18,17,16,14,13,0,0,0,0,0,0,0,0,0,0,0,0,0,19,18,17,16,14,13,0,0,0,0,0,0,0,0,0,0,0,0,0,0.29,1
32586,18,0,1,0,17,15,14,13,11,10,0,0,0,0,0,0,0,0,0,0,0,0,0,17,15,14,13,11,10,0,0,0,0,0,0,0,0,0,0,0,0,0,0.61,1
32588,16,0,1,0,15,14,13,12,11,9,1,0,0,0,0,0,0,0,0,0,0,0,0,15,14,13,12,11,9,1,0,0,0,0,0,0,0,0,0,0,0,0,0.67,1
32590,14,0,0,0,13,12,11,10,9,8,0,0,0,0,0,0,0,0,0,0,0,0,0,13,12,11,10,9,8,0,0,0,0,0,0,0,0,0,0,0,0,0,0.00,1
32592,12,0,0,0,11,10,9,8,7,6,0,0,0,0,0,0,0,0,0,0,0,0,0,11,10,9,8,7,6,0,0,0,0,0,0,0,0,0,0,0,0,0,0.00,1
32594,10,0,1,0,9,6,5,4,3,2,0,0,0,0,0,0,0,0,0,0,0,0,0,9,6,5,4,3,2,0,0,0,0,0,0,0,0,0,0,0,0,0,0.92,1
32596,8,0,1,0,7,5,4,3,2,1,0,0,0,0,0,0,0,0,0,0,0,0,0,7,5,4,3,2,1,0,0,0,0,0,0,0,0,0,0,0,0,0,0.54,1
32598,6,0,2,0,5,4,3,1,0,0,0,0,0,0,0,0,0,0,0,0,0,0,0,5,4,3,1,0,0,0,0,0,0,0,0,0,0,0,0,0,0,0,0.65,1
32600,4,0,1,0,3,1,0,0,0,0,0,0,0,0,0,0,0,0,0,0,0,0,0,3,1,0,0,0,0,0,0,0,0,0,0,0,0,0,0,0,0,0,1.50,1
32602,2,0,0,0,1,0,0,0,0,0,0,0,0,0,0,0,0,0,0,0,0,0,0,1,0,0,0,0,0,0,0,0,0,0,0,0,0,0,0,0,0,0,1.00,1
32604,28,0,1,0,27,26,25,24,22,21,0,0,0,0,0,0,0,0,0,0,0,0,0,27,26,25,24,22,21,0,0,0,0,0,0,0,0,0,0,0,0,0,0.22,1
32606,26,0,2,0,25,23,22,21,19,18,0,0,0,0,0,0,0,0,0,0,0,0,0,25,23,22,21,19,18,0,0,0,0,0,0,0,0,0,0,0,0,0,0.47,1
32608,24,0,1,0,23,21,20,19,17,16,0,0,0,0,0,0,0,0,0,0,0,0,0,23,21,20,19,17,16,0,0,0,0,0,0,0,0,0,0,0,0,0,0.50,1
32610,22,0,0,0,21,20,19,17,16,14,0,0,0,0,0,0,0,0,0,0,0,0,0,21,20,19,17,16,14,0,0,0,0,0,0,0,0,0,0,0,0,0,0.53,1
32612,20,0,0,0,19,18,17,16,14,13,0,0,0,0,0,0,0,0,0,0,0,0,0,19,18,17,16,14,13,0,0,0,0,0,0,0,0,0,0,0,0,0,0.29,1
32614,18,0,2,0,17,16,14,13,12,11,0,0,0,0,0,0,0,0,0,0,0,0,0,17,16,14,13,12,11,0,0,0,0,0,0,0,0,0,0,0,0,0,0.31,1
32616,16,0,1,0,15,14,13,12,10,9,0,0,0,0,0,0,0,0,0,0,0,0,0,15,14,13,12,10,9,0,0,0,0,0,0,0,0,0,0,0,0,0,0.34,1
32618,14,0,1,0,13,11,10,9,7,6,0,0,0,0,0,0,0,0,0,0,0,0,0,13,11,10,9,7,6,0,0,0,0,0,0,0,0,0,0,0,0,0,0.73,1
32620,12,0,1,0,11,10,9,8,7,6,1,0,0,0,0,0,0,0,0,0,0,0,0,11,10,9,8,7,6,1,0,0,0,0,0,0,0,0,0,0,0,0,0.82,1
32622,10,0,0,0,9,8,7,6,5,4,0,0,0,0,0,0,0,0,0,0,0,0,0,9,8,7,6,5,4,0,0,0,0,0,0,0,0,0,0,0,0,0,0.00,1
32625,8,0,0,0,7,6,5,4,3,2,0,0,0,0,0,0,0,0,0,0,0,0,0,7,6,5,4,3,2,0,0,0,0,0,0,0,0,0,0,0,0,0,0.00,1
32627,6,0,1,0,5,4,3,1,0,0,0,0,0,0,0,0,0,0,0,0,0,0,0,5,4,3,1,0,0,0,0,0,0,0,0,0,0,0,0,0,0,0,0.65,1
32629,4,0,0,0,3,2,1,0,0,0,0,0,0,0,0,0,0,0,0,0,0,0,0,3,2,1,0,0,0,0,0,0,0,0,0,0,0,0,0,0,0,0,0.81,1
32631,2,0,1,0,1,0,0,0,0,0,0,0,0,0,0,0,0,0,0,0,0,0,0,1,0,0,0,0,0,0,0,0,0,0,0,0,0,0,0,0,0,0,1.00,1
32633,80,12,11,0,73,56,44,35,28,23,0,0,0,0,0,0,0,0,0,0,0,0,0,23,22,21,20,19,18,0,0,0,0,0,0,0,0,0,0,0,0,0,1.87,0
32635,10,0,0,0,9,8,7,6,5,4,0,0,0,0,0,0,0,0,0,0,0,0,0,9,8,7,6,5,4,0,0,0,0,0,0,0,0,0,0,0,0,0,0.00,0
32637,80,0,6,0,74,62,53,45,41,38,0,0,0,0,0,0,0,0,0,0,0,0,0,44,43,41,39,38,37,0,0,0,0,0,0,0,0,0,0,0,0,0,1.59,0
32639,80,0,3,0,77,70,67,63,56,53,0,0,0,0,0,0,0,0,0,0,0,0,0,54,46,45,44,41,40,0,0,0,0,0,0,0,0,0,0,0,0,0,0.77,0
32641,80,0,4,0,73,62,57,52,44,40,0,0,0,0,0,0,0,0,0,0,0,0,0,35,33,32,31,29,28,0,0,0,0,0,0,0,0,0,0,0,0,0,1.02,0
32643,26,0,1,0,25,23,21,19,17,16,0,0,0,0,0,0,0,0,0,0,0,0,0,25,21,20,19,17,16,0,0,0,0,0,0,0,0,0,0,0,0,0,0.47,0
32645,80,12,11,0,73,56,44,35,28,23,0,0,0,0,0,0,0,0,0,0,0,0,0,23,22,21,20,19,18,0,0,0,0,0,0,0,0,0,0,0,0,0,1.87,0
32647,10,0,0,0,9,8,7,6,5,4,0,0,0,0,0,0,0,0,0,0,0,0,0,9,8,7,6,5,4,0,0,0,0,0,0,0,0,0,0,0,0,0,0.00,0
32649,80,6,12,0,74,57,45,38,30,28,0,0,0,0,0,0,0,0,0,0,0,0,0,34,33,32,31,29,28,0,0,0,0,0,0,0,0,0,0,0,0,0,1.81,0
32651,22,0,0,0,20,19,18,17,15,14,0,0,0,0,0,0,0,0,0,0,0,0,0,20,19,18,17,15,14,0,0,0,0,0,0,0,0,0,0,0,0,0,0.53,0
32653,12,2,1,0,11,9,6,1,0,0,0,0,0,0,0,0,0,0,0,0,0,0,0,11,5,3,1,0,0,0,0,0,0,0,0,0,0,0,0,0,0,0,1.78,0
32655,28,6,2,0,27,26,22,14,3,0,0,0,0,0,0,0,0,0,0,0,0,0,0,27,26,14,6,1,0,0,0,0,0,0,0,0,0,0,0,0,0,0,1.30,0
32657,34,0,1,0,32,30,28,26,23,22,0,0,0,0,0,0,0,0,0,0,0,0,0,32,29,28,26,23,22,0,0,0,0,0,0,0,0,0,0,0,0,0,0.70,0
32659,2,0,0,0,1,0,0,0,0,0,0,0,0,0,0,0,0,0,0,0,0,0,0,1,0,0,0,0,0,0,0,0,0,0,0,0,0,0,0,0,0,0,0.00,0
32661,12,0,0,0,11,10,9,8,7,6,0,0,0,0,0,0,0,0,0,0,0,0,0,11,10,9,8,7,6,0,0,0,0,0,0,0,0,0,0,0,0,0,0.00,0
32663,16,0,0,0,15,14,13,12,11,10,0,0,0,0,0,0,0,0,0,0,0,0,0,15,14,13,12,11,10,0,0,0,0,0,0,0,0,0,0,0,0,0,0.00,0
32665,80,0,1,1,78,72,69,65,59,56,0,0,0,0,0,0,0,0,0,0,0,0,0,76,52,51,50,49,48,0,0,0,0,0,0,0,0,0,0,0,0,0,0.48,0
32667,52,0,3,0,46,42,38,34,29,28,0,0,0,0,0,0,0,0,0,0,0,0,0,40,34,33,31,29,28,0,0,0,0,0,0,0,0,0,0,0,0,0,1.04,0
32669,10,0,0,0,9,8,7,6,5,4,0,0,0,0,0,0,0,0,0,0,0,0,0,9,8,7,6,5,4,0,0,0,0,0,0,0,0,0,0,0,0,0,0.00,0
32671,78,0,0,0,76,74,72,70,68,67,0,0,0,0,0,0,0,0,0,0,0,0,0,73,72,71,70,68,67,0,0,0,0,0,0,0,0,0,0,0,0,0,0.20,0
32673,6,0,1,0,5,4,3,2,1,0,0,0,0,0,0,0,0,0,0,0,0,0,0,5,4,3,2,1,0,0,0,0,0,0,0,0,0,0,0,0,0,0,0.65,0
32675,66,0,1,0,64,62,60,58,57,56,0,0,0,0,0,0,0,0,0,0,0,0,0,62,61,60,58,57,56,0,0,0,0,0,0,0,0,0,0,0,0,0,0.23,0
32677,2,0,0,0,1,0,0,0,0,0,0,0,0,0,0,0,0,0,0,0,0,0,0,1,0,0,0,0,0,0,0,0,0,0,0,0,0,0,0,0,0,0,0.00,0
32679,4,0,0,0,3,2,1,0,0,0,0,0,0,0,0,0,0,0,0,0,0,0,0,3,2,1,0,0,0,0,0,0,0,0,0,0,0,0,0,0,0,0,0.00,0
32681,80,0,0,0,79,78,77,76,75,74,0,0,0,0,0,0,0,0,0,0,0,0,0,79,78,77,76,75,74,0,0,0,0,0,0,0,0,0,0,0,0,0,0.00,0
32683,70,0,0,0,69,68,67,66,65,64,0,0,0,0,0,0,0,0,0,0,0,0,0,69,68,67,66,65,64,0,0,0,0,0,0,0,0,0,0,0,0,0,0.00,0
32685,24,0,0,0,23,12,6,0,0,0,0,0,0,0,0,0,0,0,0,0,0,0,0,23,2,1,0,0,0,0,0,0,0,0,0,0,0,0,0,0,0,0,1.00,0
32687,32,0,0,0,31,16,8,0,0,0,0,0,0,0,0,0,0,0,0,0,0,0,0,31,2,1,0,0,0,0,0,0,0,0,0,0,0,0,0,0,0,0,1.00,0
32689,80,0,0,0,69,56,47,31,19,14,0,0,0,0,0,0,0,0,0,0,0,0,0,26,20,11,9,7,6,0,0,0,0,0,0,0,0,0,0,0,0,0,1.37,0
32691,80,0,0,0,69,56,47,31,19,14,0,0,0,0,0,0,0,0,0,0,0,0,0,26,20,11,9,7,6,0,0,0,0,0,0,0,0,0,0,0,0,0,1.37,0
32693,56,0,0,0,45,34,27,16,10,7,0,0,0,0,0,0,0,0,0,0,0,0,0,26,20,11,9,7,6,0,0,0,0,0,0,0,0,0,0,0,0,0,1.49,0
32695,80,0,0,0,79,72,69,64,59,56,0,0,0,0,0,0,0,0,0,0,0,0,0,79,28,27,25,23,22,0,0,0,0,0,0,0,0,0,0,0,0,0,0.38,0
32697,10,0,0,0,9,8,7,6,5,4,0,0,0,0,0,0,0,0,0,0,0,0,0,9,8,7,6,5,4,0,0,0,0,0,0,0,0,0,0,0,0,0,0.00,0
32699,60,0,0,0,59,52,49,44,39,36,0,0,0,0,0,0,0,0,0,0,0,0,0,59,18,17,15,13,12,0,0,0,0,0,0,0,0,0,0,0,0,0,0.47,0
32701,8,0,0,0,7,6,5,4,3,2,0,0,0,0,0,0,0,0,0,0,0,0,0,7,6,5,4,3,2,0,0,0,0,0,0,0,0,0,0,0,0,0,0.00,0
32703,64,0,5,0,56,48,40,30,8,1,0,0,0,0,0,0,0,0,0,0,0,0,0,13,12,5,4,2,1,0,0,0,0,0,0,0,0,0,0,0,0,0,1.33,0
32705,32,0,2,0,29,26,23,19,15,12,0,0,0,0,0,0,0,0,0,0,0,0,0,16,15,14,12,10,9,0,0,0,0,0,0,0,0,0,0,0,0,0,0.73,0
32729,80,12,11,0,73,56,44,35,28,23,0,0,0,0,0,0,0,0,0,0,0,0,0,23,22,21,20,19,18,0,0,0,0,0,0,0,0,0,0,0,0,0,1.87,0
32731,10,0,0,0,9,8,7,6,5,4,0,0,0,0,0,0,0,0,0,0,0,0,0,9,8,7,6,5,4,0,0,0,0,0,0,0,0,0,0,0,0,0,0.00,0
32733,80,12,11,0,73,56,44,35,28,23,0,0,0,0,0,0,0,0,0,0,0,0,0,23,22,21,20,19,18,0,0,0,0,0,0,0,0,0,0,0,0,0,1.87,0
32735,10,0,0,0,9,8,7,6,5,4,0,0,0,0,0,0,0,0,0,0,0,0,0,9,8,7,6,5,4,0,0,0,0,0,0,0,0,0,0,0,0,0,0.00,0
32737,80,6,12,0,74,57,45,38,30,28,0,0,0,0,0,0,0,0,0,0,0,0,0,34,33,32,31,29,28,0,0,0,0,0,0,0,0,0,0,0,0,0,1.81,0
32739,22,0,0,0,20,19,18,17,15,14,0,0,0,0,0,0,0,0,0,0,0,0,0,20,19,18,17,15,14,0,0,0,0,0,0,0,0,0,0,0,0,0,0.53,0
32741,80,0,6,0,74,62,53,45,41,38,0,0,0,0,0,0,0,0,0,0,0,0,0,44,43,41,39,38,37,0,0,0,0,0,0,0,0,0,0,0,0,0,1.59,0
32745,80,0,3,0,77,70,67,63,56,53,0,0,0,0,0,0,0,0,0,0,0,0,0,54,46,45,44,41,40,0,0,0,0,0,0,0,0,0,0,0,0,0,0.77,0
32747,80,0,4,0,73,62,57,52,44,40,0,0,0,0,0,0,0,0,0,0,0,0,0,35,33,32,31,29,28,0,0,0,0,0,0,0,0,0,0,0,0,0,1.02,0
32749,26,0,1,0,25,23,21,19,17,16,0,0,0,0,0,0,0,0,0,0,0,0,0,25,21,20,19,17,16,0,0,0,0,0,0,0,0,0,0,0,0,0,0.47,0
