pkt#,size,#dec,#op,#rung,#2gram,#3gram,#4gram,#5gram,#6gram,#7gram,#8gram,#9gram,#10gram,#11gram,#12gram,#13gram,#14gram,#15gram,#16gram,#17gram,#18gram,#19gram,#20gram,L2gram,L3gram,L4gram,L5gram,L6gram,L7gram,L8gram,L9gram,L10gram,L11gram,L12gram,L13gram,L14gram,L15gram,L16gram,L17gram,L18gram,L19gram,L20gram,entropy,class
22,2,0,0,0,0,0,0,0,0,0,0,0,0,0,0,0,0,0,0,0,0,0,0,0,0,0,0,0,0,0,0,0,0,0,0,0,0,0,0,0,0,0,1.00,0
24,78,0,10,1,66,51,40,33,30,28,0,0,0,0,0,0,0,0,0,0,0,0,0,31,30,29,27,25,24,0,0,0,0,0,0,0,0,0,0,0,0,0,2.19,0
26,80,6,9,0,63,35,21,12,7,3,0,0,0,0,0,0,0,0,0,0,0,0,0,12,8,7,5,4,3,0,0,0,0,0,0,0,0,0,0,0,0,0,3.05,0
28,80,6,7,0,64,33,21,15,6,2,1,0,0,0,0,0,0,0,0,0,0,0,0,9,7,6,5,3,2,1,0,0,0,0,0,0,0,0,0,0,0,0,3.24,0
30,80,0,1,0,72,47,35,26,12,2,0,0,0,0,0,0,0,0,0,0,0,0,0,13,7,6,5,3,2,0,0,0,0,0,0,0,0,0,0,0,0,0,2.59,0
32,74,16,14,0,60,37,24,13,1,0,0,0,0,0,0,0,0,0,0,0,0,0,0,9,6,5,3,1,0,0,0,0,0,0,0,0,0,0,0,0,0,0,2.56,0
34,64,0,1,0,53,43,36,34,33,30,0,0,0,0,0,0,0,0,0,0,0,0,0,37,36,35,34,33,30,0,0,0,0,0,0,0,0,0,0,0,0,0,2.17,0
36,80,0,0,0,79,78,77,76,75,74,0,0,0,0,0,0,0,0,0,0,0,0,0,79,78,77,76,75,74,0,0,0,0,0,0,0,0,0,0,0,0,0,0.00,1
38,78,0,2,0,77,74,73,72,71,70,0,0,0,0,0,0,0,0,0,0,0,0,0,77,74,73,72,71,70,0,0,0,0,0,0,0,0,0,0,0,0,0,0.20,1
40,76,0,1,0,75,73,72,71,70,69,0,0,0,0,0,0,0,0,0,0,0,0,0,75,73,72,71,70,69,0,0,0,0,0,0,0,0,0,0,0,0,0,0.10,1
42,74,0,0,0,73,72,71,69,68,67,0,0,0,0,0,0,0,0,0,0,0,0,0,73,72,71,69,68,67,0,0,0,0,0,0,0,0,0,0,0,0,0,0.10,1
44,72,0,1,0,71,69,68,67,65,64,0,0,0,0,0,0,0,0,0,0,0,0,0,71,69,68,67,65,64,0,0,0,0,0,0,0,0,0,0,0,0,0,0.21,1
46,70,0,2,0,69,67,66,65,64,63,0,0,0,0,0,0,0,0,0,0,0,0,0,69,67,66,65,64,63,0,0,0,0,0,0,0,0,0,0,0,0,0,0.11,1
48,68,0,0,0,67,66,65,63,62,61,0,0,0,0,0,0,0,0,0,0,0,0,0,67,66,65,63,62,61,0,0,0,0,0,0,0,0,0,0,0,0,0,0.11,1
50,66,0,1,0,65,63,62,60,59,58,0,0,0,0,0,0,0,0,0,0,0,0,0,65,63,62,60,59,58,0,0,0,0,0,0,0,0,0,0,0,0,0,0.23,1
52,64,0,1,0,63,62,60,58,57,56,0,0,0,0,0,0,0,0,0,0,0,0,0,63,62,59,58,57,56,0,0,0,0,0,0,0,0,0,0,0,0,0,0.23,1
54,62,0,0,0,61,60,59,58,57,56,0,0,0,0,0,0,0,0,0,0,0,0,0,61,60,59,58,57,56,0,0,0,0,0,0,0,0,0,0,0,0,0,0.00,1
56,60,0,1,0,59,58,57,56,55,54,1,0,0,0,0,0,0,0,0,0,0,0,0,59,58,57,56,55,54,1,0,0,0,0,0,0,0,0,0,0,0,0,0.24,1
58,58,0,0,0,57,56,55,54,53,52,0,0,0,0,0,0,0,0,0,0,0,0,0,57,56,55,54,53,52,0,0,0,0,0,0,0,0,0,0,0,0,0,0.00,1
60,56,0,1,0,55,54,53,52,50,49,0,0,0,0,0,0,0,0,0,0,0,0,0,55,54,53,52,50,49,0,0,0,0,0,0,0,0,0,0,0,0,0,0.13,1
62,54,0,1,0,53,51,50,49,47,46,0,0,0,0,0,0,0,0,0,0,0,0,0,53,51,50,49,47,46,0,0,0,0,0,0,0,0,0,0,0,0,0,0.27,1
64,52,0,0,0,51,50,49,47,46,45,0,0,0,0,0,0,0,0,0,0,0,0,0,51,50,49,47,46,45,0,0,0,0,0,0,0,0,0,0,0,0,0,0.14,1
66,50,0,1,0,49,47,46,45,44,43,0,0,0,0,0,0,0,0,0,0,0,0,0,49,47,46,45,44,43,0,0,0,0,0,0,0,0,0,0,0,0,0,0.14,1
68,48,0,0,0,47,46,45,43,42,41,0,0,0,0,0,0,0,0,0,0,0,0,0,47,46,45,43,42,41,0,0,0,0,0,0,0,0,0,0,0,0,0,0.15,1
70,46,0,1,0,45,43,42,40,39,38,0,0,0,0,0,0,0,0,0,0,0,0,0,45,43,42,40,39,38,0,0,0,0,0,0,0,0,0,0,0,0,0,0.30,1
72,44,0,1,0,43,42,40,38,37,36,0,0,0,0,0,0,0,0,0,0,0,0,0,43,42,39,38,37,36,0,0,0,0,0,0,0,0,0,0,0,0,0,0.31,1
74,42,0,0,0,41,40,39,38,37,36,0,0,0,0,0,0,0,0,0,0,0,0,0,41,40,39,38,37,36,0,0,0,0,0,0,0,0,0,0,0,0,0,0.00,1
76,40,0,1,0,39,38,37,36,35,34,1,0,0,0,0,0,0,0,0,0,0,0,0,39,38,37,36,35,34,1,0,0,0,0,0,0,0,0,0,0,0,0,0.34,1
78,38,0,0,0,37,36,35,34,33,32,0,0,0,0,0,0,0,0,0,0,0,0,0,37,36,35,34,33,32,0,0,0,0,0,0,0,0,0,0,0,0,0,0.00,1
80,36,0,0,0,35,34,33,32,30,29,0,0,0,0,0,0,0,0,0,0,0,0,0,35,34,33,32,30,29,0,0,0,0,0,0,0,0,0,0,0,0,0,0.18,1
82,34,0,2,0,33,31,30,29,28,27,0,0,0,0,0,0,0,0,0,0,0,0,0,33,31,30,29,28,27,0,0,0,0,0,0,0,0,0,0,0,0,0,0.19,1
84,32,0,0,0,31,30,29,27,26,25,0,0,0,0,0,0,0,0,0,0,0,0,0,31,30,29,27,26,25,0,0,0,0,0,0,0,0,0,0,0,0,0,0.20,1
86,30,0,1,0,29,27,26,24,23,22,0,0,0,0,0,0,0,0,0,0,0,0,0,29,27,26,24,23,22,0,0,0,0,0,0,0,0,0,0,0,0,0,0.42,1
88,28,0,1,0,27,26,24,22,21,20,0,0,0,0,0,0,0,0,0,0,0,0,0,27,26,23,22,21,20,0,0,0,0,0,0,0,0,0,0,0,0,0,0.44,1
90,26,0,0,0,25,24,23,22,21,20,0,0,0,0,0,0,0,0,0,0,0,0,0,25,24,23,22,21,20,0,0,0,0,0,0,0,0,0,0,0,0,0,0.00,1
92,24,0,1,0,23,22,21,20,19,18,1,0,0,0,0,0,0,0,0,0,0,0,0,23,22,21,20,19,18,1,0,0,0,0,0,0,0,0,0,0,0,0,0.50,1
94,22,0,0,0,21,20,19,18,17,16,0,0,0,0,0,0,0,0,0,0,0,0,0,21,20,19,18,17,16,0,0,0,0,0,0,0,0,0,0,0,0,0,0.00,1
96,20,0,1,0,19,18,17,15,14,13,0,0,0,0,0,0,0,0,0,0,0,0,0,19,18,17,15,14,13,0,0,0,0,0,0,0,0,0,0,0,0,0,0.29,1
98,18,0,1,0,17,16,15,13,12,11,0,0,0,0,0,0,0,0,0,0,0,0,0,17,16,15,13,12,11,0,0,0,0,0,0,0,0,0,0,0,0,0,0.31,1
100,16,0,1,0,15,14,13,12,10,9,0,0,0,0,0,0,0,0,0,0,0,0,0,15,14,13,12,10,9,0,0,0,0,0,0,0,0,0,0,0,0,0,0.34,1
102,14,0,2,0,13,12,11,9,8,7,0,0,0,0,0,0,0,0,0,0,0,0,0,13,12,11,9,8,7,0,0,0,0,0,0,0,0,0,0,0,0,0,0.37,1
104,12,0,1,0,11,9,8,7,5,4,0,0,0,0,0,0,0,0,0,0,0,0,0,11,9,8,7,5,4,0,0,0,0,0,0,0,0,0,0,0,0,0,0.82,1
106,10,0,0,0,9,8,7,6,5,2,0,0,0,0,0,0,0,0,0,0,0,0,0,9,8,7,6,5,2,0,0,0,0,0,0,0,0,0,0,0,0,0,0.92,1
108,8,0,1,0,7,6,5,4,2,1,0,0,0,0,0,0,0,0,0,0,0,0,0,7,6,5,4,2,1,0,0,0,0,0,0,0,0,0,0,0,0,0,0.54,1
110,6,0,0,0,5,4,3,2,1,0,0,0,0,0,0,0,0,0,0,0,0,0,0,5,4,3,2,1,0,0,0,0,0,0,0,0,0,0,0,0,0,0,0.00,1
112,4,0,0,0,3,0,0,0,0,0,0,0,0,0,0,0,0,0,0,0,0,0,0,3,0,0,0,0,0,0,0,0,0,0,0,0,0,0,0,0,0,0,1.50,1
114,2,0,0,0,1,0,0,0,0,0,0,0,0,0,0,0,0,0,0,0,0,0,0,1,0,0,0,0,0,0,0,0,0,0,0,0,0,0,0,0,0,0,1.00,1
116,80,0,0,0,79,78,77,75,74,73,0,0,0,0,0,0,0,0,0,0,0,0,0,79,78,77,75,74,73,0,0,0,0,0,0,0,0,0,0,0,0,0,0.10,1
118,78,0,1,0,77,75,74,73,71,70,0,0,0,0,0,0,0,0,0,0,0,0,0,77,75,74,73,71,70,0,0,0,0,0,0,0,0,0,0,0,0,0,0.20,1
120,76,0,2,0,75,73,72,71,70,69,0,0,0,0,0,0,0,0,0,0,0,0,0,75,73,72,71,70,69,0,0,0,0,0,0,0,0,0,0,0,0,0,0.10,1
122,74,0,0,0,73,72,71,69,68,67,0,0,0,0,0,0,0,0,0,0,0,0,0,73,72,71,69,68,67,0,0,0,0,0,0,0,0,0,0,0,0,0,0.10,1
124,72,0,1,0,71,69,68,66,65,64,0,0,0,0,0,0,0,0,0,0,0,0,0,71,69,68,66,65,64,0,0,0,0,0,0,0,0,0,0,0,0,0,0.21,1
126,70,0,1,0,69,68,66,64,63,62,0,0,0,0,0,0,0,0,0,0,0,0,0,69,68,65,64,63,62,0,0,0,0,0,0,0,0,0,0,0,0,0,0.22,1
128,68,0,0,0,67,66,65,64,63,62,0,0,0,0,0,0,0,0,0,0,0,0,0,67,66,65,64,63,62,0,0,0,0,0,0,0,0,0,0,0,0,0,0.00,1
130,66,0,1,0,65,64,63,62,61,60,1,0,0,0,0,0,0,0,0,0,0,0,0,65,64,63,62,61,60,1,0,0,0,0,0,0,0,0,0,0,0,0,0.23,1
132,64,0,0,0,63,62,61,60,59,58,0,0,0,0,0,0,0,0,0,0,0,0,0,63,62,61,60,59,58,0,0,0,0,0,0,0,0,0,0,0,0,0,0.00,1
134,62,0,1,0,61,60,59,57,56,55,0,0,0,0,0,0,0,0,0,0,0,0,0,61,60,59,57,56,55,0,0,0,0,0,0,0,0,0,0,0,0,0,0.12,1
136,60,0,1,0,59,57,56,55,53,52,0,0,0,0,0,0,0,0,0,0,0,0,0,59,57,56,55,53,52,0,0,0,0,0,0,0,0,0,0,0,0,0,0.24,1
138,58,0,0,0,57,56,55,53,52,51,0,0,0,0,0,0,0,0,0,0,0,0,0,57,56,55,53,52,51,0,0,0,0,0,0,0,0,0,0,0,0,0,0.13,1
140,56,0,1,0,55,53,52,51,50,49,0,0,0,0,0,0,0,0,0,0,0,0,0,55,53,52,51,50,49,0,0,0,0,0,0,0,0,0,0,0,0,0,0.13,1
142,54,0,0,0,53,52,51,49,48,47,0,0,0,0,0,0,0,0,0,0,0,0,0,53,52,51,49,48,47,0,0,0,0,0,0,0,0,0,0,0,0,0,0.13,1
144,52,0,1,0,51,49,48,46,45,44,0,0,0,0,0,0,0,0,0,0,0,0,0,51,49,48,46,45,44,0,0,0,0,0,0,0,0,0,0,0,0,0,0.27,1
146,50,0,1,0,49,48,46,44,43,42,0,0,0,0,0,0,0,0,0,0,0,0,0,49,48,45,44,43,42,0,0,0,0,0,0,0,0,0,0,0,0,0,0.28,1
148,48,0,0,0,47,46,45,44,43,42,0,0,0,0,0,0,0,0,0,0,0,0,0,47,46,45,44,43,42,0,0,0,0,0,0,0,0,0,0,0,0,0,0.00,1
150,46,0,1,0,45,44,43,42,41,40,1,0,0,0,0,0,0,0,0,0,0,0,0,45,44,43,42,41,40,1,0,0,0,0,0,0,0,0,0,0,0,0,0.30,1
152,44,0,0,0,43,42,41,40,39,38,0,0,0,0,0,0,0,0,0,0,0,0,0,43,42,41,40,39,38,0,0,0,0,0,0,0,0,0,0,0,0,0,0.00,1
154,42,0,1,0,41,40,39,37,36,35,0,0,0,0,0,0,0,0,0,0,0,0,0,41,40,39,37,36,35,0,0,0,0,0,0,0,0,0,0,0,0,0,0.16,1
156,40,0,1,0,39,37,36,35,34,33,0,0,0,0,0,0,0,0,0,0,0,0,0,39,37,36,35,34,33,0,0,0,0,0,0,0,0,0,0,0,0,0,0.17,1
158,38,0,0,0,37,36,35,33,32,31,0,0,0,0,0,0,0,0,0,0,0,0,0,37,36,35,33,32,31,0,0,0,0,0,0,0,0,0,0,0,0,0,0.18,1
160,36,0,1,0,35,33,32,30,29,28,0,0,0,0,0,0,0,0,0,0,0,0,0,35,33,32,30,29,28,0,0,0,0,0,0,0,0,0,0,0,0,0,0.37,1
162,34,0,1,0,33,32,30,28,27,26,0,0,0,0,0,0,0,0,0,0,0,0,0,33,32,29,28,27,26,0,0,0,0,0,0,0,0,0,0,0,0,0,0.38,1
164,32,0,0,0,31,30,29,28,27,26,0,0,0,0,0,0,0,0,0,0,0,0,0,31,30,29,28,27,26,0,0,0,0,0,0,0,0,0,0,0,0,0,0.00,1
166,30,0,1,0,29,28,27,26,25,24,1,0,0,0,0,0,0,0,0,0,0,0,0,29,28,27,26,25,24,1,0,0,0,0,0,0,0,0,0,0,0,0,0.42,1
168,28,0,0,0,27,26,25,24,23,22,0,0,0,0,0,0,0,0,0,0,0,0,0,27,26,25,24,23,22,0,0,0,0,0,0,0,0,0,0,0,0,0,0.00,1
170,26,0,1,0,25,24,23,21,20,19,0,0,0,0,0,0,0,0,0,0,0,0,0,25,24,23,21,20,19,0,0,0,0,0,0,0,0,0,0,0,0,0,0.24,1
172,24,0,1,0,23,22,21,19,18,17,0,0,0,0,0,0,0,0,0,0,0,0,0,23,22,21,19,18,17,0,0,0,0,0,0,0,0,0,0,0,0,0,0.25,1
174,22,0,1,0,21,20,19,18,16,15,0,0,0,0,0,0,0,0,0,0,0,0,0,21,20,19,18,16,15,0,0,0,0,0,0,0,0,0,0,0,0,0,0.27,1
176,20,0,2,0,19,18,17,15,14,13,0,0,0,0,0,0,0,0,0,0,0,0,0,19,18,17,15,14,13,0,0,0,0,0,0,0,0,0,0,0,0,0,0.29,1
178,18,0,1,0,17,15,14,13,11,10,0,0,0,0,0,0,0,0,0,0,0,0,0,17,15,14,13,11,10,0,0,0,0,0,0,0,0,0,0,0,0,0,0.61,1
180,16,0,0,0,15,14,13,12,11,8,0,0,0,0,0,0,0,0,0,0,0,0,0,15,14,13,12,11,8,0,0,0,0,0,0,0,0,0,0,0,0,0,0.67,1
182,14,0,1,0,13,12,11,10,8,7,0,0,0,0,0,0,0,0,0,0,0,0,0,13,12,11,10,8,7,0,0,0,0,0,0,0,0,0,0,0,0,0,0.37,1
184,12,0,0,0,11,10,9,8,7,6,0,0,0,0,0,0,0,0,0,0,0,0,0,11,10,9,8,7,6,0,0,0,0,0,0,0,0,0,0,0,0,0,0.00,1
186,10,0,1,0,9,7,6,5,4,2,0,0,0,0,0,0,0,0,0,0,0,0,0,9,7,6,5,4,2,0,0,0,0,0,0,0,0,0,0,0,0,0,0.92,1
188,8,0,1,0,7,6,5,3,2,1,0,0,0,0,0,0,0,0,0,0,0,0,0,7,6,5,3,2,1,0,0,0,0,0,0,0,0,0,0,0,0,0,0.54,1
190,6,0,2,0,5,4,3,1,0,0,0,0,0,0,0,0,0,0,0,0,0,0,0,5,4,3,1,0,0,0,0,0,0,0,0,0,0,0,0,0,0,0,0.65,1
192,4,0,1,0,3,1,0,0,0,0,0,0,0,0,0,0,0,0,0,0,0,0,0,3,1,0,0,0,0,0,0,0,0,0,0,0,0,0,0,0,0,0,1.50,1
194,2,0,0,0,1,0,0,0,0,0,0,0,0,0,0,0,0,0,0,0,0,0,0,1,0,0,0,0,0,0,0,0,0,0,0,0,0,0,0,0,0,0,1.00,1
196,26,0,1,0,25,24,23,22,20,19,0,0,0,0,0,0,0,0,0,0,0,0,0,25,24,23,22,20,19,0,0,0,0,0,0,0,0,0,0,0,0,0,0.24,1
198,24,0,2,0,23,22,21,19,18,17,0,0,0,0,0,0,0,0,0,0,0,0,0,23,22,21,19,18,17,0,0,0,0,0,0,0,0,0,0,0,0,0,0.25,1
200,22,0,1,0,21,19,18,17,15,14,0,0,0,0,0,0,0,0,0,0,0,0,0,21,19,18,17,15,14,0,0,0,0,0,0,0,0,0,0,0,0,0,0.53,1
202,20,0,0,0,19,18,17,16,15,12,0,0,0,0,0,0,0,0,0,0,0,0,0,19,18,17,16,15,12,0,0,0,0,0,0,0,0,0,0,0,0,0,0.57,1
204,18,0,1,0,17,16,15,14,12,11,0,0,0,0,0,0,0,0,0,0,0,0,0,17,16,15,14,12,11,0,0,0,0,0,0,0,0,0,0,0,0,0,0.31,1
206,16,0,2,0,15,14,13,11,10,9,0,0,0,0,0,0,0,0,0,0,0,0,0,15,14,13,11,10,9,0,0,0,0,0,0,0,0,0,0,0,0,0,0.34,1
208,14,0,1,0,13,11,10,9,7,6,0,0,0,0,0,0,0,0,0,0,0,0,0,13,11,10,9,7,6,0,0,0,0,0,0,0,0,0,0,0,0,0,0.73,1
210,12,0,0,0,11,10,9,8,7,4,0,0,0,0,0,0,0,0,0,0,0,0,0,11,10,9,8,7,4,0,0,0,0,0,0,0,0,0,0,0,0,0,0.82,1
212,10,0,0,0,9,8,7,6,4,3,0,0,0,0,0,0,0,0,0,0,0,0,0,9,8,7,6,4,3,0,0,0,0,0,0,0,0,0,0,0,0,0,0.47,1
214,8,0,0,0,7,6,5,4,3,2,0,0,0,0,0,0,0,0,0,0,0,0,0,7,6,5,4,3,2,0,0,0,0,0,0,0,0,0,0,0,0,0,0.00,1
216,6,0,1,0,5,4,3,1,0,0,0,0,0,0,0,0,0,0,0,0,0,0,0,5,4,3,1,0,0,0,0,0,0,0,0,0,0,0,0,0,0,0,0.65,1
218,4,0,0,0,3,2,1,0,0,0,0,0,0,0,0,0,0,0,0,0,0,0,0,3,2,1,0,0,0,0,0,0,0,0,0,0,0,0,0,0,0,0,0.81,1
220,2,0,1,0,1,0,0,0,0,0,0,0,0,0,0,0,0,0,0,0,0,0,0,1,0,0,0,0,0,0,0,0,0,0,0,0,0,0,0,0,0,0,1.00,1
222,80,12,11,0,73,56,44,35,28,23,0,0,0,0,0,0,0,0,0,0,0,0,0,23,22,21,20,19,18,0,0,0,0,0,0,0,0,0,0,0,0,0,1.87,0
224,10,0,0,0,9,8,7,6,5,4,0,0,0,0,0,0,0,0,0,0,0,0,0,9,8,7,6,5,4,0,0,0,0,0,0,0,0,0,0,0,0,0,0.00,0
226,80,0,6,0,74,62,53,45,41,38,0,0,0,0,0,0,0,0,0,0,0,0,0,44,43,41,39,38,37,0,0,0,0,0,0,0,0,0,0,0,0,0,1.59,0
228,80,0,3,0,77,70,67,63,56,53,0,0,0,0,0,0,0,0,0,0,0,0,0,54,46,45,44,41,40,0,0,0,0,0,0,0,0,0,0,0,0,0,0.77,0
230,80,0,4,0,73,62,57,52,44,40,0,0,0,0,0,0,0,0,0,0,0,0,0,35,33,32,31,29,28,0,0,0,0,0,0,0,0,0,0,0,0,0,1.02,0
232,26,0,1,0,25,23,21,19,17,16,0,0,0,0,0,0,0,0,0,0,0,0,0,25,21,20,19,17,16,0,0,0,0,0,0,0,0,0,0,0,0,0,0.47,0
234,80,12,11,0,73,56,44,35,28,23,0,0,0,0,0,0,0,0,0,0,0,0,0,23,22,21,20,19,18,0,0,0,0,0,0,0,0,0,0,0,0,0,1.87,0
236,10,0,0,0,9,8,7,6,5,4,0,0,0,0,0,0,0,0,0,0,0,0,0,9,8,7,6,5,4,0,0,0,0,0,0,0,0,0,0,0,0,0,0.00,0
238,80,6,12,0,74,57,45,38,30,28,0,0,0,0,0,0,0,0,0,0,0,0,0,34,33,32,31,29,28,0,0,0,0,0,0,0,0,0,0,0,0,0,1.81,0
240,22,0,0,0,20,19,18,17,15,14,0,0,0,0,0,0,0,0,0,0,0,0,0,20,19,18,17,15,14,0,0,0,0,0,0,0,0,0,0,0,0,0,0.53,0
242,12,2,1,0,11,9,6,1,0,0,0,0,0,0,0,0,0,0,0,0,0,0,0,11,5,3,1,0,0,0,0,0,0,0,0,0,0,0,0,0,0,0,1.78,0
244,28,6,2,0,27,26,22,14,3,0,0,0,0,0,0,0,0,0,0,0,0,0,0,27,26,14,6,1,0,0,0,0,0,0,0,0,0,0,0,0,0,0,1.30,0
246,34,0,1,0,32,30,28,26,23,22,0,0,0,0,0,0,0,0,0,0,0,0,0,32,29,28,26,23,22,0,0,0,0,0,0,0,0,0,0,0,0,0,0.70,0
248,2,0,0,0,1,0,0,0,0,0,0,0,0,0,0,0,0,0,0,0,0,0,0,1,0,0,0,0,0,0,0,0,0,0,0,0,0,0,0,0,0,0,0.00,0
250,12,0,0,0,11,10,9,8,7,6,0,0,0,0,0,0,0,0,0,0,0,0,0,11,10,9,8,7,6,0,0,0,0,0,0,0,0,0,0,0,0,0,0.00,0
252,16,0,0,0,15,14,13,12,11,10,0,0,0,0,0,0,0,0,0,0,0,0,0,15,14,13,12,11,10,0,0,0,0,0,0,0,0,0,0,0,0,0,0.00,0
254,80,0,1,1,78,72,69,65,59,56,0,0,0,0,0,0,0,0,0,0,0,0,0,76,52,51,50,49,48,0,0,0,0,0,0,0,0,0,0,0,0,0,0.48,0
256,52,0,3,0,46,42,38,34,29,28,0,0,0,0,0,0,0,0,0,0,0,0,0,40,34,33,31,29,28,0,0,0,0,0,0,0,0,0,0,0,0,0,1.04,0
258,2,0,0,0,1,0,0,0,0,0,0,0,0,0,0,0,0,0,0,0,0,0,0,1,0,0,0,0,0,0,0,0,0,0,0,0,0,0,0,0,0,0,1.00,0
260,6,0,0,0,5,4,3,2,1,0,0,0,0,0,0,0,0,0,0,0,0,0,0,5,4,3,2,1,0,0,0,0,0,0,0,0,0,0,0,0,0,0,0.00,0
262,6,0,0,0,5,4,3,2,1,0,0,0,0,0,0,0,0,0,0,0,0,0,0,5,4,3,2,1,0,0,0,0,0,0,0,0,0,0,0,0,0,0,0.00,0
264,6,0,0,0,5,4,3,2,1,0,0,0,0,0,0,0,0,0,0,0,0,0,0,5,4,3,2,1,0,0,0,0,0,0,0,0,0,0,0,0,0,0,0.00,0
266,2,0,0,0,1,0,0,0,0,0,0,0,0,0,0,0,0,0,0,0,0,0,0,1,0,0,0,0,0,0,0,0,0,0,0,0,0,0,0,0,0,0,0.00,0
268,4,0,0,0,3,2,1,0,0,0,0,0,0,0,0,0,0,0,0,0,0,0,0,3,2,1,0,0,0,0,0,0,0,0,0,0,0,0,0,0,0,0,0.00,0
270,24,0,0,0,23,12,6,0,0,0,0,0,0,0,0,0,0,0,0,0,0,0,0,23,2,1,0,0,0,0,0,0,0,0,0,0,0,0,0,0,0,0,1.00,0
272,32,0,0,0,31,16,8,0,0,0,0,0,0,0,0,0,0,0,0,0,0,0,0,31,2,1,0,0,0,0,0,0,0,0,0,0,0,0,0,0,0,0,1.00,0
274,80,0,0,0,69,56,47,31,19,14,0,0,0,0,0,0,0,0,0,0,0,0,0,26,20,11,9,7,6,0,0,0,0,0,0,0,0,0,0,0,0,0,1.37,0
276,80,0,0,0,69,56,47,31,19,14,0,0,0,0,0,0,0,0,0,0,0,0,0,26,20,11,9,7,6,0,0,0,0,0,0,0,0,0,0,0,0,0,1.37,0
278,56,0,0,0,45,34,27,16,10,7,0,0,0,0,0,0,0,0,0,0,0,0,0,26,20,11,9,7,6,0,0,0,0,0,0,0,0,0,0,0,0,0,1.49,0
280,80,0,0,0,79,72,69,64,59,56,0,0,0,0,0,0,0,0,0,0,0,0,0,79,28,27,25,23,22,0,0,0,0,0,0,0,0,0,0,0,0,0,0.38,0
282,10,0,0,0,9,8,7,6,5,4,0,0,0,0,0,0,0,0,0,0,0,0,0,9,8,7,6,5,4,0,0,0,0,0,0,0,0,0,0,0,0,0,0.00,0
284,60,0,0,0,59,52,49,44,39,36,0,0,0,0,0,0,0,0,0,0,0,0,0,59,18,17,15,13,12,0,0,0,0,0,0,0,0,0,0,0,0,0,0.47,0
286,8,0,0,0,7,6,5,4,3,2,0,0,0,0,0,0,0,0,0,0,0,0,0,7,6,5,4,3,2,0,0,0,0,0,0,0,0,0,0,0,0,0,0.00,0
288,64,0,5,0,56,48,40,30,8,1,0,0,0,0,0,0,0,0,0,0,0,0,0,13,12,5,4,2,1,0,0,0,0,0,0,0,0,0,0,0,0,0,1.33,0
290,32,0,2,0,29,26,23,19,15,12,0,0,0,0,0,0,0,0,0,0,0,0,0,16,15,14,12,10,9,0,0,0,0,0,0,0,0,0,0,0,0,0,0.73,0
334,80,12,11,0,73,56,44,35,28,23,0,0,0,0,0,0,0,0,0,0,0,0,0,23,22,21,20,19,18,0,0,0,0,0,0,0,0,0,0,0,0,0,1.87,0
336,10,0,0,0,9,8,7,6,5,4,0,0,0,0,0,0,0,0,0,0,0,0,0,9,8,7,6,5,4,0,0,0,0,0,0,0,0,0,0,0,0,0,0.00,0
338,80,12,11,0,73,56,44,35,28,23,0,0,0,0,0,0,0,0,0,0,0,0,0,23,22,21,20,19,18,0,0,0,0,0,0,0,0,0,0,0,0,0,1.87,0
340,10,0,0,0,9,8,7,6,5,4,0,0,0,0,0,0,0,0,0,0,0,0,0,9,8,7,6,5,4,0,0,0,0,0,0,0,0,0,0,0,0,0,0.00,0
342,80,6,12,0,74,57,45,38,30,28,0,0,0,0,0,0,0,0,0,0,0,0,0,34,33,32,31,29,28,0,0,0,0,0,0,0,0,0,0,0,0,0,1.81,0
344,22,0,0,0,20,19,18,17,15,14,0,0,0,0,0,0,0,0,0,0,0,0,0,20,19,18,17,15,14,0,0,0,0,0,0,0,0,0,0,0,0,0,0.53,0
346,80,0,6,0,74,62,53,45,41,38,0,0,0,0,0,0,0,0,0,0,0,0,0,44,43,41,39,38,37,0,0,0,0,0,0,0,0,0,0,0,0,0,1.59,0
348,80,0,3,0,77,70,67,63,56,53,0,0,0,0,0,0,0,0,0,0,0,0,0,54,46,45,44,41,40,0,0,0,0,0,0,0,0,0,0,0,0,0,0.77,0
350,80,0,4,0,73,62,57,52,44,40,0,0,0,0,0,0,0,0,0,0,0,0,0,35,33,32,31,29,28,0,0,0,0,0,0,0,0,0,0,0,0,0,1.02,0
352,26,0,1,0,25,23,21,19,17,16,0,0,0,0,0,0,0,0,0,0,0,0,0,25,21,20,19,17,16,0,0,0,0,0,0,0,0,0,0,0,0,0,0.47,0
