pkt#,size,#dec,#op,#rung,#2gram,#3gram,#4gram,#5gram,#6gram,#7gram,#8gram,#9gram,#10gram,#11gram,#12gram,#13gram,#14gram,#15gram,#16gram,#17gram,#18gram,#19gram,#20gram,L2gram,L3gram,L4gram,L5gram,L6gram,L7gram,L8gram,L9gram,L10gram,L11gram,L12gram,L13gram,L14gram,L15gram,L16gram,L17gram,L18gram,L19gram,L20gram,entropy,class
1541,2,0,0,0,0,0,0,0,0,0,0,0,0,0,0,0,0,0,0,0,0,0,0,0,0,0,0,0,0,0,0,0,0,0,0,0,0,0,0,0,0,0,1.00,0
1543,78,0,10,1,68,53,41,33,30,28,0,0,0,0,0,0,0,0,0,0,0,0,0,49,30,29,27,25,24,0,0,0,0,0,0,0,0,0,0,0,0,0,2.19,0
1545,80,6,12,0,62,35,21,12,7,3,0,0,0,0,0,0,0,0,0,0,0,0,0,11,8,7,5,4,3,0,0,0,0,0,0,0,0,0,0,0,0,0,3.11,0
1547,80,6,7,0,64,33,21,15,6,2,1,0,0,0,0,0,0,0,0,0,0,0,0,9,7,6,5,3,2,1,0,0,0,0,0,0,0,0,0,0,0,0,3.24,0
1549,80,0,1,0,72,47,35,26,12,2,0,0,0,0,0,0,0,0,0,0,0,0,0,13,7,6,5,3,2,0,0,0,0,0,0,0,0,0,0,0,0,0,2.59,0
1551,74,16,14,0,60,37,24,13,1,0,0,0,0,0,0,0,0,0,0,0,0,0,0,9,6,5,3,1,0,0,0,0,0,0,0,0,0,0,0,0,0,0,2.56,0
1553,64,0,1,0,52,42,35,34,33,30,0,0,0,0,0,0,0,0,0,0,0,0,0,37,36,35,34,33,30,0,0,0,0,0,0,0,0,0,0,0,0,0,2.17,0
1555,80,0,0,0,79,78,77,76,75,74,0,0,0,0,0,0,0,0,0,0,0,0,0,79,78,77,76,75,74,0,0,0,0,0,0,0,0,0,0,0,0,0,0.00,1
1557,78,0,1,0,76,74,73,72,71,70,0,0,0,0,0,0,0,0,0,0,0,0,0,75,74,73,72,71,70,0,0,0,0,0,0,0,0,0,0,0,0,0,0.20,1
1559,76,0,1,0,75,74,73,71,70,69,0,0,0,0,0,0,0,0,0,0,0,0,0,75,74,73,71,70,69,0,0,0,0,0,0,0,0,0,0,0,0,0,0.10,1
1561,74,0,1,0,73,72,71,69,68,67,0,0,0,0,0,0,0,0,0,0,0,0,0,73,72,71,69,68,67,0,0,0,0,0,0,0,0,0,0,0,0,0,0.10,1
1563,72,0,0,0,71,70,69,68,66,64,0,0,0,0,0,0,0,0,0,0,0,0,0,71,70,69,68,65,64,0,0,0,0,0,0,0,0,0,0,0,0,0,0.11,1
1565,70,0,0,0,69,68,67,65,64,62,0,0,0,0,0,0,0,0,0,0,0,0,0,69,68,67,65,64,62,0,0,0,0,0,0,0,0,0,0,0,0,0,0.22,1
1567,68,0,1,0,67,66,65,64,62,61,0,0,0,0,0,0,0,0,0,0,0,0,0,67,66,65,64,62,61,0,0,0,0,0,0,0,0,0,0,0,0,0,0.11,1
1569,66,0,0,0,65,64,63,61,60,59,0,0,0,0,0,0,0,0,0,0,0,0,0,65,64,63,61,60,59,0,0,0,0,0,0,0,0,0,0,0,0,0,0.11,1
1571,64,0,1,0,63,61,60,59,57,56,0,0,0,0,0,0,0,0,0,0,0,0,0,63,61,60,59,57,56,0,0,0,0,0,0,0,0,0,0,0,0,0,0.23,1
1573,62,0,2,0,61,59,58,57,56,55,0,0,0,0,0,0,0,0,0,0,0,0,0,61,59,58,57,56,55,0,0,0,0,0,0,0,0,0,0,0,0,0,0.12,1
1575,60,0,1,0,59,58,57,56,54,53,0,0,0,0,0,0,0,0,0,0,0,0,0,59,58,57,56,54,53,0,0,0,0,0,0,0,0,0,0,0,0,0,0.12,1
1577,58,0,1,0,57,55,54,53,51,50,0,0,0,0,0,0,0,0,0,0,0,0,0,57,55,54,53,51,50,0,0,0,0,0,0,0,0,0,0,0,0,0,0.25,1
1579,56,0,0,0,55,54,53,52,51,48,0,0,0,0,0,0,0,0,0,0,0,0,0,55,54,53,52,51,48,0,0,0,0,0,0,0,0,0,0,0,0,0,0.26,1
1581,54,0,0,0,53,52,51,50,49,48,0,0,0,0,0,0,0,0,0,0,0,0,0,53,52,51,50,49,48,0,0,0,0,0,0,0,0,0,0,0,0,0,0.00,1
1583,52,0,1,0,51,49,48,47,45,44,0,0,0,0,0,0,0,0,0,0,0,0,0,51,49,48,47,45,44,0,0,0,0,0,0,0,0,0,0,0,0,0,0.27,1
1585,50,0,0,0,49,48,47,45,44,43,0,0,0,0,0,0,0,0,0,0,0,0,0,49,48,47,45,44,43,0,0,0,0,0,0,0,0,0,0,0,0,0,0.14,1
1587,48,0,1,0,47,46,45,43,42,41,0,0,0,0,0,0,0,0,0,0,0,0,0,47,46,45,43,42,41,0,0,0,0,0,0,0,0,0,0,0,0,0,0.15,1
1589,46,0,1,0,45,43,42,41,39,38,0,0,0,0,0,0,0,0,0,0,0,0,0,45,43,42,41,39,38,0,0,0,0,0,0,0,0,0,0,0,0,0,0.30,1
1591,44,0,0,0,43,42,41,40,39,36,0,0,0,0,0,0,0,0,0,0,0,0,0,43,42,41,40,39,36,0,0,0,0,0,0,0,0,0,0,0,0,0,0.31,1
1593,42,0,1,0,41,40,39,38,36,35,0,0,0,0,0,0,0,0,0,0,0,0,0,41,40,39,38,36,35,0,0,0,0,0,0,0,0,0,0,0,0,0,0.16,1
1595,40,0,2,0,39,38,37,35,34,33,0,0,0,0,0,0,0,0,0,0,0,0,0,39,38,37,35,34,33,0,0,0,0,0,0,0,0,0,0,0,0,0,0.17,1
1597,38,0,1,0,37,35,34,33,31,30,0,0,0,0,0,0,0,0,0,0,0,0,0,37,35,34,33,31,30,0,0,0,0,0,0,0,0,0,0,0,0,0,0.35,1
1599,36,0,0,0,35,34,33,32,31,28,0,0,0,0,0,0,0,0,0,0,0,0,0,35,34,33,32,31,28,0,0,0,0,0,0,0,0,0,0,0,0,0,0.37,1
1601,34,0,1,0,33,32,31,30,28,27,0,0,0,0,0,0,0,0,0,0,0,0,0,33,32,31,30,28,27,0,0,0,0,0,0,0,0,0,0,0,0,0,0.19,1
1603,32,0,1,0,31,29,28,27,25,24,0,0,0,0,0,0,0,0,0,0,0,0,0,31,29,28,27,25,24,0,0,0,0,0,0,0,0,0,0,0,0,0,0.40,1
1605,30,0,1,0,29,28,27,26,24,23,0,0,0,0,0,0,0,0,0,0,0,0,0,29,28,27,26,24,23,0,0,0,0,0,0,0,0,0,0,0,0,0,0.21,1
1607,28,0,0,0,27,26,25,24,23,22,0,0,0,0,0,0,0,0,0,0,0,0,0,27,26,25,24,23,22,0,0,0,0,0,0,0,0,0,0,0,0,0,0.00,1
1609,26,0,1,0,24,22,21,20,19,18,0,0,0,0,0,0,0,0,0,0,0,0,0,23,22,21,20,19,18,0,0,0,0,0,0,0,0,0,0,0,0,0,0.47,1
1611,24,0,1,0,23,22,21,19,18,17,0,0,0,0,0,0,0,0,0,0,0,0,0,23,22,21,19,18,17,0,0,0,0,0,0,0,0,0,0,0,0,0,0.25,1
1613,22,0,0,0,21,20,19,17,16,15,0,0,0,0,0,0,0,0,0,0,0,0,0,21,20,19,17,16,15,0,0,0,0,0,0,0,0,0,0,0,0,0,0.27,1
1615,20,0,1,0,19,17,16,15,13,12,0,0,0,0,0,0,0,0,0,0,0,0,0,19,17,16,15,13,12,0,0,0,0,0,0,0,0,0,0,0,0,0,0.57,1
1618,18,0,2,0,17,16,15,13,12,11,0,0,0,0,0,0,0,0,0,0,0,0,0,17,16,15,13,12,11,0,0,0,0,0,0,0,0,0,0,0,0,0,0.31,1
1620,16,0,0,0,15,14,13,12,10,8,0,0,0,0,0,0,0,0,0,0,0,0,0,15,14,13,12,9,8,0,0,0,0,0,0,0,0,0,0,0,0,0,0.34,1
1622,14,0,0,0,13,12,11,9,8,6,0,0,0,0,0,0,0,0,0,0,0,0,0,13,12,11,9,8,6,0,0,0,0,0,0,0,0,0,0,0,0,0,0.73,1
1624,12,0,1,0,11,10,9,8,6,5,0,0,0,0,0,0,0,0,0,0,0,0,0,11,10,9,8,6,5,0,0,0,0,0,0,0,0,0,0,0,0,0,0.41,1
1626,10,0,1,0,9,7,6,5,3,2,0,0,0,0,0,0,0,0,0,0,0,0,0,9,7,6,5,3,2,0,0,0,0,0,0,0,0,0,0,0,0,0,0.92,1
1628,8,0,0,0,7,6,5,3,2,1,0,0,0,0,0,0,0,0,0,0,0,0,0,7,6,5,3,2,1,0,0,0,0,0,0,0,0,0,0,0,0,0,0.54,1
1630,6,0,2,0,5,4,3,1,0,0,0,0,0,0,0,0,0,0,0,0,0,0,0,5,4,3,1,0,0,0,0,0,0,0,0,0,0,0,0,0,0,0,0.65,1
1632,4,0,1,0,3,1,0,0,0,0,0,0,0,0,0,0,0,0,0,0,0,0,0,3,1,0,0,0,0,0,0,0,0,0,0,0,0,0,0,0,0,0,1.50,1
1634,2,0,0,0,1,0,0,0,0,0,0,0,0,0,0,0,0,0,0,0,0,0,0,1,0,0,0,0,0,0,0,0,0,0,0,0,0,0,0,0,0,0,1.00,1
1636,44,0,1,0,43,42,41,40,38,37,0,0,0,0,0,0,0,0,0,0,0,0,0,43,42,41,40,38,37,0,0,0,0,0,0,0,0,0,0,0,0,0,0.16,1
1638,42,0,1,0,41,40,39,37,36,35,0,0,0,0,0,0,0,0,0,0,0,0,0,41,40,39,37,36,35,0,0,0,0,0,0,0,0,0,0,0,0,0,0.16,1
1640,40,0,1,0,39,38,37,36,34,33,0,0,0,0,0,0,0,0,0,0,0,0,0,39,38,37,36,34,33,0,0,0,0,0,0,0,0,0,0,0,0,0,0.17,1
1642,38,0,2,0,37,36,35,33,32,31,0,0,0,0,0,0,0,0,0,0,0,0,0,37,36,35,33,32,31,0,0,0,0,0,0,0,0,0,0,0,0,0,0.18,1
1644,36,0,1,0,35,33,32,31,29,28,0,0,0,0,0,0,0,0,0,0,0,0,0,35,33,32,31,29,28,0,0,0,0,0,0,0,0,0,0,0,0,0,0.37,1
1646,34,0,0,0,33,32,31,30,29,26,0,0,0,0,0,0,0,0,0,0,0,0,0,33,32,31,30,29,26,0,0,0,0,0,0,0,0,0,0,0,0,0,0.38,1
1648,32,0,1,0,31,30,29,28,26,25,0,0,0,0,0,0,0,0,0,0,0,0,0,31,30,29,28,26,25,0,0,0,0,0,0,0,0,0,0,0,0,0,0.20,1
1650,30,0,0,0,29,28,27,26,25,24,0,0,0,0,0,0,0,0,0,0,0,0,0,29,28,27,26,25,24,0,0,0,0,0,0,0,0,0,0,0,0,0,0.00,1
1652,28,0,1,0,27,25,24,22,21,20,0,0,0,0,0,0,0,0,0,0,0,0,0,27,25,24,22,21,20,0,0,0,0,0,0,0,0,0,0,0,0,0,0.44,1
1654,26,0,0,0,25,23,22,21,20,19,0,0,0,0,0,0,0,0,0,0,0,0,0,25,23,22,21,20,19,0,0,0,0,0,0,0,0,0,0,0,0,0,0.24,1
1656,24,0,2,0,23,22,21,19,18,17,0,0,0,0,0,0,0,0,0,0,0,0,0,23,22,21,19,18,17,0,0,0,0,0,0,0,0,0,0,0,0,0,0.25,1
1658,22,0,0,0,21,20,19,18,16,14,0,0,0,0,0,0,0,0,0,0,0,0,0,21,20,19,18,15,14,0,0,0,0,0,0,0,0,0,0,0,0,0,0.27,1
1661,20,0,0,0,19,18,17,15,14,12,0,0,0,0,0,0,0,0,0,0,0,0,0,19,18,17,15,14,12,0,0,0,0,0,0,0,0,0,0,0,0,0,0.57,1
1663,18,0,1,0,17,16,15,14,12,11,0,0,0,0,0,0,0,0,0,0,0,0,0,17,16,15,14,12,11,0,0,0,0,0,0,0,0,0,0,0,0,0,0.31,1
1665,16,0,2,0,15,14,13,11,10,9,0,0,0,0,0,0,0,0,0,0,0,0,0,15,14,13,11,10,9,0,0,0,0,0,0,0,0,0,0,0,0,0,0.34,1
1667,14,0,1,0,13,11,10,9,7,6,0,0,0,0,0,0,0,0,0,0,0,0,0,13,11,10,9,7,6,0,0,0,0,0,0,0,0,0,0,0,0,0,0.73,1
1669,12,0,0,0,11,10,9,8,7,4,0,0,0,0,0,0,0,0,0,0,0,0,0,11,10,9,8,7,4,0,0,0,0,0,0,0,0,0,0,0,0,0,0.82,1
1671,10,0,0,0,9,8,7,6,4,3,0,0,0,0,0,0,0,0,0,0,0,0,0,9,8,7,6,4,3,0,0,0,0,0,0,0,0,0,0,0,0,0,0.47,1
1673,8,0,0,0,7,6,5,4,3,2,0,0,0,0,0,0,0,0,0,0,0,0,0,7,6,5,4,3,2,0,0,0,0,0,0,0,0,0,0,0,0,0,0.00,1
1675,6,0,1,0,5,4,3,1,0,0,0,0,0,0,0,0,0,0,0,0,0,0,0,5,4,3,1,0,0,0,0,0,0,0,0,0,0,0,0,0,0,0,0.65,1
1677,4,0,0,0,3,2,1,0,0,0,0,0,0,0,0,0,0,0,0,0,0,0,0,3,2,1,0,0,0,0,0,0,0,0,0,0,0,0,0,0,0,0,0.81,1
1679,2,0,1,0,1,0,0,0,0,0,0,0,0,0,0,0,0,0,0,0,0,0,0,1,0,0,0,0,0,0,0,0,0,0,0,0,0,0,0,0,0,0,1.00,1
1681,80,12,11,0,73,56,44,35,28,23,0,0,0,0,0,0,0,0,0,0,0,0,0,23,22,21,20,19,18,0,0,0,0,0,0,0,0,0,0,0,0,0,1.87,0
1683,10,0,0,0,9,8,7,6,5,4,0,0,0,0,0,0,0,0,0,0,0,0,0,9,8,7,6,5,4,0,0,0,0,0,0,0,0,0,0,0,0,0,0.00,0
1685,80,0,6,0,74,62,53,45,41,38,0,0,0,0,0,0,0,0,0,0,0,0,0,44,43,41,39,38,37,0,0,0,0,0,0,0,0,0,0,0,0,0,1.59,0
1689,80,0,3,0,77,70,67,63,56,53,0,0,0,0,0,0,0,0,0,0,0,0,0,54,46,45,44,41,40,0,0,0,0,0,0,0,0,0,0,0,0,0,0.77,0
1691,80,0,4,0,73,62,57,52,44,40,0,0,0,0,0,0,0,0,0,0,0,0,0,35,33,32,31,29,28,0,0,0,0,0,0,0,0,0,0,0,0,0,1.02,0
1693,26,0,1,0,25,23,21,19,17,16,0,0,0,0,0,0,0,0,0,0,0,0,0,25,21,20,19,17,16,0,0,0,0,0,0,0,0,0,0,0,0,0,0.47,0
1695,80,12,11,0,73,56,44,35,28,23,0,0,0,0,0,0,0,0,0,0,0,0,0,23,22,21,20,19,18,0,0,0,0,0,0,0,0,0,0,0,0,0,1.87,0
1697,10,0,0,0,9,8,7,6,5,4,0,0,0,0,0,0,0,0,0,0,0,0,0,9,8,7,6,5,4,0,0,0,0,0,0,0,0,0,0,0,0,0,0.00,0
1699,80,6,12,0,74,57,45,38,30,28,0,0,0,0,0,0,0,0,0,0,0,0,0,34,33,32,31,29,28,0,0,0,0,0,0,0,0,0,0,0,0,0,1.81,0
1701,22,0,0,0,20,19,18,17,15,14,0,0,0,0,0,0,0,0,0,0,0,0,0,20,19,18,17,15,14,0,0,0,0,0,0,0,0,0,0,0,0,0,0.53,0
1703,12,2,1,0,11,9,6,1,0,0,0,0,0,0,0,0,0,0,0,0,0,0,0,11,5,3,1,0,0,0,0,0,0,0,0,0,0,0,0,0,0,0,1.78,0
1705,28,6,2,0,27,26,22,14,3,0,0,0,0,0,0,0,0,0,0,0,0,0,0,27,26,14,6,1,0,0,0,0,0,0,0,0,0,0,0,0,0,0,1.30,0
1707,34,0,1,0,32,30,28,26,23,22,0,0,0,0,0,0,0,0,0,0,0,0,0,32,29,28,26,23,22,0,0,0,0,0,0,0,0,0,0,0,0,0,0.70,0
1709,2,0,0,0,1,0,0,0,0,0,0,0,0,0,0,0,0,0,0,0,0,0,0,1,0,0,0,0,0,0,0,0,0,0,0,0,0,0,0,0,0,0,0.00,0
1711,12,0,0,0,11,10,9,8,7,6,0,0,0,0,0,0,0,0,0,0,0,0,0,11,10,9,8,7,6,0,0,0,0,0,0,0,0,0,0,0,0,0,0.00,0
1713,16,0,0,0,15,14,13,12,11,10,0,0,0,0,0,0,0,0,0,0,0,0,0,15,14,13,12,11,10,0,0,0,0,0,0,0,0,0,0,0,0,0,0.00,0
1715,80,0,1,1,78,72,69,65,59,56,0,0,0,0,0,0,0,0,0,0,0,0,0,76,52,51,50,49,48,0,0,0,0,0,0,0,0,0,0,0,0,0,0.48,0
1717,52,0,3,0,45,41,37,33,29,28,0,0,0,0,0,0,0,0,0,0,0,0,0,34,33,32,30,29,28,0,0,0,0,0,0,0,0,0,0,0,0,0,1.08,0
1719,2,0,0,0,1,0,0,0,0,0,0,0,0,0,0,0,0,0,0,0,0,0,0,1,0,0,0,0,0,0,0,0,0,0,0,0,0,0,0,0,0,0,0.00,0
1721,6,0,1,0,5,3,1,0,0,0,0,0,0,0,0,0,0,0,0,0,0,0,0,5,2,1,0,0,0,0,0,0,0,0,0,0,0,0,0,0,0,0,1.25,0
1723,6,0,0,0,5,4,3,2,1,0,0,0,0,0,0,0,0,0,0,0,0,0,0,5,4,3,2,1,0,0,0,0,0,0,0,0,0,0,0,0,0,0,0.00,0
1725,6,0,0,0,5,4,3,2,1,0,0,0,0,0,0,0,0,0,0,0,0,0,0,5,4,3,2,1,0,0,0,0,0,0,0,0,0,0,0,0,0,0,0.00,0
1727,2,0,0,0,1,0,0,0,0,0,0,0,0,0,0,0,0,0,0,0,0,0,0,1,0,0,0,0,0,0,0,0,0,0,0,0,0,0,0,0,0,0,0.00,0
1729,4,0,0,0,3,2,1,0,0,0,0,0,0,0,0,0,0,0,0,0,0,0,0,3,2,1,0,0,0,0,0,0,0,0,0,0,0,0,0,0,0,0,0.00,0
1731,24,0,0,0,23,12,6,0,0,0,0,0,0,0,0,0,0,0,0,0,0,0,0,23,2,1,0,0,0,0,0,0,0,0,0,0,0,0,0,0,0,0,1.00,0
1733,32,0,0,0,31,16,8,0,0,0,0,0,0,0,0,0,0,0,0,0,0,0,0,31,2,1,0,0,0,0,0,0,0,0,0,0,0,0,0,0,0,0,1.00,0
1735,80,0,0,0,69,56,47,31,19,14,0,0,0,0,0,0,0,0,0,0,0,0,0,26,20,11,9,7,6,0,0,0,0,0,0,0,0,0,0,0,0,0,1.37,0
1737,80,0,0,0,69,56,47,31,19,14,0,0,0,0,0,0,0,0,0,0,0,0,0,26,20,11,9,7,6,0,0,0,0,0,0,0,0,0,0,0,0,0,1.37,0
1739,56,0,0,0,45,34,27,16,10,7,0,0,0,0,0,0,0,0,0,0,0,0,0,26,20,11,9,7,6,0,0,0,0,0,0,0,0,0,0,0,0,0,1.49,0
1741,80,0,0,0,79,72,69,64,59,56,0,0,0,0,0,0,0,0,0,0,0,0,0,79,28,27,25,23,22,0,0,0,0,0,0,0,0,0,0,0,0,0,0.38,0
1743,10,0,0,0,9,8,7,6,5,4,0,0,0,0,0,0,0,0,0,0,0,0,0,9,8,7,6,5,4,0,0,0,0,0,0,0,0,0,0,0,0,0,0.00,0
1745,60,0,0,0,59,52,49,44,39,36,0,0,0,0,0,0,0,0,0,0,0,0,0,59,18,17,15,13,12,0,0,0,0,0,0,0,0,0,0,0,0,0,0.47,0
1747,8,0,0,0,7,6,5,4,3,2,0,0,0,0,0,0,0,0,0,0,0,0,0,7,6,5,4,3,2,0,0,0,0,0,0,0,0,0,0,0,0,0,0.00,0
1749,64,0,5,0,56,48,40,30,8,1,0,0,0,0,0,0,0,0,0,0,0,0,0,13,12,5,4,2,1,0,0,0,0,0,0,0,0,0,0,0,0,0,1.33,0
1751,32,0,2,0,29,26,23,19,15,12,0,0,0,0,0,0,0,0,0,0,0,0,0,16,15,14,12,10,9,0,0,0,0,0,0,0,0,0,0,0,0,0,0.73,0
1777,80,12,11,0,73,56,44,35,28,23,0,0,0,0,0,0,0,0,0,0,0,0,0,23,22,21,20,19,18,0,0,0,0,0,0,0,0,0,0,0,0,0,1.87,0
1779,10,0,0,0,9,8,7,6,5,4,0,0,0,0,0,0,0,0,0,0,0,0,0,9,8,7,6,5,4,0,0,0,0,0,0,0,0,0,0,0,0,0,0.00,0
1781,80,12,11,0,73,56,44,35,28,23,0,0,0,0,0,0,0,0,0,0,0,0,0,23,22,21,20,19,18,0,0,0,0,0,0,0,0,0,0,0,0,0,1.87,0
1783,10,0,0,0,9,8,7,6,5,4,0,0,0,0,0,0,0,0,0,0,0,0,0,9,8,7,6,5,4,0,0,0,0,0,0,0,0,0,0,0,0,0,0.00,0
1785,80,6,12,0,74,57,45,38,30,28,0,0,0,0,0,0,0,0,0,0,0,0,0,34,33,32,31,29,28,0,0,0,0,0,0,0,0,0,0,0,0,0,1.81,0
1787,22,0,0,0,20,19,18,17,15,14,0,0,0,0,0,0,0,0,0,0,0,0,0,20,19,18,17,15,14,0,0,0,0,0,0,0,0,0,0,0,0,0,0.53,0
1789,80,0,6,0,74,62,53,45,41,38,0,0,0,0,0,0,0,0,0,0,0,0,0,44,43,41,39,38,37,0,0,0,0,0,0,0,0,0,0,0,0,0,1.59,0
1791,80,0,3,0,77,70,67,63,56,53,0,0,0,0,0,0,0,0,0,0,0,0,0,54,46,45,44,41,40,0,0,0,0,0,0,0,0,0,0,0,0,0,0.77,0
1793,80,0,4,0,73,62,57,52,44,40,0,0,0,0,0,0,0,0,0,0,0,0,0,35,33,32,31,29,28,0,0,0,0,0,0,0,0,0,0,0,0,0,1.02,0
1795,26,0,1,0,25,23,21,19,17,16,0,0,0,0,0,0,0,0,0,0,0,0,0,25,21,20,19,17,16,0,0,0,0,0,0,0,0,0,0,0,0,0,0.47,0
