pkt#,size,#dec,#op,#rung,#2gram,#3gram,#4gram,#5gram,#6gram,#7gram,#8gram,#9gram,#10gram,#11gram,#12gram,#13gram,#14gram,#15gram,#16gram,#17gram,#18gram,#19gram,#20gram,L2gram,L3gram,L4gram,L5gram,L6gram,L7gram,L8gram,L9gram,L10gram,L11gram,L12gram,L13gram,L14gram,L15gram,L16gram,L17gram,L18gram,L19gram,L20gram,entropy,class
32,2,0,0,0,0,0,0,0,0,0,0,0,0,0,0,0,0,0,0,0,0,0,0,0,0,0,0,0,0,0,0,0,0,0,0,0,0,0,0,0,0,0,1.00,0
34,78,0,10,1,66,51,40,33,30,28,0,0,0,0,0,0,0,0,0,0,0,0,0,31,30,29,27,25,24,0,0,0,0,0,0,0,0,0,0,0,0,0,2.19,0
36,80,6,12,0,62,35,22,13,7,3,0,0,0,0,0,0,0,0,0,0,0,0,0,12,8,7,5,4,3,0,0,0,0,0,0,0,0,0,0,0,0,0,3.17,0
39,80,6,8,0,66,35,24,14,5,0,0,0,0,0,0,0,0,0,0,0,0,0,0,9,6,5,4,2,0,0,0,0,0,0,0,0,0,0,0,0,0,0,3.30,0
41,80,6,2,0,72,49,36,25,11,1,0,0,0,0,0,0,0,0,0,0,0,0,0,13,7,6,5,2,1,0,0,0,0,0,0,0,0,0,0,0,0,0,2.48,0
43,80,16,15,0,67,44,31,21,6,1,0,0,0,0,0,0,0,0,0,0,0,0,0,11,7,5,4,2,1,0,0,0,0,0,0,0,0,0,0,0,0,0,2.74,0
45,24,6,4,0,19,12,7,3,0,0,0,0,0,0,0,0,0,0,0,0,0,0,0,6,5,3,2,0,0,0,0,0,0,0,0,0,0,0,0,0,0,0,1.83,0
48,64,10,4,0,49,39,34,33,32,31,1,0,0,0,0,0,0,0,0,0,0,0,0,36,35,34,33,32,31,1,0,0,0,0,0,0,0,0,0,0,0,0,2.25,0
50,80,0,0,0,79,78,77,76,75,74,0,0,0,0,0,0,0,0,0,0,0,0,0,79,78,77,76,75,74,0,0,0,0,0,0,0,0,0,0,0,0,0,0.00,1
52,78,0,1,0,76,74,73,72,71,70,0,0,0,0,0,0,0,0,0,0,0,0,0,75,74,73,72,71,70,0,0,0,0,0,0,0,0,0,0,0,0,0,0.20,1
54,76,0,1,0,75,74,73,71,70,69,0,0,0,0,0,0,0,0,0,0,0,0,0,75,74,73,71,70,69,0,0,0,0,0,0,0,0,0,0,0,0,0,0.10,1
57,74,0,2,0,73,72,71,69,68,67,0,0,0,0,0,0,0,0,0,0,0,0,0,73,72,71,69,68,67,0,0,0,0,0,0,0,0,0,0,0,0,0,0.10,1
59,72,0,0,0,71,70,69,68,66,64,0,0,0,0,0,0,0,0,0,0,0,0,0,71,70,69,68,65,64,0,0,0,0,0,0,0,0,0,0,0,0,0,0.11,1
61,70,0,0,0,69,68,67,66,65,62,0,0,0,0,0,0,0,0,0,0,0,0,0,69,68,67,66,65,62,0,0,0,0,0,0,0,0,0,0,0,0,0,0.22,1
63,68,0,1,0,67,66,65,63,62,61,0,0,0,0,0,0,0,0,0,0,0,0,0,67,66,65,63,62,61,0,0,0,0,0,0,0,0,0,0,0,0,0,0.11,1
65,66,0,2,0,65,63,62,61,59,58,0,0,0,0,0,0,0,0,0,0,0,0,0,65,63,62,61,59,58,0,0,0,0,0,0,0,0,0,0,0,0,0,0.23,1
67,64,0,1,0,63,61,60,59,57,56,0,0,0,0,0,0,0,0,0,0,0,0,0,63,61,60,59,57,56,0,0,0,0,0,0,0,0,0,0,0,0,0,0.23,1
69,62,0,0,0,61,59,58,57,56,54,0,0,0,0,0,0,0,0,0,0,0,0,0,61,59,58,57,56,54,0,0,0,0,0,0,0,0,0,0,0,0,0,0.24,1
71,60,0,0,0,59,58,57,56,54,53,0,0,0,0,0,0,0,0,0,0,0,0,0,59,58,57,56,54,53,0,0,0,0,0,0,0,0,0,0,0,0,0,0.12,1
73,58,0,2,0,57,56,55,53,52,51,0,0,0,0,0,0,0,0,0,0,0,0,0,57,56,55,53,52,51,0,0,0,0,0,0,0,0,0,0,0,0,0,0.13,1
75,56,0,1,0,55,53,52,51,49,48,0,0,0,0,0,0,0,0,0,0,0,0,0,55,53,52,51,49,48,0,0,0,0,0,0,0,0,0,0,0,0,0,0.26,1
77,54,0,0,0,53,52,51,50,49,46,0,0,0,0,0,0,0,0,0,0,0,0,0,53,52,51,50,49,46,0,0,0,0,0,0,0,0,0,0,0,0,0,0.27,1
79,52,0,0,0,51,50,49,48,46,45,0,0,0,0,0,0,0,0,0,0,0,0,0,51,50,49,48,46,45,0,0,0,0,0,0,0,0,0,0,0,0,0,0.14,1
81,50,0,0,0,49,48,47,46,45,44,0,0,0,0,0,0,0,0,0,0,0,0,0,49,48,47,46,45,44,0,0,0,0,0,0,0,0,0,0,0,0,0,0.00,1
83,48,0,0,0,47,45,43,42,41,40,0,0,0,0,0,0,0,0,0,0,0,0,0,47,45,43,42,41,40,0,0,0,0,0,0,0,0,0,0,0,0,0,0.29,1
85,46,0,2,0,45,44,43,42,40,39,0,0,0,0,0,0,0,0,0,0,0,0,0,45,44,43,42,40,39,0,0,0,0,0,0,0,0,0,0,0,0,0,0.15,1
87,44,0,2,0,43,42,41,39,38,37,0,0,0,0,0,0,0,0,0,0,0,0,0,43,42,41,39,38,37,0,0,0,0,0,0,0,0,0,0,0,0,0,0.16,1
90,42,0,1,0,41,39,38,37,35,34,0,0,0,0,0,0,0,0,0,0,0,0,0,41,39,38,37,35,34,0,0,0,0,0,0,0,0,0,0,0,0,0,0.32,1
93,40,0,0,0,39,38,37,36,35,32,0,0,0,0,0,0,0,0,0,0,0,0,0,39,38,37,36,35,32,0,0,0,0,0,0,0,0,0,0,0,0,0,0.34,1
95,38,0,0,0,37,36,35,34,32,31,0,0,0,0,0,0,0,0,0,0,0,0,0,37,36,35,34,32,31,0,0,0,0,0,0,0,0,0,0,0,0,0,0.18,1
97,36,0,1,0,35,33,32,31,30,29,0,0,0,0,0,0,0,0,0,0,0,0,0,35,33,32,31,30,29,0,0,0,0,0,0,0,0,0,0,0,0,0,0.18,1
99,34,0,0,0,33,31,30,29,28,27,0,0,0,0,0,0,0,0,0,0,0,0,0,33,31,30,29,28,27,0,0,0,0,0,0,0,0,0,0,0,0,0,0.19,1
101,32,0,0,0,31,30,28,27,25,24,0,0,0,0,0,0,0,0,0,0,0,0,0,31,30,28,27,25,24,0,0,0,0,0,0,0,0,0,0,0,0,0,0.40,1
103,30,0,0,0,29,28,27,26,25,22,0,0,0,0,0,0,0,0,0,0,0,0,0,29,28,27,26,25,22,0,0,0,0,0,0,0,0,0,0,0,0,0,0.42,1
105,28,0,0,0,27,26,25,24,23,22,0,0,0,0,0,0,0,0,0,0,0,0,0,27,26,25,24,23,22,0,0,0,0,0,0,0,0,0,0,0,0,0,0.00,1
107,26,0,0,0,25,24,23,22,20,18,0,0,0,0,0,0,0,0,0,0,0,0,0,25,24,23,22,19,18,0,0,0,0,0,0,0,0,0,0,0,0,0,0.24,1
109,24,0,0,0,23,22,21,19,18,16,0,0,0,0,0,0,0,0,0,0,0,0,0,23,22,21,19,18,16,0,0,0,0,0,0,0,0,0,0,0,0,0,0.50,1
111,22,0,1,0,21,20,19,17,16,15,0,0,0,0,0,0,0,0,0,0,0,0,0,21,20,19,17,16,15,0,0,0,0,0,0,0,0,0,0,0,0,0,0.27,1
113,20,0,1,0,19,17,16,15,13,12,0,0,0,0,0,0,0,0,0,0,0,0,0,19,17,16,15,13,12,0,0,0,0,0,0,0,0,0,0,0,0,0,0.57,1
115,18,0,1,0,17,16,15,14,13,11,1,0,0,0,0,0,0,0,0,0,0,0,0,17,16,15,14,13,11,1,0,0,0,0,0,0,0,0,0,0,0,0,0.61,1
117,16,0,0,0,15,14,13,12,11,10,0,0,0,0,0,0,0,0,0,0,0,0,0,15,14,13,12,11,10,0,0,0,0,0,0,0,0,0,0,0,0,0,0.00,1
119,14,0,0,0,13,12,11,10,9,8,0,0,0,0,0,0,0,0,0,0,0,0,0,13,12,11,10,9,8,0,0,0,0,0,0,0,0,0,0,0,0,0,0.00,1
121,12,0,1,0,11,8,7,6,5,4,0,0,0,0,0,0,0,0,0,0,0,0,0,11,8,7,6,5,4,0,0,0,0,0,0,0,0,0,0,0,0,0,0.82,1
123,10,0,2,0,9,8,7,6,4,3,0,0,0,0,0,0,0,0,0,0,0,0,0,9,8,7,6,4,3,0,0,0,0,0,0,0,0,0,0,0,0,0,0.47,1
125,8,0,1,0,7,5,4,3,2,1,0,0,0,0,0,0,0,0,0,0,0,0,0,7,5,4,3,2,1,0,0,0,0,0,0,0,0,0,0,0,0,0,0.54,1
127,6,0,0,0,5,3,2,1,0,0,0,0,0,0,0,0,0,0,0,0,0,0,0,5,3,2,1,0,0,0,0,0,0,0,0,0,0,0,0,0,0,0,0.65,1
129,4,0,1,0,3,1,0,0,0,0,0,0,0,0,0,0,0,0,0,0,0,0,0,3,1,0,0,0,0,0,0,0,0,0,0,0,0,0,0,0,0,0,1.50,1
131,2,0,0,0,1,0,0,0,0,0,0,0,0,0,0,0,0,0,0,0,0,0,0,1,0,0,0,0,0,0,0,0,0,0,0,0,0,0,0,0,0,0,1.00,1
133,80,0,0,0,79,78,77,76,75,74,0,0,0,0,0,0,0,0,0,0,0,0,0,79,78,77,76,75,74,0,0,0,0,0,0,0,0,0,0,0,0,0,0.00,1
135,78,0,1,0,77,76,75,74,73,72,1,0,0,0,0,0,0,0,0,0,0,0,0,77,76,75,74,73,72,1,0,0,0,0,0,0,0,0,0,0,0,0,0.20,1
137,76,0,0,0,75,74,73,72,71,70,0,0,0,0,0,0,0,0,0,0,0,0,0,75,74,73,72,71,70,0,0,0,0,0,0,0,0,0,0,0,0,0,0.00,1
139,74,0,0,0,73,71,70,68,67,66,0,0,0,0,0,0,0,0,0,0,0,0,0,73,71,70,68,67,66,0,0,0,0,0,0,0,0,0,0,0,0,0,0.21,1
141,72,0,1,0,71,70,68,67,65,64,0,0,0,0,0,0,0,0,0,0,0,0,0,71,70,68,67,65,64,0,0,0,0,0,0,0,0,0,0,0,0,0,0.21,1
143,70,0,1,0,69,68,67,66,65,63,1,0,0,0,0,0,0,0,0,0,0,0,0,69,68,67,66,65,63,1,0,0,0,0,0,0,0,0,0,0,0,0,0.22,1
145,68,0,0,0,67,66,65,64,63,62,0,0,0,0,0,0,0,0,0,0,0,0,0,67,66,65,64,63,62,0,0,0,0,0,0,0,0,0,0,0,0,0,0.00,1
147,66,0,2,0,65,64,63,61,60,59,0,0,0,0,0,0,0,0,0,0,0,0,0,65,64,63,61,60,59,0,0,0,0,0,0,0,0,0,0,0,0,0,0.11,1
149,64,0,1,0,63,61,60,59,57,56,0,0,0,0,0,0,0,0,0,0,0,0,0,63,61,60,59,57,56,0,0,0,0,0,0,0,0,0,0,0,0,0,0.23,1
151,62,0,0,0,61,60,59,57,56,54,0,0,0,0,0,0,0,0,0,0,0,0,0,61,60,59,57,56,54,0,0,0,0,0,0,0,0,0,0,0,0,0,0.24,1
153,60,0,1,0,59,58,57,56,54,53,0,0,0,0,0,0,0,0,0,0,0,0,0,59,58,57,56,54,53,0,0,0,0,0,0,0,0,0,0,0,0,0,0.12,1
155,58,0,0,0,57,56,55,54,53,52,0,0,0,0,0,0,0,0,0,0,0,0,0,57,56,55,54,53,52,0,0,0,0,0,0,0,0,0,0,0,0,0,0.00,1
157,56,0,2,0,55,52,51,50,49,48,0,0,0,0,0,0,0,0,0,0,0,0,0,55,52,51,50,49,48,0,0,0,0,0,0,0,0,0,0,0,0,0,0.26,1
159,54,0,0,0,53,52,51,50,48,47,0,0,0,0,0,0,0,0,0,0,0,0,0,53,52,51,50,48,47,0,0,0,0,0,0,0,0,0,0,0,0,0,0.13,1
161,52,0,0,0,51,50,49,47,46,45,0,0,0,0,0,0,0,0,0,0,0,0,0,51,50,49,47,46,45,0,0,0,0,0,0,0,0,0,0,0,0,0,0.14,1
163,50,0,1,0,49,47,46,45,43,42,0,0,0,0,0,0,0,0,0,0,0,0,0,49,47,46,45,43,42,0,0,0,0,0,0,0,0,0,0,0,0,0,0.28,1
165,48,0,1,0,47,46,45,43,42,41,0,0,0,0,0,0,0,0,0,0,0,0,0,47,46,45,43,42,41,0,0,0,0,0,0,0,0,0,0,0,0,0,0.15,1
167,46,0,1,0,45,43,42,41,39,38,0,0,0,0,0,0,0,0,0,0,0,0,0,45,43,42,41,39,38,0,0,0,0,0,0,0,0,0,0,0,0,0,0.30,1
169,44,0,0,0,43,42,41,39,38,36,0,0,0,0,0,0,0,0,0,0,0,0,0,43,42,41,39,38,36,0,0,0,0,0,0,0,0,0,0,0,0,0,0.31,1
171,42,0,1,0,41,40,39,38,36,35,0,0,0,0,0,0,0,0,0,0,0,0,0,41,40,39,38,36,35,0,0,0,0,0,0,0,0,0,0,0,0,0,0.16,1
173,40,0,1,0,39,37,36,35,33,32,0,0,0,0,0,0,0,0,0,0,0,0,0,39,37,36,35,33,32,0,0,0,0,0,0,0,0,0,0,0,0,0,0.34,1
175,38,0,0,0,37,36,35,33,32,31,0,0,0,0,0,0,0,0,0,0,0,0,0,37,36,35,33,32,31,0,0,0,0,0,0,0,0,0,0,0,0,0,0.18,1
177,36,0,2,0,35,34,33,31,30,29,0,0,0,0,0,0,0,0,0,0,0,0,0,35,34,33,31,30,29,0,0,0,0,0,0,0,0,0,0,0,0,0,0.18,1
179,34,0,1,0,33,31,30,29,27,26,0,0,0,0,0,0,0,0,0,0,0,0,0,33,31,30,29,27,26,0,0,0,0,0,0,0,0,0,0,0,0,0,0.38,1
181,32,0,0,0,31,30,29,27,26,24,0,0,0,0,0,0,0,0,0,0,0,0,0,31,30,29,27,26,24,0,0,0,0,0,0,0,0,0,0,0,0,0,0.40,1
183,30,0,0,0,29,28,27,26,24,23,0,0,0,0,0,0,0,0,0,0,0,0,0,29,28,27,26,24,23,0,0,0,0,0,0,0,0,0,0,0,0,0,0.21,1
185,28,0,1,0,27,26,25,23,22,21,0,0,0,0,0,0,0,0,0,0,0,0,0,27,26,25,23,22,21,0,0,0,0,0,0,0,0,0,0,0,0,0,0.22,1
187,26,0,0,0,25,24,23,21,20,19,0,0,0,0,0,0,0,0,0,0,0,0,0,25,24,23,21,20,19,0,0,0,0,0,0,0,0,0,0,0,0,0,0.24,1
189,24,0,2,0,23,21,20,19,18,17,0,0,0,0,0,0,0,0,0,0,0,0,0,23,21,20,19,18,17,0,0,0,0,0,0,0,0,0,0,0,0,0,0.25,1
192,22,0,0,0,21,20,19,17,16,15,0,0,0,0,0,0,0,0,0,0,0,0,0,21,20,19,17,16,15,0,0,0,0,0,0,0,0,0,0,0,0,0,0.27,1
194,20,0,1,0,19,17,16,15,13,12,0,0,0,0,0,0,0,0,0,0,0,0,0,19,17,16,15,13,12,0,0,0,0,0,0,0,0,0,0,0,0,0,0.57,1
196,18,0,1,0,17,16,15,14,13,11,1,0,0,0,0,0,0,0,0,0,0,0,0,17,16,15,14,13,11,1,0,0,0,0,0,0,0,0,0,0,0,0,0.61,1
198,16,0,0,0,15,14,13,12,11,10,0,0,0,0,0,0,0,0,0,0,0,0,0,15,14,13,12,11,10,0,0,0,0,0,0,0,0,0,0,0,0,0,0.00,1
200,14,0,1,0,13,12,11,10,9,8,1,0,0,0,0,0,0,0,0,0,0,0,0,13,12,11,10,9,8,1,0,0,0,0,0,0,0,0,0,0,0,0,0.73,1
202,12,0,0,0,11,10,9,8,7,6,0,0,0,0,0,0,0,0,0,0,0,0,0,11,10,9,8,7,6,0,0,0,0,0,0,0,0,0,0,0,0,0,0.00,1
204,10,0,0,0,9,8,7,5,4,3,0,0,0,0,0,0,0,0,0,0,0,0,0,9,8,7,5,4,3,0,0,0,0,0,0,0,0,0,0,0,0,0,0.47,1
206,8,0,1,0,7,6,5,3,2,1,0,0,0,0,0,0,0,0,0,0,0,0,0,7,6,5,3,2,1,0,0,0,0,0,0,0,0,0,0,0,0,0,0.54,1
208,6,0,1,0,5,4,3,2,0,0,0,0,0,0,0,0,0,0,0,0,0,0,0,5,4,3,2,0,0,0,0,0,0,0,0,0,0,0,0,0,0,0,0.65,1
210,4,0,2,0,3,2,1,0,0,0,0,0,0,0,0,0,0,0,0,0,0,0,0,3,2,1,0,0,0,0,0,0,0,0,0,0,0,0,0,0,0,0,0.81,1
212,2,0,0,0,1,0,0,0,0,0,0,0,0,0,0,0,0,0,0,0,0,0,0,1,0,0,0,0,0,0,0,0,0,0,0,0,0,0,0,0,0,0,1.00,1
214,80,0,0,0,79,78,77,76,75,73,0,0,0,0,0,0,0,0,0,0,0,0,0,79,78,77,76,75,72,0,0,0,0,0,0,0,0,0,0,0,0,0,0.19,1
216,78,0,0,0,77,76,75,74,72,71,0,0,0,0,0,0,0,0,0,0,0,0,0,77,76,75,74,72,71,0,0,0,0,0,0,0,0,0,0,0,0,0,0.10,1
218,76,0,2,0,75,74,73,71,70,69,0,0,0,0,0,0,0,0,0,0,0,0,0,75,74,73,71,70,69,0,0,0,0,0,0,0,0,0,0,0,0,0,0.10,1
220,74,0,0,0,73,72,71,70,68,66,0,0,0,0,0,0,0,0,0,0,0,0,0,73,72,71,70,67,66,0,0,0,0,0,0,0,0,0,0,0,0,0,0.10,1
222,72,0,0,0,71,70,69,67,66,64,0,0,0,0,0,0,0,0,0,0,0,0,0,71,70,69,67,66,64,0,0,0,0,0,0,0,0,0,0,0,0,0,0.21,1
224,70,0,0,0,69,68,67,66,65,64,0,0,0,0,0,0,0,0,0,0,0,0,0,69,68,67,66,65,64,0,0,0,0,0,0,0,0,0,0,0,0,0,0.00,1
226,68,0,2,0,67,66,65,63,62,61,0,0,0,0,0,0,0,0,0,0,0,0,0,67,66,65,63,62,61,0,0,0,0,0,0,0,0,0,0,0,0,0,0.11,1
228,66,0,1,0,65,63,62,61,59,58,0,0,0,0,0,0,0,0,0,0,0,0,0,65,63,62,61,59,58,0,0,0,0,0,0,0,0,0,0,0,0,0,0.23,1
230,64,0,0,0,63,62,61,60,59,56,0,0,0,0,0,0,0,0,0,0,0,0,0,63,62,61,60,59,56,0,0,0,0,0,0,0,0,0,0,0,0,0,0.23,1
232,62,0,0,0,61,60,59,58,57,56,0,0,0,0,0,0,0,0,0,0,0,0,0,61,60,59,58,57,56,0,0,0,0,0,0,0,0,0,0,0,0,0,0.00,1
234,60,0,2,0,59,58,57,55,54,53,0,0,0,0,0,0,0,0,0,0,0,0,0,59,58,57,55,54,53,0,0,0,0,0,0,0,0,0,0,0,0,0,0.12,1
236,58,0,1,0,57,55,54,53,51,50,0,0,0,0,0,0,0,0,0,0,0,0,0,57,55,54,53,51,50,0,0,0,0,0,0,0,0,0,0,0,0,0,0.25,1
238,56,0,0,0,55,54,53,51,50,48,0,0,0,0,0,0,0,0,0,0,0,0,0,55,54,53,51,50,48,0,0,0,0,0,0,0,0,0,0,0,0,0,0.26,1
240,54,0,1,0,53,52,51,50,48,47,0,0,0,0,0,0,0,0,0,0,0,0,0,53,52,51,50,48,47,0,0,0,0,0,0,0,0,0,0,0,0,0,0.13,1
242,52,0,0,0,51,50,49,48,47,46,0,0,0,0,0,0,0,0,0,0,0,0,0,51,50,49,48,47,46,0,0,0,0,0,0,0,0,0,0,0,0,0,0.00,1
244,50,0,1,0,49,46,45,44,43,42,0,0,0,0,0,0,0,0,0,0,0,0,0,49,46,45,44,43,42,0,0,0,0,0,0,0,0,0,0,0,0,0,0.28,1
246,48,0,1,0,47,46,45,43,42,41,0,0,0,0,0,0,0,0,0,0,0,0,0,47,46,45,43,42,41,0,0,0,0,0,0,0,0,0,0,0,0,0,0.15,1
248,46,0,0,0,45,44,43,41,40,39,0,0,0,0,0,0,0,0,0,0,0,0,0,45,44,43,41,40,39,0,0,0,0,0,0,0,0,0,0,0,0,0,0.15,1
250,44,0,1,0,43,41,40,39,37,36,0,0,0,0,0,0,0,0,0,0,0,0,0,43,41,40,39,37,36,0,0,0,0,0,0,0,0,0,0,0,0,0,0.31,1
252,42,0,1,0,41,40,39,38,37,36,1,0,0,0,0,0,0,0,0,0,0,0,0,41,40,39,38,37,36,1,0,0,0,0,0,0,0,0,0,0,0,0,0.16,1
254,40,0,1,0,39,38,37,36,34,33,0,0,0,0,0,0,0,0,0,0,0,0,0,39,38,37,36,34,33,0,0,0,0,0,0,0,0,0,0,0,0,0,0.17,1
256,38,0,1,0,37,35,34,33,31,30,0,0,0,0,0,0,0,0,0,0,0,0,0,37,35,34,33,31,30,0,0,0,0,0,0,0,0,0,0,0,0,0,0.35,1
258,36,0,1,0,35,34,33,32,31,30,1,0,0,0,0,0,0,0,0,0,0,0,0,35,34,33,32,31,30,1,0,0,0,0,0,0,0,0,0,0,0,0,0.37,1
260,34,0,0,0,33,32,31,30,29,28,0,0,0,0,0,0,0,0,0,0,0,0,0,33,32,31,30,29,28,0,0,0,0,0,0,0,0,0,0,0,0,0,0.00,1
262,32,0,1,0,31,29,28,27,25,24,0,0,0,0,0,0,0,0,0,0,0,0,0,31,29,28,27,25,24,0,0,0,0,0,0,0,0,0,0,0,0,0,0.40,1
264,30,0,0,0,29,28,27,25,24,23,0,0,0,0,0,0,0,0,0,0,0,0,0,29,28,27,25,24,23,0,0,0,0,0,0,0,0,0,0,0,0,0,0.21,1
266,28,0,1,0,27,25,24,23,22,21,0,0,0,0,0,0,0,0,0,0,0,0,0,27,25,24,23,22,21,0,0,0,0,0,0,0,0,0,0,0,0,0,0.22,1
268,26,0,0,0,25,23,22,21,20,19,0,0,0,0,0,0,0,0,0,0,0,0,0,25,23,22,21,20,19,0,0,0,0,0,0,0,0,0,0,0,0,0,0.24,1
270,24,0,1,0,23,21,20,19,17,16,0,0,0,0,0,0,0,0,0,0,0,0,0,23,21,20,19,17,16,0,0,0,0,0,0,0,0,0,0,0,0,0,0.50,1
272,22,0,1,0,21,20,19,17,16,15,1,0,0,0,0,0,0,0,0,0,0,0,0,21,20,19,17,16,15,1,0,0,0,0,0,0,0,0,0,0,0,0,0.53,1
274,20,0,0,0,19,18,17,16,15,14,0,0,0,0,0,0,0,0,0,0,0,0,0,19,18,17,16,15,14,0,0,0,0,0,0,0,0,0,0,0,0,0,0.00,1
276,18,0,1,0,17,16,15,14,13,12,1,0,0,0,0,0,0,0,0,0,0,0,0,17,16,15,14,13,12,1,0,0,0,0,0,0,0,0,0,0,0,0,0.61,1
278,16,0,0,0,15,14,13,12,11,10,0,0,0,0,0,0,0,0,0,0,0,0,0,15,14,13,12,11,10,0,0,0,0,0,0,0,0,0,0,0,0,0,0.00,1
280,14,0,0,0,13,11,10,8,7,6,0,0,0,0,0,0,0,0,0,0,0,0,0,13,11,10,8,7,6,0,0,0,0,0,0,0,0,0,0,0,0,0,0.73,1
282,12,0,1,0,11,9,8,7,5,4,0,0,0,0,0,0,0,0,0,0,0,0,0,11,9,8,7,5,4,0,0,0,0,0,0,0,0,0,0,0,0,0,0.82,1
284,10,0,1,0,9,8,7,6,5,4,1,0,0,0,0,0,0,0,0,0,0,0,0,9,8,7,6,5,4,1,0,0,0,0,0,0,0,0,0,0,0,0,0.92,1
286,8,0,0,0,7,6,5,4,3,2,0,0,0,0,0,0,0,0,0,0,0,0,0,7,6,5,4,3,2,0,0,0,0,0,0,0,0,0,0,0,0,0,0.00,1
288,6,0,1,0,5,3,2,1,0,0,0,0,0,0,0,0,0,0,0,0,0,0,0,5,3,2,1,0,0,0,0,0,0,0,0,0,0,0,0,0,0,0,1.25,1
290,4,0,1,0,3,2,1,0,0,0,0,0,0,0,0,0,0,0,0,0,0,0,0,3,2,1,0,0,0,0,0,0,0,0,0,0,0,0,0,0,0,0,0.81,1
292,2,0,0,0,1,0,0,0,0,0,0,0,0,0,0,0,0,0,0,0,0,0,0,1,0,0,0,0,0,0,0,0,0,0,0,0,0,0,0,0,0,0,0.00,1
294,80,0,0,0,79,77,76,75,74,72,0,0,0,0,0,0,0,0,0,0,0,0,0,79,77,76,75,74,72,0,0,0,0,0,0,0,0,0,0,0,0,0,0.19,1
296,78,0,1,0,77,76,75,74,72,71,0,0,0,0,0,0,0,0,0,0,0,0,0,77,76,75,74,72,71,0,0,0,0,0,0,0,0,0,0,0,0,0,0.10,1
298,76,0,0,0,75,74,73,71,70,69,0,0,0,0,0,0,0,0,0,0,0,0,0,75,74,73,71,70,69,0,0,0,0,0,0,0,0,0,0,0,0,0,0.10,1
300,74,0,1,0,73,71,70,69,67,66,0,0,0,0,0,0,0,0,0,0,0,0,0,73,71,70,69,67,66,0,0,0,0,0,0,0,0,0,0,0,0,0,0.21,1
302,72,0,2,0,71,70,69,67,66,65,0,0,0,0,0,0,0,0,0,0,0,0,0,71,70,69,67,66,65,0,0,0,0,0,0,0,0,0,0,0,0,0,0.11,1
304,70,0,1,0,69,67,66,65,63,62,0,0,0,0,0,0,0,0,0,0,0,0,0,69,67,66,65,63,62,0,0,0,0,0,0,0,0,0,0,0,0,0,0.22,1
306,68,0,0,0,67,66,65,63,62,60,0,0,0,0,0,0,0,0,0,0,0,0,0,67,66,65,63,62,60,0,0,0,0,0,0,0,0,0,0,0,0,0,0.22,1
308,66,0,0,0,65,64,63,62,60,59,0,0,0,0,0,0,0,0,0,0,0,0,0,65,64,63,62,60,59,0,0,0,0,0,0,0,0,0,0,0,0,0,0.11,1
310,64,0,1,0,63,61,60,59,57,56,0,0,0,0,0,0,0,0,0,0,0,0,0,63,61,60,59,57,56,0,0,0,0,0,0,0,0,0,0,0,0,0,0.23,1
312,62,0,0,0,61,60,59,57,56,55,0,0,0,0,0,0,0,0,0,0,0,0,0,61,60,59,57,56,55,0,0,0,0,0,0,0,0,0,0,0,0,0,0.12,1
314,60,0,2,0,59,57,56,55,54,53,0,0,0,0,0,0,0,0,0,0,0,0,0,59,57,56,55,54,53,0,0,0,0,0,0,0,0,0,0,0,0,0,0.12,1
316,58,0,0,0,57,56,55,53,52,51,0,0,0,0,0,0,0,0,0,0,0,0,0,57,56,55,53,52,51,0,0,0,0,0,0,0,0,0,0,0,0,0,0.13,1
318,56,0,1,0,55,53,52,51,49,48,0,0,0,0,0,0,0,0,0,0,0,0,0,55,53,52,51,49,48,0,0,0,0,0,0,0,0,0,0,0,0,0,0.26,1
320,54,0,1,0,53,52,51,50,49,48,1,0,0,0,0,0,0,0,0,0,0,0,0,53,52,51,50,49,48,1,0,0,0,0,0,0,0,0,0,0,0,0,0.27,1
322,52,0,0,0,51,50,49,48,47,46,0,0,0,0,0,0,0,0,0,0,0,0,0,51,50,49,48,47,46,0,0,0,0,0,0,0,0,0,0,0,0,0,0.00,1
324,50,0,1,0,49,48,46,45,43,42,0,0,0,0,0,0,0,0,0,0,0,0,0,49,48,46,45,43,42,0,0,0,0,0,0,0,0,0,0,0,0,0,0.28,1
326,48,0,1,0,47,46,45,44,43,41,1,0,0,0,0,0,0,0,0,0,0,0,0,47,46,45,44,43,41,1,0,0,0,0,0,0,0,0,0,0,0,0,0.29,1
328,46,0,0,0,45,44,43,42,41,40,0,0,0,0,0,0,0,0,0,0,0,0,0,45,44,43,42,41,40,0,0,0,0,0,0,0,0,0,0,0,0,0,0.00,1
330,44,0,1,0,43,42,41,39,38,37,0,0,0,0,0,0,0,0,0,0,0,0,0,43,42,41,39,38,37,0,0,0,0,0,0,0,0,0,0,0,0,0,0.16,1
332,42,0,0,0,41,40,39,37,36,35,0,0,0,0,0,0,0,0,0,0,0,0,0,41,40,39,37,36,35,0,0,0,0,0,0,0,0,0,0,0,0,0,0.16,1
334,40,0,2,0,39,37,36,35,34,33,0,0,0,0,0,0,0,0,0,0,0,0,0,39,37,36,35,34,33,0,0,0,0,0,0,0,0,0,0,0,0,0,0.17,1
336,38,0,0,0,37,36,35,33,32,31,0,0,0,0,0,0,0,0,0,0,0,0,0,37,36,35,33,32,31,0,0,0,0,0,0,0,0,0,0,0,0,0,0.18,1
338,36,0,1,0,35,33,32,31,29,28,0,0,0,0,0,0,0,0,0,0,0,0,0,35,33,32,31,29,28,0,0,0,0,0,0,0,0,0,0,0,0,0,0.37,1
340,34,0,1,0,33,32,31,30,29,27,1,0,0,0,0,0,0,0,0,0,0,0,0,33,32,31,30,29,27,1,0,0,0,0,0,0,0,0,0,0,0,0,0.38,1
342,32,0,0,0,31,30,29,28,27,26,0,0,0,0,0,0,0,0,0,0,0,0,0,31,30,29,28,27,26,0,0,0,0,0,0,0,0,0,0,0,0,0,0.00,1
344,30,0,1,0,29,28,27,26,25,24,1,0,0,0,0,0,0,0,0,0,0,0,0,29,28,27,26,25,24,1,0,0,0,0,0,0,0,0,0,0,0,0,0.42,1
346,28,0,0,0,27,26,25,24,23,22,0,0,0,0,0,0,0,0,0,0,0,0,0,27,26,25,24,23,22,0,0,0,0,0,0,0,0,0,0,0,0,0,0.00,1
348,26,0,0,0,25,24,23,21,20,19,0,0,0,0,0,0,0,0,0,0,0,0,0,25,24,23,21,20,19,0,0,0,0,0,0,0,0,0,0,0,0,0,0.24,1
350,24,0,1,0,23,22,21,19,18,17,0,0,0,0,0,0,0,0,0,0,0,0,0,23,22,21,19,18,17,0,0,0,0,0,0,0,0,0,0,0,0,0,0.25,1
352,22,0,1,0,21,20,19,18,16,15,0,0,0,0,0,0,0,0,0,0,0,0,0,21,20,19,18,16,15,0,0,0,0,0,0,0,0,0,0,0,0,0,0.27,1
354,20,0,2,0,19,18,17,15,14,13,0,0,0,0,0,0,0,0,0,0,0,0,0,19,18,17,15,14,13,0,0,0,0,0,0,0,0,0,0,0,0,0,0.29,1
356,18,0,1,0,17,15,14,13,11,10,0,0,0,0,0,0,0,0,0,0,0,0,0,17,15,14,13,11,10,0,0,0,0,0,0,0,0,0,0,0,0,0,0.61,1
358,16,0,0,0,15,14,13,12,11,9,0,0,0,0,0,0,0,0,0,0,0,0,0,15,14,13,12,11,8,0,0,0,0,0,0,0,0,0,0,0,0,0,0.67,1
360,14,0,0,0,13,12,11,10,8,7,0,0,0,0,0,0,0,0,0,0,0,0,0,13,12,11,10,8,7,0,0,0,0,0,0,0,0,0,0,0,0,0,0.37,1
362,12,0,2,0,11,10,9,7,6,5,0,0,0,0,0,0,0,0,0,0,0,0,0,11,10,9,7,6,5,0,0,0,0,0,0,0,0,0,0,0,0,0,0.41,1
364,10,0,0,0,9,8,7,6,4,2,0,0,0,0,0,0,0,0,0,0,0,0,0,9,8,7,6,3,2,0,0,0,0,0,0,0,0,0,0,0,0,0,0.47,1
366,8,0,0,0,7,6,5,3,2,0,0,0,0,0,0,0,0,0,0,0,0,0,0,7,6,5,3,2,0,0,0,0,0,0,0,0,0,0,0,0,0,0,1.06,1
368,6,0,0,0,5,4,3,2,1,0,0,0,0,0,0,0,0,0,0,0,0,0,0,5,4,3,2,1,0,0,0,0,0,0,0,0,0,0,0,0,0,0,0.00,1
370,4,0,2,0,3,2,1,0,0,0,0,0,0,0,0,0,0,0,0,0,0,0,0,3,2,1,0,0,0,0,0,0,0,0,0,0,0,0,0,0,0,0,0.81,1
372,2,0,0,0,1,0,0,0,0,0,0,0,0,0,0,0,0,0,0,0,0,0,0,1,0,0,0,0,0,0,0,0,0,0,0,0,0,0,0,0,0,0,1.00,1
374,80,0,0,0,79,78,77,76,75,72,0,0,0,0,0,0,0,0,0,0,0,0,0,79,78,77,76,75,72,0,0,0,0,0,0,0,0,0,0,0,0,0,0.19,1
376,78,0,0,0,77,76,75,74,73,72,0,0,0,0,0,0,0,0,0,0,0,0,0,77,76,75,74,73,72,0,0,0,0,0,0,0,0,0,0,0,0,0,0.00,1
378,76,0,2,0,75,74,73,71,70,69,0,0,0,0,0,0,0,0,0,0,0,0,0,75,74,73,71,70,69,0,0,0,0,0,0,0,0,0,0,0,0,0,0.10,1
380,74,0,1,0,73,71,70,69,67,66,0,0,0,0,0,0,0,0,0,0,0,0,0,73,71,70,69,67,66,0,0,0,0,0,0,0,0,0,0,0,0,0,0.21,1
382,72,0,0,0,71,70,69,67,66,64,0,0,0,0,0,0,0,0,0,0,0,0,0,71,70,69,67,66,64,0,0,0,0,0,0,0,0,0,0,0,0,0,0.21,1
384,70,0,1,0,69,68,67,66,64,63,0,0,0,0,0,0,0,0,0,0,0,0,0,69,68,67,66,64,63,0,0,0,0,0,0,0,0,0,0,0,0,0,0.11,1
386,68,0,0,0,67,66,65,64,63,62,0,0,0,0,0,0,0,0,0,0,0,0,0,67,66,65,64,63,62,0,0,0,0,0,0,0,0,0,0,0,0,0,0.00,1
388,66,0,1,0,64,62,61,60,59,58,0,0,0,0,0,0,0,0,0,0,0,0,0,63,62,61,60,59,58,0,0,0,0,0,0,0,0,0,0,0,0,0,0.23,1
390,64,0,0,0,63,61,60,59,58,57,0,0,0,0,0,0,0,0,0,0,0,0,0,63,61,60,59,58,57,0,0,0,0,0,0,0,0,0,0,0,0,0,0.12,1
392,62,0,1,0,61,60,59,57,56,55,0,0,0,0,0,0,0,0,0,0,0,0,0,61,60,59,57,56,55,0,0,0,0,0,0,0,0,0,0,0,0,0,0.12,1
394,60,0,1,0,59,57,56,55,53,52,0,0,0,0,0,0,0,0,0,0,0,0,0,59,57,56,55,53,52,0,0,0,0,0,0,0,0,0,0,0,0,0,0.24,1
396,58,0,1,0,57,56,55,54,53,51,1,0,0,0,0,0,0,0,0,0,0,0,0,57,56,55,54,53,51,1,0,0,0,0,0,0,0,0,0,0,0,0,0.25,1
398,56,0,0,0,55,54,53,52,50,49,0,0,0,0,0,0,0,0,0,0,0,0,0,55,54,53,52,50,49,0,0,0,0,0,0,0,0,0,0,0,0,0,0.13,1
400,54,0,1,0,53,52,51,49,48,47,0,0,0,0,0,0,0,0,0,0,0,0,0,53,52,51,49,48,47,0,0,0,0,0,0,0,0,0,0,0,0,0,0.13,1
402,52,0,1,0,51,49,48,47,45,44,0,0,0,0,0,0,0,0,0,0,0,0,0,51,49,48,47,45,44,0,0,0,0,0,0,0,0,0,0,0,0,0,0.27,1
404,50,0,1,0,49,48,47,46,45,43,1,0,0,0,0,0,0,0,0,0,0,0,0,49,48,47,46,45,43,1,0,0,0,0,0,0,0,0,0,0,0,0,0.28,1
406,48,0,1,0,47,46,45,44,42,41,0,0,0,0,0,0,0,0,0,0,0,0,0,47,46,45,44,42,41,0,0,0,0,0,0,0,0,0,0,0,0,0,0.15,1
408,46,0,1,0,45,44,43,41,40,39,0,0,0,0,0,0,0,0,0,0,0,0,0,45,44,43,41,40,39,0,0,0,0,0,0,0,0,0,0,0,0,0,0.15,1
410,44,0,1,0,43,41,40,39,37,36,0,0,0,0,0,0,0,0,0,0,0,0,0,43,41,40,39,37,36,0,0,0,0,0,0,0,0,0,0,0,0,0,0.31,1
412,42,0,1,0,41,40,39,38,37,35,1,0,0,0,0,0,0,0,0,0,0,0,0,41,40,39,38,37,35,1,0,0,0,0,0,0,0,0,0,0,0,0,0.32,1
414,40,0,1,0,39,38,37,36,34,33,0,0,0,0,0,0,0,0,0,0,0,0,0,39,38,37,36,34,33,0,0,0,0,0,0,0,0,0,0,0,0,0,0.17,1
416,38,0,1,0,37,36,35,33,32,31,0,0,0,0,0,0,0,0,0,0,0,0,0,37,36,35,33,32,31,0,0,0,0,0,0,0,0,0,0,0,0,0,0.18,1
418,36,0,1,0,35,33,32,31,29,28,0,0,0,0,0,0,0,0,0,0,0,0,0,35,33,32,31,29,28,0,0,0,0,0,0,0,0,0,0,0,0,0,0.37,1
420,34,0,1,0,33,32,31,30,29,27,1,0,0,0,0,0,0,0,0,0,0,0,0,33,32,31,30,29,27,1,0,0,0,0,0,0,0,0,0,0,0,0,0.38,1
422,32,0,1,0,31,30,29,28,26,25,0,0,0,0,0,0,0,0,0,0,0,0,0,31,30,29,28,26,25,0,0,0,0,0,0,0,0,0,0,0,0,0,0.20,1
424,30,0,1,0,29,28,27,25,24,23,0,0,0,0,0,0,0,0,0,0,0,0,0,29,28,27,25,24,23,0,0,0,0,0,0,0,0,0,0,0,0,0,0.21,1
426,28,0,1,0,27,25,24,23,21,20,0,0,0,0,0,0,0,0,0,0,0,0,0,27,25,24,23,21,20,0,0,0,0,0,0,0,0,0,0,0,0,0,0.44,1
428,26,0,1,0,25,24,23,22,21,19,1,0,0,0,0,0,0,0,0,0,0,0,0,25,24,23,22,21,19,1,0,0,0,0,0,0,0,0,0,0,0,0,0.47,1
430,24,0,1,0,23,22,21,19,18,17,0,0,0,0,0,0,0,0,0,0,0,0,0,23,22,21,19,18,17,0,0,0,0,0,0,0,0,0,0,0,0,0,0.25,1
432,22,0,2,0,21,20,19,17,16,15,0,0,0,0,0,0,0,0,0,0,0,0,0,21,20,19,17,16,15,0,0,0,0,0,0,0,0,0,0,0,0,0,0.27,1
434,20,0,1,0,19,17,16,15,13,12,0,0,0,0,0,0,0,0,0,0,0,0,0,19,17,16,15,13,12,0,0,0,0,0,0,0,0,0,0,0,0,0,0.57,1
436,18,0,0,0,17,16,15,14,13,10,0,0,0,0,0,0,0,0,0,0,0,0,0,17,16,15,14,13,10,0,0,0,0,0,0,0,0,0,0,0,0,0,0.61,1
438,16,0,1,0,15,14,13,12,10,9,0,0,0,0,0,0,0,0,0,0,0,0,0,15,14,13,12,10,9,0,0,0,0,0,0,0,0,0,0,0,0,0,0.34,1
440,14,0,0,0,13,12,11,10,9,8,0,0,0,0,0,0,0,0,0,0,0,0,0,13,12,11,10,9,8,0,0,0,0,0,0,0,0,0,0,0,0,0,0.00,1
442,12,0,0,0,10,8,7,6,5,4,0,0,0,0,0,0,0,0,0,0,0,0,0,9,8,7,6,5,4,0,0,0,0,0,0,0,0,0,0,0,0,0,0.82,1
444,10,0,1,0,9,8,6,5,4,3,0,0,0,0,0,0,0,0,0,0,0,0,0,9,8,6,5,4,3,0,0,0,0,0,0,0,0,0,0,0,0,0,0.47,1
446,8,0,0,0,7,6,5,3,2,1,0,0,0,0,0,0,0,0,0,0,0,0,0,7,6,5,3,2,1,0,0,0,0,0,0,0,0,0,0,0,0,0,0.54,1
448,6,0,1,0,5,3,2,1,0,0,0,0,0,0,0,0,0,0,0,0,0,0,0,5,3,2,1,0,0,0,0,0,0,0,0,0,0,0,0,0,0,0,1.25,1
450,4,0,1,0,3,2,1,0,0,0,0,0,0,0,0,0,0,0,0,0,0,0,0,3,2,1,0,0,0,0,0,0,0,0,0,0,0,0,0,0,0,0,0.81,1
452,2,0,0,0,1,0,0,0,0,0,0,0,0,0,0,0,0,0,0,0,0,0,0,1,0,0,0,0,0,0,0,0,0,0,0,0,0,0,0,0,0,0,1.00,1
454,80,0,0,0,79,78,77,76,75,72,0,0,0,0,0,0,0,0,0,0,0,0,0,79,78,77,76,75,72,0,0,0,0,0,0,0,0,0,0,0,0,0,0.19,1
456,78,0,1,0,77,76,75,74,72,71,0,0,0,0,0,0,0,0,0,0,0,0,0,77,76,75,74,72,71,0,0,0,0,0,0,0,0,0,0,0,0,0,0.10,1
458,76,0,1,0,75,73,72,71,69,68,0,0,0,0,0,0,0,0,0,0,0,0,0,75,73,72,71,69,68,0,0,0,0,0,0,0,0,0,0,0,0,0,0.20,1
460,74,0,0,0,73,72,71,69,68,67,0,0,0,0,0,0,0,0,0,0,0,0,0,73,72,71,69,68,67,0,0,0,0,0,0,0,0,0,0,0,0,0,0.10,1
462,72,0,2,0,71,70,69,67,66,65,0,0,0,0,0,0,0,0,0,0,0,0,0,71,70,69,67,66,65,0,0,0,0,0,0,0,0,0,0,0,0,0,0.11,1
464,70,0,1,0,69,67,66,65,63,62,0,0,0,0,0,0,0,0,0,0,0,0,0,69,67,66,65,63,62,0,0,0,0,0,0,0,0,0,0,0,0,0,0.22,1
466,68,0,1,0,67,66,65,63,62,61,1,0,0,0,0,0,0,0,0,0,0,0,0,67,66,65,63,62,61,1,0,0,0,0,0,0,0,0,0,0,0,0,0.22,1
468,66,0,0,0,65,64,63,62,61,60,0,0,0,0,0,0,0,0,0,0,0,0,0,65,64,63,62,61,60,0,0,0,0,0,0,0,0,0,0,0,0,0,0.00,1
470,64,0,1,0,63,62,61,59,58,57,0,0,0,0,0,0,0,0,0,0,0,0,0,63,62,61,59,58,57,0,0,0,0,0,0,0,0,0,0,0,0,0,0.12,1
472,62,0,0,0,61,60,59,57,56,55,0,0,0,0,0,0,0,0,0,0,0,0,0,61,60,59,57,56,55,0,0,0,0,0,0,0,0,0,0,0,0,0,0.12,1
474,60,0,2,0,59,58,57,55,54,53,0,0,0,0,0,0,0,0,0,0,0,0,0,59,58,57,55,54,53,0,0,0,0,0,0,0,0,0,0,0,0,0,0.12,1
476,58,0,1,0,57,55,54,53,51,50,0,0,0,0,0,0,0,0,0,0,0,0,0,57,55,54,53,51,50,0,0,0,0,0,0,0,0,0,0,0,0,0,0.25,1
478,56,0,1,0,55,54,53,51,50,49,1,0,0,0,0,0,0,0,0,0,0,0,0,55,54,53,51,50,49,1,0,0,0,0,0,0,0,0,0,0,0,0,0.26,1
480,54,0,0,0,53,52,51,50,48,47,0,0,0,0,0,0,0,0,0,0,0,0,0,53,52,51,50,48,47,0,0,0,0,0,0,0,0,0,0,0,0,0,0.13,1
482,52,0,1,0,51,50,49,47,46,45,0,0,0,0,0,0,0,0,0,0,0,0,0,51,50,49,47,46,45,0,0,0,0,0,0,0,0,0,0,0,0,0,0.14,1
484,50,0,0,0,49,48,47,45,44,43,0,0,0,0,0,0,0,0,0,0,0,0,0,49,48,47,45,44,43,0,0,0,0,0,0,0,0,0,0,0,0,0,0.14,1
486,48,0,2,0,47,46,45,43,42,41,0,0,0,0,0,0,0,0,0,0,0,0,0,47,46,45,43,42,41,0,0,0,0,0,0,0,0,0,0,0,0,0,0.15,1
488,46,0,1,0,45,43,42,41,39,38,0,0,0,0,0,0,0,0,0,0,0,0,0,45,43,42,41,39,38,0,0,0,0,0,0,0,0,0,0,0,0,0,0.30,1
490,44,0,1,0,43,42,41,39,38,37,1,0,0,0,0,0,0,0,0,0,0,0,0,43,42,41,39,38,37,1,0,0,0,0,0,0,0,0,0,0,0,0,0.31,1
492,42,0,1,0,41,40,39,38,36,35,0,0,0,0,0,0,0,0,0,0,0,0,0,41,40,39,38,36,35,0,0,0,0,0,0,0,0,0,0,0,0,0,0.16,1
494,40,0,1,0,39,38,37,35,34,33,0,0,0,0,0,0,0,0,0,0,0,0,0,39,38,37,35,34,33,0,0,0,0,0,0,0,0,0,0,0,0,0,0.17,1
496,38,0,1,0,37,36,35,34,32,31,0,0,0,0,0,0,0,0,0,0,0,0,0,37,36,35,34,32,31,0,0,0,0,0,0,0,0,0,0,0,0,0,0.18,1
498,36,0,2,0,35,34,33,31,30,29,0,0,0,0,0,0,0,0,0,0,0,0,0,35,34,33,31,30,29,0,0,0,0,0,0,0,0,0,0,0,0,0,0.18,1
500,34,0,1,0,33,31,30,29,27,26,0,0,0,0,0,0,0,0,0,0,0,0,0,33,31,30,29,27,26,0,0,0,0,0,0,0,0,0,0,0,0,0,0.38,1
502,32,0,0,0,31,30,29,28,27,25,0,0,0,0,0,0,0,0,0,0,0,0,0,31,30,29,28,27,24,0,0,0,0,0,0,0,0,0,0,0,0,0,0.40,1
504,30,0,0,0,29,28,27,26,24,23,0,0,0,0,0,0,0,0,0,0,0,0,0,29,28,27,26,24,23,0,0,0,0,0,0,0,0,0,0,0,0,0,0.21,1
506,28,0,2,0,27,26,25,23,22,21,0,0,0,0,0,0,0,0,0,0,0,0,0,27,26,25,23,22,21,0,0,0,0,0,0,0,0,0,0,0,0,0,0.22,1
508,26,0,0,0,25,24,23,22,20,18,0,0,0,0,0,0,0,0,0,0,0,0,0,25,24,23,22,19,18,0,0,0,0,0,0,0,0,0,0,0,0,0,0.24,1
510,24,0,0,0,23,22,21,19,18,16,0,0,0,0,0,0,0,0,0,0,0,0,0,23,22,21,19,18,16,0,0,0,0,0,0,0,0,0,0,0,0,0,0.50,1
512,22,0,0,0,21,20,19,18,17,16,0,0,0,0,0,0,0,0,0,0,0,0,0,21,20,19,18,17,16,0,0,0,0,0,0,0,0,0,0,0,0,0,0.00,1
514,20,0,2,0,19,18,17,15,14,13,0,0,0,0,0,0,0,0,0,0,0,0,0,19,18,17,15,14,13,0,0,0,0,0,0,0,0,0,0,0,0,0,0.29,1
516,18,0,1,0,17,15,14,13,11,10,0,0,0,0,0,0,0,0,0,0,0,0,0,17,15,14,13,11,10,0,0,0,0,0,0,0,0,0,0,0,0,0,0.61,1
518,16,0,0,0,15,14,13,12,11,8,0,0,0,0,0,0,0,0,0,0,0,0,0,15,14,13,12,11,8,0,0,0,0,0,0,0,0,0,0,0,0,0,0.67,1
520,14,0,0,0,13,12,11,10,9,8,0,0,0,0,0,0,0,0,0,0,0,0,0,13,12,11,10,9,8,0,0,0,0,0,0,0,0,0,0,0,0,0,0.00,1
522,12,0,2,0,11,10,9,7,6,5,0,0,0,0,0,0,0,0,0,0,0,0,0,11,10,9,7,6,5,0,0,0,0,0,0,0,0,0,0,0,0,0,0.41,1
524,10,0,1,0,9,7,6,5,3,2,0,0,0,0,0,0,0,0,0,0,0,0,0,9,7,6,5,3,2,0,0,0,0,0,0,0,0,0,0,0,0,0,0.92,1
526,8,0,0,0,7,6,5,3,2,0,0,0,0,0,0,0,0,0,0,0,0,0,0,7,6,5,3,2,0,0,0,0,0,0,0,0,0,0,0,0,0,0,1.06,1
528,6,0,1,0,5,4,3,2,0,0,0,0,0,0,0,0,0,0,0,0,0,0,0,5,4,3,2,0,0,0,0,0,0,0,0,0,0,0,0,0,0,0,0.65,1
530,4,0,0,0,3,2,1,0,0,0,0,0,0,0,0,0,0,0,0,0,0,0,0,3,2,1,0,0,0,0,0,0,0,0,0,0,0,0,0,0,0,0,0.00,1
532,2,0,0,0,1,0,0,0,0,0,0,0,0,0,0,0,0,0,0,0,0,0,0,1,0,0,0,0,0,0,0,0,0,0,0,0,0,0,0,0,0,0,1.00,1
534,4,0,0,0,3,2,1,0,0,0,0,0,0,0,0,0,0,0,0,0,0,0,0,3,2,1,0,0,0,0,0,0,0,0,0,0,0,0,0,0,0,0,0.81,1
536,2,0,1,0,1,0,0,0,0,0,0,0,0,0,0,0,0,0,0,0,0,0,0,1,0,0,0,0,0,0,0,0,0,0,0,0,0,0,0,0,0,0,1.00,1
538,80,12,11,0,73,56,44,35,28,23,0,0,0,0,0,0,0,0,0,0,0,0,0,23,22,21,20,19,18,0,0,0,0,0,0,0,0,0,0,0,0,0,1.87,0
540,10,0,0,0,9,8,7,6,5,4,0,0,0,0,0,0,0,0,0,0,0,0,0,9,8,7,6,5,4,0,0,0,0,0,0,0,0,0,0,0,0,0,0.00,0
542,80,0,6,0,74,62,53,45,41,38,0,0,0,0,0,0,0,0,0,0,0,0,0,44,43,41,39,38,37,0,0,0,0,0,0,0,0,0,0,0,0,0,1.59,0
544,80,0,3,0,77,70,67,63,56,53,0,0,0,0,0,0,0,0,0,0,0,0,0,54,46,45,44,41,40,0,0,0,0,0,0,0,0,0,0,0,0,0,0.77,0
546,80,0,4,0,73,62,57,52,44,40,0,0,0,0,0,0,0,0,0,0,0,0,0,35,33,32,31,29,28,0,0,0,0,0,0,0,0,0,0,0,0,0,1.02,0
548,26,0,1,0,25,23,21,19,17,16,0,0,0,0,0,0,0,0,0,0,0,0,0,25,21,20,19,17,16,0,0,0,0,0,0,0,0,0,0,0,0,0,0.47,0
550,80,12,11,0,73,56,44,35,28,23,0,0,0,0,0,0,0,0,0,0,0,0,0,23,22,21,20,19,18,0,0,0,0,0,0,0,0,0,0,0,0,0,1.87,0
552,10,0,0,0,9,8,7,6,5,4,0,0,0,0,0,0,0,0,0,0,0,0,0,9,8,7,6,5,4,0,0,0,0,0,0,0,0,0,0,0,0,0,0.00,0
554,80,6,12,0,74,57,45,38,30,28,0,0,0,0,0,0,0,0,0,0,0,0,0,34,33,32,31,29,28,0,0,0,0,0,0,0,0,0,0,0,0,0,1.81,0
556,22,0,0,0,20,19,18,17,15,14,0,0,0,0,0,0,0,0,0,0,0,0,0,20,19,18,17,15,14,0,0,0,0,0,0,0,0,0,0,0,0,0,0.53,0
558,12,2,1,0,11,9,6,1,0,0,0,0,0,0,0,0,0,0,0,0,0,0,0,11,5,3,1,0,0,0,0,0,0,0,0,0,0,0,0,0,0,0,1.78,0
560,28,6,2,0,27,26,22,14,3,0,0,0,0,0,0,0,0,0,0,0,0,0,0,27,26,14,6,1,0,0,0,0,0,0,0,0,0,0,0,0,0,0,1.30,0
562,34,0,1,0,32,30,28,26,23,22,0,0,0,0,0,0,0,0,0,0,0,0,0,32,29,28,26,23,22,0,0,0,0,0,0,0,0,0,0,0,0,0,0.70,0
564,2,0,0,0,1,0,0,0,0,0,0,0,0,0,0,0,0,0,0,0,0,0,0,1,0,0,0,0,0,0,0,0,0,0,0,0,0,0,0,0,0,0,0.00,0
566,12,0,0,0,11,10,9,8,7,6,0,0,0,0,0,0,0,0,0,0,0,0,0,11,10,9,8,7,6,0,0,0,0,0,0,0,0,0,0,0,0,0,0.00,0
568,16,0,0,0,15,14,13,12,11,10,0,0,0,0,0,0,0,0,0,0,0,0,0,15,14,13,12,11,10,0,0,0,0,0,0,0,0,0,0,0,0,0,0.00,0
570,80,0,1,1,78,72,69,65,59,56,0,0,0,0,0,0,0,0,0,0,0,0,0,76,52,51,50,49,48,0,0,0,0,0,0,0,0,0,0,0,0,0,0.48,0
572,52,0,3,0,46,42,38,34,29,28,0,0,0,0,0,0,0,0,0,0,0,0,0,40,34,33,31,29,28,0,0,0,0,0,0,0,0,0,0,0,0,0,1.04,0
574,22,0,1,0,17,15,12,9,6,5,0,0,0,0,0,0,0,0,0,0,0,0,0,14,13,10,9,6,5,0,0,0,0,0,0,0,0,0,0,0,0,0,1.55,0
576,6,0,0,0,5,4,3,2,1,0,0,0,0,0,0,0,0,0,0,0,0,0,0,5,4,3,2,1,0,0,0,0,0,0,0,0,0,0,0,0,0,0,0.00,0
578,6,0,0,0,5,4,3,2,1,0,0,0,0,0,0,0,0,0,0,0,0,0,0,5,4,3,2,1,0,0,0,0,0,0,0,0,0,0,0,0,0,0,0.00,0
580,6,0,0,0,4,2,0,0,0,0,0,0,0,0,0,0,0,0,0,0,0,0,0,2,1,0,0,0,0,0,0,0,0,0,0,0,0,0,0,0,0,0,1.25,0
582,38,6,3,0,36,33,28,23,16,13,0,0,0,0,0,0,0,0,0,0,0,0,0,30,15,12,11,8,7,0,0,0,0,0,0,0,0,0,0,0,0,0,0.87,0
584,4,0,0,0,3,2,1,0,0,0,0,0,0,0,0,0,0,0,0,0,0,0,0,3,2,1,0,0,0,0,0,0,0,0,0,0,0,0,0,0,0,0,0.00,0
586,2,0,0,0,0,0,0,0,0,0,0,0,0,0,0,0,0,0,0,0,0,0,0,0,0,0,0,0,0,0,0,0,0,0,0,0,0,0,0,0,0,0,1.00,0
588,44,0,0,0,43,42,41,40,39,38,0,0,0,0,0,0,0,0,0,0,0,0,0,43,42,41,40,39,38,0,0,0,0,0,0,0,0,0,0,0,0,0,0.00,0
590,24,0,0,0,23,12,6,0,0,0,0,0,0,0,0,0,0,0,0,0,0,0,0,23,2,1,0,0,0,0,0,0,0,0,0,0,0,0,0,0,0,0,1.00,0
592,32,0,0,0,31,16,8,0,0,0,0,0,0,0,0,0,0,0,0,0,0,0,0,31,2,1,0,0,0,0,0,0,0,0,0,0,0,0,0,0,0,0,1.00,0
594,80,0,0,0,69,56,47,31,19,14,0,0,0,0,0,0,0,0,0,0,0,0,0,26,20,11,9,7,6,0,0,0,0,0,0,0,0,0,0,0,0,0,1.37,0
596,80,0,0,0,69,56,47,31,19,14,0,0,0,0,0,0,0,0,0,0,0,0,0,26,20,11,9,7,6,0,0,0,0,0,0,0,0,0,0,0,0,0,1.37,0
598,56,0,0,0,45,34,27,16,10,7,0,0,0,0,0,0,0,0,0,0,0,0,0,26,20,11,9,7,6,0,0,0,0,0,0,0,0,0,0,0,0,0,1.49,0
600,80,0,0,0,79,72,69,64,59,56,0,0,0,0,0,0,0,0,0,0,0,0,0,79,28,27,25,23,22,0,0,0,0,0,0,0,0,0,0,0,0,0,0.38,0
602,10,0,0,0,9,8,7,6,5,4,0,0,0,0,0,0,0,0,0,0,0,0,0,9,8,7,6,5,4,0,0,0,0,0,0,0,0,0,0,0,0,0,0.00,0
604,60,0,0,0,59,52,49,44,39,36,0,0,0,0,0,0,0,0,0,0,0,0,0,59,18,17,15,13,12,0,0,0,0,0,0,0,0,0,0,0,0,0,0.47,0
606,8,0,0,0,7,6,5,4,3,2,0,0,0,0,0,0,0,0,0,0,0,0,0,7,6,5,4,3,2,0,0,0,0,0,0,0,0,0,0,0,0,0,0.00,0
608,64,0,5,0,56,48,40,30,8,1,0,0,0,0,0,0,0,0,0,0,0,0,0,13,12,5,4,2,1,0,0,0,0,0,0,0,0,0,0,0,0,0,1.33,0
611,32,0,2,0,29,26,23,19,15,12,0,0,0,0,0,0,0,0,0,0,0,0,0,16,15,14,12,10,9,0,0,0,0,0,0,0,0,0,0,0,0,0,0.73,0
