pkt#,size,#dec,#op,#rung,#2gram,#3gram,#4gram,#5gram,#6gram,#7gram,#8gram,#9gram,#10gram,#11gram,#12gram,#13gram,#14gram,#15gram,#16gram,#17gram,#18gram,#19gram,#20gram,L2gram,L3gram,L4gram,L5gram,L6gram,L7gram,L8gram,L9gram,L10gram,L11gram,L12gram,L13gram,L14gram,L15gram,L16gram,L17gram,L18gram,L19gram,L20gram,entropy,class
4707,82,0,1,0,80,79,78,77,75,74,0,0,0,0,0,0,0,0,0,0,0,0,0,80,79,78,77,75,74,0,0,0,0,0,0,0,0,0,0,0,0,0,0.19,0
4710,158,6,10,1,146,131,119,112,107,104,0,0,0,0,0,0,0,0,0,0,0,0,0,82,80,79,78,77,76,0,0,0,0,0,0,0,0,0,0,0,0,0,1.23,0
4713,160,6,9,1,142,115,98,90,85,80,1,0,0,0,0,0,0,0,0,0,0,0,0,80,79,78,77,76,74,1,0,0,0,0,0,0,0,0,0,0,0,0,1.88,0
4716,240,6,23,0,199,131,98,90,84,80,1,0,0,0,0,0,0,0,0,0,0,0,0,80,79,78,77,75,74,1,0,0,0,0,0,0,0,0,0,0,0,0,2.51,0
4719,240,6,24,0,196,124,96,89,78,74,0,0,0,0,0,0,0,0,0,0,0,0,0,80,79,78,77,75,74,0,0,0,0,0,0,0,0,0,0,0,0,0,2.50,0
4722,240,6,21,0,204,146,121,106,87,77,1,0,0,0,0,0,0,0,0,0,0,0,0,83,80,79,78,77,76,1,0,0,0,0,0,0,0,0,0,0,0,0,2.68,0
4725,240,6,25,0,212,160,135,116,91,77,0,0,0,0,0,0,0,0,0,0,0,0,0,80,79,77,76,75,74,0,0,0,0,0,0,0,0,0,0,0,0,0,2.50,0
4728,204,16,21,1,183,146,125,108,86,79,0,0,0,0,0,0,0,0,0,0,0,0,0,84,83,81,80,79,78,0,0,0,0,0,0,0,0,0,0,0,0,0,1.98,0
4731,144,6,3,0,130,121,114,113,112,110,0,0,0,0,0,0,0,0,0,0,0,0,0,116,115,114,113,112,110,0,0,0,0,0,0,0,0,0,0,0,0,0,1.20,0
4734,160,78,12,2,159,158,156,153,151,149,73,72,71,70,69,68,67,66,65,64,63,62,61,159,158,79,77,76,75,73,72,71,70,69,68,67,66,65,64,63,62,61,2.37,1
4737,240,150,26,3,239,238,237,235,232,228,150,147,144,141,138,136,134,132,130,128,126,124,122,239,238,237,156,79,78,77,72,71,70,69,68,67,66,65,64,63,62,61,3.05,1
4740,240,152,30,0,239,238,236,234,232,229,152,148,146,144,141,138,135,132,130,128,126,124,122,239,238,157,156,155,154,77,76,75,74,69,68,67,66,65,64,63,62,61,3.19,1
4743,240,152,38,6,239,238,237,236,235,233,158,155,152,150,149,148,147,146,145,144,143,142,141,239,238,237,236,235,158,157,154,151,150,149,148,147,146,145,144,143,142,141,2.73,1
4746,222,138,35,7,221,219,217,214,211,207,128,126,124,122,120,118,116,114,112,110,108,106,104,221,140,139,78,77,75,73,72,71,70,69,68,67,66,65,64,63,62,61,2.10,1
4749,88,6,1,1,87,85,83,81,79,77,1,0,0,0,0,0,0,0,0,0,0,0,0,87,79,78,77,76,75,1,0,0,0,0,0,0,0,0,0,0,0,0,0.27,0
4752,88,6,1,1,87,85,83,81,79,77,1,0,0,0,0,0,0,0,0,0,0,0,0,87,79,78,77,76,75,1,0,0,0,0,0,0,0,0,0,0,0,0,0.27,0
4755,88,6,1,1,87,85,83,81,79,77,1,0,0,0,0,0,0,0,0,0,0,0,0,87,79,78,77,76,75,1,0,0,0,0,0,0,0,0,0,0,0,0,0.27,0
4758,88,6,1,1,87,85,83,81,79,77,1,0,0,0,0,0,0,0,0,0,0,0,0,87,79,78,77,76,75,1,0,0,0,0,0,0,0,0,0,0,0,0,0.27,0
4761,88,6,1,1,87,85,83,81,79,77,1,0,0,0,0,0,0,0,0,0,0,0,0,87,79,78,77,76,75,1,0,0,0,0,0,0,0,0,0,0,0,0,0.27,0
4764,88,6,1,1,87,85,83,81,79,77,1,0,0,0,0,0,0,0,0,0,0,0,0,87,79,78,77,76,75,1,0,0,0,0,0,0,0,0,0,0,0,0,0.27,0
4767,88,6,1,1,87,85,83,81,79,77,1,0,0,0,0,0,0,0,0,0,0,0,0,87,79,78,77,76,75,1,0,0,0,0,0,0,0,0,0,0,0,0,0.27,0
4770,88,6,1,1,87,85,83,81,79,77,1,0,0,0,0,0,0,0,0,0,0,0,0,87,79,78,77,76,75,1,0,0,0,0,0,0,0,0,0,0,0,0,0.27,0
4773,88,6,1,1,87,85,83,81,79,77,1,0,0,0,0,0,0,0,0,0,0,0,0,87,79,78,77,76,75,1,0,0,0,0,0,0,0,0,0,0,0,0,0.27,0
4776,88,6,1,1,87,85,83,81,79,77,1,0,0,0,0,0,0,0,0,0,0,0,0,87,79,78,77,76,75,1,0,0,0,0,0,0,0,0,0,0,0,0,0.27,0
4779,88,6,1,1,87,85,83,81,79,77,1,0,0,0,0,0,0,0,0,0,0,0,0,87,79,78,77,76,75,1,0,0,0,0,0,0,0,0,0,0,0,0,0.27,0
4782,88,6,1,1,87,85,83,81,79,77,1,0,0,0,0,0,0,0,0,0,0,0,0,87,79,78,77,76,75,1,0,0,0,0,0,0,0,0,0,0,0,0,0.27,0
4785,88,6,1,1,87,85,83,81,79,77,1,0,0,0,0,0,0,0,0,0,0,0,0,87,79,78,77,76,75,1,0,0,0,0,0,0,0,0,0,0,0,0,0.27,0
4788,160,12,11,0,153,136,124,115,108,103,0,0,0,0,0,0,0,0,0,0,0,0,0,103,102,101,100,99,98,0,0,0,0,0,0,0,0,0,0,0,0,0,1.08,0
4791,170,12,11,0,163,146,134,125,118,113,0,0,0,0,0,0,0,0,0,0,0,0,0,113,112,111,110,109,108,0,0,0,0,0,0,0,0,0,0,0,0,0,1.03,0
4794,160,0,6,0,154,142,133,125,121,118,0,0,0,0,0,0,0,0,0,0,0,0,0,124,123,121,119,118,117,0,0,0,0,0,0,0,0,0,0,0,0,0,0.91,0
4797,240,0,9,0,232,214,203,192,182,177,0,0,0,0,0,0,0,0,0,0,0,0,0,103,99,98,97,94,93,0,0,0,0,0,0,0,0,0,0,0,0,0,0.92,0
4800,240,0,7,0,231,214,207,199,185,179,0,0,0,0,0,0,0,0,0,0,0,0,0,90,89,88,87,85,84,0,0,0,0,0,0,0,0,0,0,0,0,0,0.73,0
4803,186,0,5,0,179,167,161,155,145,138,0,0,0,0,0,0,0,0,0,0,0,0,0,116,82,81,80,79,76,0,0,0,0,0,0,0,0,0,0,0,0,0,0.63,0
4806,160,12,11,0,153,136,124,115,108,103,0,0,0,0,0,0,0,0,0,0,0,0,0,103,102,101,100,99,98,0,0,0,0,0,0,0,0,0,0,0,0,0,1.08,0
4809,170,12,11,0,163,146,134,125,118,113,0,0,0,0,0,0,0,0,0,0,0,0,0,113,112,111,110,109,108,0,0,0,0,0,0,0,0,0,0,0,0,0,1.03,0
4812,160,6,12,0,154,137,125,118,110,108,0,0,0,0,0,0,0,0,0,0,0,0,0,114,113,112,111,109,108,0,0,0,0,0,0,0,0,0,0,0,0,0,1.06,0
4815,182,6,13,0,175,156,143,135,125,122,0,0,0,0,0,0,0,0,0,0,0,0,0,80,78,77,76,75,74,0,0,0,0,0,0,0,0,0,0,0,0,0,1.05,0
4818,92,2,1,0,91,87,83,77,75,74,0,0,0,0,0,0,0,0,0,0,0,0,0,91,78,77,76,75,74,0,0,0,0,0,0,0,0,0,0,0,0,0,0.41,0
4821,108,6,2,0,107,106,102,93,80,76,0,0,0,0,0,0,0,0,0,0,0,0,0,107,106,80,79,77,76,0,0,0,0,0,0,0,0,0,0,0,0,0,0.45,0
4824,114,0,1,0,112,109,106,103,99,97,0,0,0,0,0,0,0,0,0,0,0,0,0,112,79,78,77,76,75,0,0,0,0,0,0,0,0,0,0,0,0,0,0.27,0
4827,82,0,0,0,81,80,79,78,77,76,0,0,0,0,0,0,0,0,0,0,0,0,0,81,80,79,78,77,76,0,0,0,0,0,0,0,0,0,0,0,0,0,0.00,0
4830,92,0,0,0,91,90,89,88,87,86,0,0,0,0,0,0,0,0,0,0,0,0,0,91,90,89,88,87,86,0,0,0,0,0,0,0,0,0,0,0,0,0,0.00,0
4835,96,0,0,0,95,94,93,92,91,90,0,0,0,0,0,0,0,0,0,0,0,0,0,95,94,93,92,91,90,0,0,0,0,0,0,0,0,0,0,0,0,0,0.00,0
4841,160,0,6,1,157,147,136,125,111,103,0,0,0,0,0,0,0,0,0,0,0,0,0,127,125,109,96,92,91,0,0,0,0,0,0,0,0,0,0,0,0,0,0.82,0
4851,212,0,9,1,204,191,177,162,142,133,0,0,0,0,0,0,0,0,0,0,0,0,0,88,81,80,79,77,76,0,0,0,0,0,0,0,0,0,0,0,0,0,0.96,0
4857,144,0,5,0,142,136,131,128,126,125,0,0,0,0,0,0,0,0,0,0,0,0,0,132,131,130,127,126,125,0,0,0,0,0,0,0,0,0,0,0,0,0,0.34,0
4862,160,0,3,0,156,152,150,147,144,143,0,0,0,0,0,0,0,0,0,0,0,0,0,151,149,148,147,144,143,0,0,0,0,0,0,0,0,0,0,0,0,0,0.32,0
4865,240,0,3,0,236,232,230,227,224,223,0,0,0,0,0,0,0,0,0,0,0,0,0,231,229,228,227,224,223,0,0,0,0,0,0,0,0,0,0,0,0,0,0.22,0
4868,240,0,0,0,239,238,237,236,235,234,0,0,0,0,0,0,0,0,0,0,0,0,0,239,238,237,236,235,234,0,0,0,0,0,0,0,0,0,0,0,0,0,0.00,0
4871,160,0,0,0,159,158,157,156,155,154,0,0,0,0,0,0,0,0,0,0,0,0,0,159,158,157,156,155,154,0,0,0,0,0,0,0,0,0,0,0,0,0,0.00,0
4874,240,0,0,0,239,238,237,236,235,234,0,0,0,0,0,0,0,0,0,0,0,0,0,239,238,237,236,235,234,0,0,0,0,0,0,0,0,0,0,0,0,0,0.00,0
4877,192,0,0,0,191,190,189,188,187,186,0,0,0,0,0,0,0,0,0,0,0,0,0,191,190,189,188,187,186,0,0,0,0,0,0,0,0,0,0,0,0,0,0.00,0
4880,160,0,1,0,159,157,154,152,150,149,0,0,0,0,0,0,0,0,0,0,0,0,0,159,155,153,152,150,149,0,0,0,0,0,0,0,0,0,0,0,0,0,0.11,0
4883,176,0,1,0,175,173,170,168,166,165,0,0,0,0,0,0,0,0,0,0,0,0,0,175,171,169,168,166,165,0,0,0,0,0,0,0,0,0,0,0,0,0,0.10,0
4886,160,0,0,0,159,158,157,156,155,154,0,0,0,0,0,0,0,0,0,0,0,0,0,159,158,157,156,155,154,0,0,0,0,0,0,0,0,0,0,0,0,0,0.00,0
4889,240,0,0,0,239,238,237,236,235,234,0,0,0,0,0,0,0,0,0,0,0,0,0,239,238,237,236,235,234,0,0,0,0,0,0,0,0,0,0,0,0,0,0.00,0
4892,210,0,0,0,209,208,207,206,205,204,0,0,0,0,0,0,0,0,0,0,0,0,0,209,208,207,206,205,204,0,0,0,0,0,0,0,0,0,0,0,0,0,0.00,0
4895,84,0,0,0,83,82,81,80,79,78,0,0,0,0,0,0,0,0,0,0,0,0,0,83,82,81,80,79,78,0,0,0,0,0,0,0,0,0,0,0,0,0,0.00,0
4898,104,0,0,0,103,90,83,76,75,74,0,0,0,0,0,0,0,0,0,0,0,0,0,103,78,77,76,75,74,0,0,0,0,0,0,0,0,0,0,0,0,0,0.52,0
4901,112,0,0,0,111,94,85,76,75,74,0,0,0,0,0,0,0,0,0,0,0,0,0,111,78,77,76,75,74,0,0,0,0,0,0,0,0,0,0,0,0,0,0.59,0
4904,160,0,0,0,149,136,126,109,95,89,0,0,0,0,0,0,0,0,0,0,0,0,0,97,92,79,78,76,75,0,0,0,0,0,0,0,0,0,0,0,0,0,0.85,0
4907,240,0,0,0,219,192,173,140,114,103,0,0,0,0,0,0,0,0,0,0,0,0,0,105,78,77,76,75,74,0,0,0,0,0,0,0,0,0,0,0,0,0,1.04,0
4910,216,0,0,0,195,170,154,127,109,101,0,0,0,0,0,0,0,0,0,0,0,0,0,89,84,83,82,81,80,0,0,0,0,0,0,0,0,0,0,0,0,0,1.05,0
4913,160,0,0,0,159,152,149,144,139,136,0,0,0,0,0,0,0,0,0,0,0,0,0,159,96,95,94,93,92,0,0,0,0,0,0,0,0,0,0,0,0,0,0.23,0
4916,170,0,0,0,169,162,159,154,149,146,0,0,0,0,0,0,0,0,0,0,0,0,0,169,106,105,104,103,102,0,0,0,0,0,0,0,0,0,0,0,0,0,0.22,0
4919,140,0,0,0,139,132,129,124,119,116,0,0,0,0,0,0,0,0,0,0,0,0,0,139,96,95,94,93,92,0,0,0,0,0,0,0,0,0,0,0,0,0,0.26,0
4922,88,0,0,0,87,86,85,84,83,82,0,0,0,0,0,0,0,0,0,0,0,0,0,87,86,85,84,83,82,0,0,0,0,0,0,0,0,0,0,0,0,0,0.00,0
4925,144,0,6,1,136,128,119,108,84,76,0,0,0,0,0,0,0,0,0,0,0,0,0,81,80,79,78,76,75,0,0,0,0,0,0,0,0,0,0,0,0,0,0.72,0
4928,112,0,2,0,109,106,103,99,94,90,0,0,0,0,0,0,0,0,0,0,0,0,0,92,91,83,82,78,77,0,0,0,0,0,0,0,0,0,0,0,0,0,0.28,0
4964,160,12,11,0,153,136,124,115,108,103,0,0,0,0,0,0,0,0,0,0,0,0,0,103,102,101,100,99,98,0,0,0,0,0,0,0,0,0,0,0,0,0,1.08,0
4967,170,12,11,0,163,146,134,125,118,113,0,0,0,0,0,0,0,0,0,0,0,0,0,113,112,111,110,109,108,0,0,0,0,0,0,0,0,0,0,0,0,0,1.03,0
4970,160,12,11,0,153,136,124,115,108,103,0,0,0,0,0,0,0,0,0,0,0,0,0,103,102,101,100,99,98,0,0,0,0,0,0,0,0,0,0,0,0,0,1.08,0
4973,170,12,11,0,163,146,134,125,118,113,0,0,0,0,0,0,0,0,0,0,0,0,0,113,112,111,110,109,108,0,0,0,0,0,0,0,0,0,0,0,0,0,1.03,0
4976,160,6,13,0,153,134,121,113,103,100,0,0,0,0,0,0,0,0,0,0,0,0,0,58,56,55,54,53,52,0,0,0,0,0,0,0,0,0,0,0,0,0,1.16,0
4979,182,6,13,0,175,156,143,135,125,122,0,0,0,0,0,0,0,0,0,0,0,0,0,80,78,77,76,75,74,0,0,0,0,0,0,0,0,0,0,0,0,0,1.05,0
4982,160,0,9,0,152,134,123,112,102,97,0,0,0,0,0,0,0,0,0,0,0,0,0,99,91,89,87,84,83,0,0,0,0,0,0,0,0,0,0,0,0,0,1.28,0
4985,240,0,13,0,226,198,183,168,151,143,0,0,0,0,0,0,0,0,0,0,0,0,0,99,91,89,87,84,83,0,0,0,0,0,0,0,0,0,0,0,0,0,1.33,0
4988,240,0,8,0,231,213,205,196,180,171,0,0,0,0,0,0,0,0,0,0,0,0,0,90,56,55,54,53,50,0,0,0,0,0,0,0,0,0,0,0,0,0,0.81,0
4991,186,0,5,0,179,167,161,155,145,138,0,0,0,0,0,0,0,0,0,0,0,0,0,116,82,81,80,79,76,0,0,0,0,0,0,0,0,0,0,0,0,0,0.63,0
