pkt#,size,#dec,#op,#rung,#2gram,#3gram,#4gram,#5gram,#6gram,#7gram,#8gram,#9gram,#10gram,#11gram,#12gram,#13gram,#14gram,#15gram,#16gram,#17gram,#18gram,#19gram,#20gram,L2gram,L3gram,L4gram,L5gram,L6gram,L7gram,L8gram,L9gram,L10gram,L11gram,L12gram,L13gram,L14gram,L15gram,L16gram,L17gram,L18gram,L19gram,L20gram,entropy,class
140,708,0,0,0,707,0,0,0,0,0,0,0,0,0,0,0,0,0,0,0,0,0,0,707,0,0,0,0,0,0,0,0,0,0,0,0,0,0,0,0,0,0,0.00,0
143,708,0,0,0,707,0,0,0,0,0,0,0,0,0,0,0,0,0,0,0,0,0,0,707,0,0,0,0,0,0,0,0,0,0,0,0,0,0,0,0,0,0,0.00,0
146,708,0,0,0,707,0,0,0,0,0,0,0,0,0,0,0,0,0,0,0,0,0,0,707,0,0,0,0,0,0,0,0,0,0,0,0,0,0,0,0,0,0,0.00,0
149,708,0,0,0,707,0,0,0,0,0,0,0,0,0,0,0,0,0,0,0,0,0,0,707,0,0,0,0,0,0,0,0,0,0,0,0,0,0,0,0,0,0,0.00,0
152,708,0,0,0,707,0,0,0,0,0,0,0,0,0,0,0,0,0,0,0,0,0,0,707,0,0,0,0,0,0,0,0,0,0,0,0,0,0,0,0,0,0,0.00,0
155,708,0,0,0,707,0,0,0,0,0,0,0,0,0,0,0,0,0,0,0,0,0,0,707,0,0,0,0,0,0,0,0,0,0,0,0,0,0,0,0,0,0,0.00,0
158,708,0,0,0,707,0,0,0,0,0,0,0,0,0,0,0,0,0,0,0,0,0,0,707,0,0,0,0,0,0,0,0,0,0,0,0,0,0,0,0,0,0,0.00,0
161,708,0,0,0,707,0,0,0,0,0,0,0,0,0,0,0,0,0,0,0,0,0,0,707,0,0,0,0,0,0,0,0,0,0,0,0,0,0,0,0,0,0,0.00,0
164,708,0,0,0,707,0,0,0,0,0,0,0,0,0,0,0,0,0,0,0,0,0,0,707,0,0,0,0,0,0,0,0,0,0,0,0,0,0,0,0,0,0,0.00,0
167,708,0,0,0,707,0,0,0,0,0,0,0,0,0,0,0,0,0,0,0,0,0,0,707,0,0,0,0,0,0,0,0,0,0,0,0,0,0,0,0,0,0,0.00,0
170,708,0,0,0,707,0,0,0,0,0,0,0,0,0,0,0,0,0,0,0,0,0,0,707,0,0,0,0,0,0,0,0,0,0,0,0,0,0,0,0,0,0,0.00,0
173,708,0,0,0,707,0,0,0,0,0,0,0,0,0,0,0,0,0,0,0,0,0,0,707,0,0,0,0,0,0,0,0,0,0,0,0,0,0,0,0,0,0,0.00,0
176,708,0,0,0,707,0,0,0,0,0,0,0,0,0,0,0,0,0,0,0,0,0,0,707,0,0,0,0,0,0,0,0,0,0,0,0,0,0,0,0,0,0,0.00,0
179,708,0,0,0,707,0,0,0,0,0,0,0,0,0,0,0,0,0,0,0,0,0,0,707,0,0,0,0,0,0,0,0,0,0,0,0,0,0,0,0,0,0,0.00,0
182,708,0,0,0,707,0,0,0,0,0,0,0,0,0,0,0,0,0,0,0,0,0,0,707,0,0,0,0,0,0,0,0,0,0,0,0,0,0,0,0,0,0,0.00,0
185,708,0,0,0,707,0,0,0,0,0,0,0,0,0,0,0,0,0,0,0,0,0,0,707,0,0,0,0,0,0,0,0,0,0,0,0,0,0,0,0,0,0,0.00,0
188,708,0,0,0,707,0,0,0,0,0,0,0,0,0,0,0,0,0,0,0,0,0,0,707,0,0,0,0,0,0,0,0,0,0,0,0,0,0,0,0,0,0,0.00,0
191,708,0,0,0,707,0,0,0,0,0,0,0,0,0,0,0,0,0,0,0,0,0,0,707,0,0,0,0,0,0,0,0,0,0,0,0,0,0,0,0,0,0,0.00,0
194,708,2,3,1,689,3,0,0,0,0,0,0,0,0,0,0,0,0,0,0,0,0,0,415,2,0,0,0,0,0,0,0,0,0,0,0,0,0,0,0,0,0,0.21,0
197,708,2,3,1,689,3,0,0,0,0,0,0,0,0,0,0,0,0,0,0,0,0,0,491,2,0,0,0,0,0,0,0,0,0,0,0,0,0,0,0,0,0,0.21,0
200,540,2,2,1,523,2,0,0,0,0,0,0,0,0,0,0,0,0,0,0,0,0,0,271,2,0,0,0,0,0,0,0,0,0,0,0,0,0,0,0,0,0,0.27,0
203,517,46,2,5,514,39,31,24,17,10,4,1,0,0,0,0,0,0,0,0,0,0,0,252,12,8,7,5,4,3,1,0,0,0,0,0,0,0,0,0,0,0,0.51,1
206,708,2,8,1,493,0,0,0,0,0,0,0,0,0,0,0,0,0,0,0,0,0,0,235,0,0,0,0,0,0,0,0,0,0,0,0,0,0,0,0,0,0,2.90,0
209,708,2,13,1,258,0,0,0,0,0,0,0,0,0,0,0,0,0,0,0,0,0,0,235,0,0,0,0,0,0,0,0,0,0,0,0,0,0,0,0,0,0,5.61,0
212,708,4,5,1,237,0,0,0,0,0,0,0,0,0,0,0,0,0,0,0,0,0,0,235,0,0,0,0,0,0,0,0,0,0,0,0,0,0,0,0,0,0,5.93,0
215,708,4,6,1,238,0,0,0,0,0,0,0,0,0,0,0,0,0,0,0,0,0,0,235,0,0,0,0,0,0,0,0,0,0,0,0,0,0,0,0,0,0,5.93,0
218,708,2,14,1,236,0,0,0,0,0,0,0,0,0,0,0,0,0,0,0,0,0,0,235,0,0,0,0,0,0,0,0,0,0,0,0,0,0,0,0,0,0,5.87,0
221,708,2,24,1,236,0,0,0,0,0,0,0,0,0,0,0,0,0,0,0,0,0,0,235,0,0,0,0,0,0,0,0,0,0,0,0,0,0,0,0,0,0,5.95,0
224,708,2,4,1,237,0,0,0,0,0,0,0,0,0,0,0,0,0,0,0,0,0,0,235,0,0,0,0,0,0,0,0,0,0,0,0,0,0,0,0,0,0,5.92,0
227,708,2,5,1,241,1,0,0,0,0,0,0,0,0,0,0,0,0,0,0,0,0,0,235,1,0,0,0,0,0,0,0,0,0,0,0,0,0,0,0,0,0,5.92,0
230,708,2,18,1,243,1,0,0,0,0,0,0,0,0,0,0,0,0,0,0,0,0,0,235,1,0,0,0,0,0,0,0,0,0,0,0,0,0,0,0,0,0,5.93,0
233,708,2,9,1,239,0,0,0,0,0,0,0,0,0,0,0,0,0,0,0,0,0,0,235,0,0,0,0,0,0,0,0,0,0,0,0,0,0,0,0,0,0,5.93,0
236,708,2,8,1,236,0,0,0,0,0,0,0,0,0,0,0,0,0,0,0,0,0,0,235,0,0,0,0,0,0,0,0,0,0,0,0,0,0,0,0,0,0,5.91,0
239,708,2,16,1,242,0,0,0,0,0,0,0,0,0,0,0,0,0,0,0,0,0,0,235,0,0,0,0,0,0,0,0,0,0,0,0,0,0,0,0,0,0,5.95,0
242,708,3,5,1,246,0,0,0,0,0,0,0,0,0,0,0,0,0,0,0,0,0,0,235,0,0,0,0,0,0,0,0,0,0,0,0,0,0,0,0,0,0,5.94,0
245,708,3,2,1,241,0,0,0,0,0,0,0,0,0,0,0,0,0,0,0,0,0,0,235,0,0,0,0,0,0,0,0,0,0,0,0,0,0,0,0,0,0,6.00,0
248,708,2,5,1,239,0,0,0,0,0,0,0,0,0,0,0,0,0,0,0,0,0,0,236,0,0,0,0,0,0,0,0,0,0,0,0,0,0,0,0,0,0,5.98,0
251,708,2,26,1,237,0,0,0,0,0,0,0,0,0,0,0,0,0,0,0,0,0,0,235,0,0,0,0,0,0,0,0,0,0,0,0,0,0,0,0,0,0,5.97,0
254,708,2,14,1,238,1,0,0,0,0,0,0,0,0,0,0,0,0,0,0,0,0,0,236,1,0,0,0,0,0,0,0,0,0,0,0,0,0,0,0,0,0,5.92,0
257,708,2,2,1,236,0,0,0,0,0,0,0,0,0,0,0,0,0,0,0,0,0,0,235,0,0,0,0,0,0,0,0,0,0,0,0,0,0,0,0,0,0,5.93,0
260,708,2,20,1,237,0,0,0,0,0,0,0,0,0,0,0,0,0,0,0,0,0,0,235,0,0,0,0,0,0,0,0,0,0,0,0,0,0,0,0,0,0,5.94,0
263,708,2,5,1,239,0,0,0,0,0,0,0,0,0,0,0,0,0,0,0,0,0,0,235,0,0,0,0,0,0,0,0,0,0,0,0,0,0,0,0,0,0,5.88,0
266,708,2,2,1,241,1,0,0,0,0,0,0,0,0,0,0,0,0,0,0,0,0,0,235,1,0,0,0,0,0,0,0,0,0,0,0,0,0,0,0,0,0,5.89,0
269,708,2,10,1,239,1,0,0,0,0,0,0,0,0,0,0,0,0,0,0,0,0,0,235,1,0,0,0,0,0,0,0,0,0,0,0,0,0,0,0,0,0,5.91,0
272,708,2,33,1,236,0,0,0,0,0,0,0,0,0,0,0,0,0,0,0,0,0,0,235,0,0,0,0,0,0,0,0,0,0,0,0,0,0,0,0,0,0,5.95,0
275,708,2,17,1,251,0,0,0,0,0,0,0,0,0,0,0,0,0,0,0,0,0,0,247,0,0,0,0,0,0,0,0,0,0,0,0,0,0,0,0,0,0,5.77,0
278,523,4,2,1,277,4,2,0,0,0,0,0,0,0,0,0,0,0,0,0,0,0,0,239,4,1,0,0,0,0,0,0,0,0,0,0,0,0,0,0,0,0,4.22,0
281,620,2,10,1,540,14,1,0,0,0,0,0,0,0,0,0,0,0,0,0,0,0,0,238,2,1,0,0,0,0,0,0,0,0,0,0,0,0,0,0,0,0,1.13,0
284,708,3,4,1,657,1,0,0,0,0,0,0,0,0,0,0,0,0,0,0,0,0,0,237,1,0,0,0,0,0,0,0,0,0,0,0,0,0,0,0,0,0,0.74,0
287,708,3,4,1,658,1,0,0,0,0,0,0,0,0,0,0,0,0,0,0,0,0,0,473,1,0,0,0,0,0,0,0,0,0,0,0,0,0,0,0,0,0,0.74,0
290,708,0,0,0,707,0,0,0,0,0,0,0,0,0,0,0,0,0,0,0,0,0,0,707,0,0,0,0,0,0,0,0,0,0,0,0,0,0,0,0,0,0,0.00,0
293,515,2,2,0,512,1,0,0,0,0,0,0,0,0,0,0,0,0,0,0,0,0,0,276,1,0,0,0,0,0,0,0,0,0,0,0,0,0,0,0,0,0,0.06,0
296,535,2,12,1,464,8,0,0,0,0,0,0,0,0,0,0,0,0,0,0,0,0,0,337,2,0,0,0,0,0,0,0,0,0,0,0,0,0,0,0,0,0,1.12,0
299,299,3,14,1,203,9,0,0,0,0,0,0,0,0,0,0,0,0,0,0,0,0,0,101,2,0,0,0,0,0,0,0,0,0,0,0,0,0,0,0,0,0,2.43,0
