pkt#,size,#dec,#op,#rung,#2gram,#3gram,#4gram,#5gram,#6gram,#7gram,#8gram,#9gram,#10gram,#11gram,#12gram,#13gram,#14gram,#15gram,#16gram,#17gram,#18gram,#19gram,#20gram,L2gram,L3gram,L4gram,L5gram,L6gram,L7gram,L8gram,L9gram,L10gram,L11gram,L12gram,L13gram,L14gram,L15gram,L16gram,L17gram,L18gram,L19gram,L20gram,entropy,class
41,708,0,0,0,707,0,0,0,0,0,0,0,0,0,0,0,0,0,0,0,0,0,0,707,0,0,0,0,0,0,0,0,0,0,0,0,0,0,0,0,0,0,0.00,0
44,708,0,0,0,707,0,0,0,0,0,0,0,0,0,0,0,0,0,0,0,0,0,0,707,0,0,0,0,0,0,0,0,0,0,0,0,0,0,0,0,0,0,0.00,0
47,708,0,0,0,707,0,0,0,0,0,0,0,0,0,0,0,0,0,0,0,0,0,0,707,0,0,0,0,0,0,0,0,0,0,0,0,0,0,0,0,0,0,0.00,0
50,708,0,0,0,707,0,0,0,0,0,0,0,0,0,0,0,0,0,0,0,0,0,0,707,0,0,0,0,0,0,0,0,0,0,0,0,0,0,0,0,0,0,0.00,0
53,708,0,0,0,707,0,0,0,0,0,0,0,0,0,0,0,0,0,0,0,0,0,0,707,0,0,0,0,0,0,0,0,0,0,0,0,0,0,0,0,0,0,0.00,0
56,708,0,0,0,707,0,0,0,0,0,0,0,0,0,0,0,0,0,0,0,0,0,0,707,0,0,0,0,0,0,0,0,0,0,0,0,0,0,0,0,0,0,0.00,0
59,708,0,0,0,707,0,0,0,0,0,0,0,0,0,0,0,0,0,0,0,0,0,0,707,0,0,0,0,0,0,0,0,0,0,0,0,0,0,0,0,0,0,0.00,0
62,708,0,0,0,707,0,0,0,0,0,0,0,0,0,0,0,0,0,0,0,0,0,0,707,0,0,0,0,0,0,0,0,0,0,0,0,0,0,0,0,0,0,0.00,0
65,708,0,0,0,707,0,0,0,0,0,0,0,0,0,0,0,0,0,0,0,0,0,0,707,0,0,0,0,0,0,0,0,0,0,0,0,0,0,0,0,0,0,0.00,0
68,708,0,0,0,707,0,0,0,0,0,0,0,0,0,0,0,0,0,0,0,0,0,0,707,0,0,0,0,0,0,0,0,0,0,0,0,0,0,0,0,0,0,0.00,0
71,708,0,0,0,707,0,0,0,0,0,0,0,0,0,0,0,0,0,0,0,0,0,0,707,0,0,0,0,0,0,0,0,0,0,0,0,0,0,0,0,0,0,0.00,0
74,708,0,0,0,707,0,0,0,0,0,0,0,0,0,0,0,0,0,0,0,0,0,0,707,0,0,0,0,0,0,0,0,0,0,0,0,0,0,0,0,0,0,0.00,0
77,708,0,0,0,707,0,0,0,0,0,0,0,0,0,0,0,0,0,0,0,0,0,0,707,0,0,0,0,0,0,0,0,0,0,0,0,0,0,0,0,0,0,0.00,0
80,708,0,0,0,707,0,0,0,0,0,0,0,0,0,0,0,0,0,0,0,0,0,0,707,0,0,0,0,0,0,0,0,0,0,0,0,0,0,0,0,0,0,0.00,0
83,708,0,0,0,707,0,0,0,0,0,0,0,0,0,0,0,0,0,0,0,0,0,0,707,0,0,0,0,0,0,0,0,0,0,0,0,0,0,0,0,0,0,0.00,0
86,708,0,0,0,707,0,0,0,0,0,0,0,0,0,0,0,0,0,0,0,0,0,0,707,0,0,0,0,0,0,0,0,0,0,0,0,0,0,0,0,0,0,0.00,0
89,708,0,0,0,707,0,0,0,0,0,0,0,0,0,0,0,0,0,0,0,0,0,0,707,0,0,0,0,0,0,0,0,0,0,0,0,0,0,0,0,0,0,0.00,0
92,708,0,0,0,707,0,0,0,0,0,0,0,0,0,0,0,0,0,0,0,0,0,0,707,0,0,0,0,0,0,0,0,0,0,0,0,0,0,0,0,0,0,0.00,0
95,708,2,3,1,689,3,0,0,0,0,0,0,0,0,0,0,0,0,0,0,0,0,0,423,2,0,0,0,0,0,0,0,0,0,0,0,0,0,0,0,0,0,0.21,0
98,708,2,3,1,689,3,0,0,0,0,0,0,0,0,0,0,0,0,0,0,0,0,0,483,2,0,0,0,0,0,0,0,0,0,0,0,0,0,0,0,0,0,0.21,0
101,547,2,2,1,531,2,0,0,0,0,0,0,0,0,0,0,0,0,0,0,0,0,0,279,2,0,0,0,0,0,0,0,0,0,0,0,0,0,0,0,0,0,0.26,0
104,503,32,8,4,493,15,5,1,0,0,0,0,0,0,0,0,0,0,0,0,0,0,0,243,7,5,1,0,0,0,0,0,0,0,0,0,0,0,0,0,0,0,0.46,1
107,708,2,4,1,491,1,0,0,0,0,0,0,0,0,0,0,0,0,0,0,0,0,0,236,1,0,0,0,0,0,0,0,0,0,0,0,0,0,0,0,0,0,2.90,0
110,708,2,4,1,256,0,0,0,0,0,0,0,0,0,0,0,0,0,0,0,0,0,0,235,0,0,0,0,0,0,0,0,0,0,0,0,0,0,0,0,0,0,5.67,0
113,708,3,3,1,237,1,0,0,0,0,0,0,0,0,0,0,0,0,0,0,0,0,0,236,1,0,0,0,0,0,0,0,0,0,0,0,0,0,0,0,0,0,5.98,0
116,563,4,16,1,278,4,2,0,0,0,0,0,0,0,0,0,0,0,0,0,0,0,0,240,4,1,0,0,0,0,0,0,0,0,0,0,0,0,0,0,0,0,4.58,0
119,644,4,11,1,549,13,1,0,0,0,0,0,0,0,0,0,0,0,0,0,0,0,0,237,2,1,0,0,0,0,0,0,0,0,0,0,0,0,0,0,0,0,1.26,0
122,708,3,4,1,656,1,0,0,0,0,0,0,0,0,0,0,0,0,0,0,0,0,0,237,1,0,0,0,0,0,0,0,0,0,0,0,0,0,0,0,0,0,0.76,0
125,708,3,4,1,657,1,0,0,0,0,0,0,0,0,0,0,0,0,0,0,0,0,0,473,1,0,0,0,0,0,0,0,0,0,0,0,0,0,0,0,0,0,0.76,0
128,708,0,0,0,707,0,0,0,0,0,0,0,0,0,0,0,0,0,0,0,0,0,0,707,0,0,0,0,0,0,0,0,0,0,0,0,0,0,0,0,0,0,0.00,0
131,647,2,2,0,644,1,0,0,0,0,0,0,0,0,0,0,0,0,0,0,0,0,0,408,1,0,0,0,0,0,0,0,0,0,0,0,0,0,0,0,0,0,0.05,0
134,535,2,10,1,460,9,0,0,0,0,0,0,0,0,0,0,0,0,0,0,0,0,0,263,2,0,0,0,0,0,0,0,0,0,0,0,0,0,0,0,0,0,1.23,0
137,299,2,10,1,200,10,0,0,0,0,0,0,0,0,0,0,0,0,0,0,0,0,0,66,2,0,0,0,0,0,0,0,0,0,0,0,0,0,0,0,0,0,2.59,0
271,708,2,4,1,256,0,0,0,0,0,0,0,0,0,0,0,0,0,0,0,0,0,0,235,0,0,0,0,0,0,0,0,0,0,0,0,0,0,0,0,0,0,5.67,0
274,708,3,4,1,21,0,0,0,0,0,0,0,0,0,0,0,0,0,0,0,0,0,0,6,0,0,0,0,0,0,0,0,0,0,0,0,0,0,0,0,0,0,7.65,0
277,708,4,3,1,188,4,2,0,0,0,0,0,0,0,0,0,0,0,0,0,0,0,0,149,4,1,0,0,0,0,0,0,0,0,0,0,0,0,0,0,0,0,6.37,0
280,563,4,16,1,278,4,2,0,0,0,0,0,0,0,0,0,0,0,0,0,0,0,0,240,4,1,0,0,0,0,0,0,0,0,0,0,0,0,0,0,0,0,4.58,0
286,413,2,10,1,314,10,0,0,0,0,0,0,0,0,0,0,0,0,0,0,0,0,0,141,2,0,0,0,0,0,0,0,0,0,0,0,0,0,0,0,0,0,2.01,0
339,413,2,10,1,314,10,0,0,0,0,0,0,0,0,0,0,0,0,0,0,0,0,0,141,2,0,0,0,0,0,0,0,0,0,0,0,0,0,0,0,0,0,2.01,0
