pkt#,size,#dec,#op,#rung,#2gram,#3gram,#4gram,#5gram,#6gram,#7gram,#8gram,#9gram,#10gram,#11gram,#12gram,#13gram,#14gram,#15gram,#16gram,#17gram,#18gram,#19gram,#20gram,L2gram,L3gram,L4gram,L5gram,L6gram,L7gram,L8gram,L9gram,L10gram,L11gram,L12gram,L13gram,L14gram,L15gram,L16gram,L17gram,L18gram,L19gram,L20gram,entropy,class
772,2,0,0,0,0,0,0,0,0,0,0,0,0,0,0,0,0,0,0,0,0,0,0,0,0,0,0,0,0,0,0,0,0,0,0,0,0,0,0,0,0,0,1.00,0
775,78,0,10,1,66,50,40,34,30,28,0,0,0,0,0,0,0,0,0,0,0,0,0,31,30,29,27,25,24,0,0,0,0,0,0,0,0,0,0,0,0,0,2.19,0
778,80,6,10,0,62,35,21,12,7,3,0,0,0,0,0,0,0,0,0,0,0,0,0,11,8,7,5,4,3,0,0,0,0,0,0,0,0,0,0,0,0,0,3.05,0
781,80,6,7,0,64,33,21,15,6,2,1,0,0,0,0,0,0,0,0,0,0,0,0,9,7,6,5,3,2,1,0,0,0,0,0,0,0,0,0,0,0,0,3.24,0
784,80,0,1,0,72,47,35,26,12,2,0,0,0,0,0,0,0,0,0,0,0,0,0,13,7,6,5,3,2,0,0,0,0,0,0,0,0,0,0,0,0,0,2.59,0
787,74,16,14,0,60,37,24,13,1,0,0,0,0,0,0,0,0,0,0,0,0,0,0,9,6,5,3,1,0,0,0,0,0,0,0,0,0,0,0,0,0,0,2.56,0
790,64,0,2,0,54,43,36,34,33,30,0,0,0,0,0,0,0,0,0,0,0,0,0,37,36,35,34,33,30,0,0,0,0,0,0,0,0,0,0,0,0,0,2.17,0
793,80,74,15,1,79,78,77,76,75,74,73,72,71,70,69,68,67,66,65,64,63,62,61,79,78,77,76,75,74,73,72,71,70,69,68,67,66,65,64,63,62,61,3.71,1
796,80,74,16,0,79,78,77,76,75,74,73,72,71,70,69,68,67,66,65,64,63,62,61,79,78,77,76,75,74,73,72,71,70,69,68,67,66,65,64,63,62,61,3.80,1
799,26,22,5,0,25,24,23,22,21,20,19,18,17,16,15,14,13,12,11,10,9,8,7,25,24,23,22,21,20,19,18,17,16,15,14,13,12,11,10,9,8,7,3.12,1
802,80,12,11,0,73,56,44,35,28,23,0,0,0,0,0,0,0,0,0,0,0,0,0,23,22,21,20,19,18,0,0,0,0,0,0,0,0,0,0,0,0,0,1.87,0
805,10,0,0,0,9,8,7,6,5,4,0,0,0,0,0,0,0,0,0,0,0,0,0,9,8,7,6,5,4,0,0,0,0,0,0,0,0,0,0,0,0,0,0.00,0
808,80,0,6,0,74,62,53,45,41,38,0,0,0,0,0,0,0,0,0,0,0,0,0,44,43,41,39,38,37,0,0,0,0,0,0,0,0,0,0,0,0,0,1.59,0
811,80,0,3,0,77,70,67,63,56,53,0,0,0,0,0,0,0,0,0,0,0,0,0,54,46,45,44,41,40,0,0,0,0,0,0,0,0,0,0,0,0,0,0.77,0
814,80,0,0,0,79,78,77,76,75,74,0,0,0,0,0,0,0,0,0,0,0,0,0,79,78,77,76,75,74,0,0,0,0,0,0,0,0,0,0,0,0,0,0.00,0
817,26,0,1,0,23,21,20,19,17,16,0,0,0,0,0,0,0,0,0,0,0,0,0,22,21,20,19,17,16,0,0,0,0,0,0,0,0,0,0,0,0,0,0.47,0
820,80,12,11,0,73,56,44,35,28,23,0,0,0,0,0,0,0,0,0,0,0,0,0,23,22,21,20,19,18,0,0,0,0,0,0,0,0,0,0,0,0,0,1.87,0
823,10,0,0,0,9,8,7,6,5,4,0,0,0,0,0,0,0,0,0,0,0,0,0,9,8,7,6,5,4,0,0,0,0,0,0,0,0,0,0,0,0,0,0.00,0
826,80,6,9,0,77,65,55,52,45,41,0,0,0,0,0,0,0,0,0,0,0,0,0,61,47,46,45,42,41,0,0,0,0,0,0,0,0,0,0,0,0,0,1.18,0
829,22,0,0,0,21,20,19,18,17,16,0,0,0,0,0,0,0,0,0,0,0,0,0,21,20,19,18,17,16,0,0,0,0,0,0,0,0,0,0,0,0,0,0.00,0
832,12,2,1,0,11,9,6,1,0,0,0,0,0,0,0,0,0,0,0,0,0,0,0,11,5,3,1,0,0,0,0,0,0,0,0,0,0,0,0,0,0,0,1.78,0
835,28,6,2,0,27,26,22,14,3,0,0,0,0,0,0,0,0,0,0,0,0,0,0,27,26,14,6,1,0,0,0,0,0,0,0,0,0,0,0,0,0,0,1.30,0
838,34,0,1,0,32,30,28,26,23,22,0,0,0,0,0,0,0,0,0,0,0,0,0,32,29,28,26,23,22,0,0,0,0,0,0,0,0,0,0,0,0,0,0.70,0
841,2,0,0,0,1,0,0,0,0,0,0,0,0,0,0,0,0,0,0,0,0,0,0,1,0,0,0,0,0,0,0,0,0,0,0,0,0,0,0,0,0,0,0.00,0
844,12,0,0,0,11,10,9,8,7,6,0,0,0,0,0,0,0,0,0,0,0,0,0,11,10,9,8,7,6,0,0,0,0,0,0,0,0,0,0,0,0,0,0.00,0
847,16,0,0,0,15,14,13,12,11,10,0,0,0,0,0,0,0,0,0,0,0,0,0,15,14,13,12,11,10,0,0,0,0,0,0,0,0,0,0,0,0,0,0.00,0
850,80,0,1,1,78,72,69,65,59,56,0,0,0,0,0,0,0,0,0,0,0,0,0,76,52,51,50,49,48,0,0,0,0,0,0,0,0,0,0,0,0,0,0.48,0
853,52,0,3,0,46,42,38,34,29,28,0,0,0,0,0,0,0,0,0,0,0,0,0,40,34,33,31,29,28,0,0,0,0,0,0,0,0,0,0,0,0,0,1.04,0
856,2,0,0,0,1,0,0,0,0,0,0,0,0,0,0,0,0,0,0,0,0,0,0,1,0,0,0,0,0,0,0,0,0,0,0,0,0,0,0,0,0,0,1.00,0
859,6,0,0,0,5,4,3,2,1,0,0,0,0,0,0,0,0,0,0,0,0,0,0,5,4,3,2,1,0,0,0,0,0,0,0,0,0,0,0,0,0,0,0.00,0
862,6,0,0,0,5,4,3,2,1,0,0,0,0,0,0,0,0,0,0,0,0,0,0,5,4,3,2,1,0,0,0,0,0,0,0,0,0,0,0,0,0,0,0.00,0
865,6,0,0,0,5,4,3,2,1,0,0,0,0,0,0,0,0,0,0,0,0,0,0,5,4,3,2,1,0,0,0,0,0,0,0,0,0,0,0,0,0,0,0.00,0
868,2,0,0,0,1,0,0,0,0,0,0,0,0,0,0,0,0,0,0,0,0,0,0,1,0,0,0,0,0,0,0,0,0,0,0,0,0,0,0,0,0,0,0.00,0
871,4,0,0,0,3,2,1,0,0,0,0,0,0,0,0,0,0,0,0,0,0,0,0,3,2,1,0,0,0,0,0,0,0,0,0,0,0,0,0,0,0,0,0.00,0
874,24,0,0,0,23,12,6,0,0,0,0,0,0,0,0,0,0,0,0,0,0,0,0,23,2,1,0,0,0,0,0,0,0,0,0,0,0,0,0,0,0,0,1.00,0
877,32,0,0,0,31,16,8,0,0,0,0,0,0,0,0,0,0,0,0,0,0,0,0,31,2,1,0,0,0,0,0,0,0,0,0,0,0,0,0,0,0,0,1.00,0
880,80,0,0,0,69,56,47,31,19,14,0,0,0,0,0,0,0,0,0,0,0,0,0,26,20,11,9,7,6,0,0,0,0,0,0,0,0,0,0,0,0,0,1.37,0
883,80,0,0,0,69,56,47,31,19,14,0,0,0,0,0,0,0,0,0,0,0,0,0,26,20,11,9,7,6,0,0,0,0,0,0,0,0,0,0,0,0,0,1.37,0
886,56,0,0,0,45,34,27,16,10,7,0,0,0,0,0,0,0,0,0,0,0,0,0,26,20,11,9,7,6,0,0,0,0,0,0,0,0,0,0,0,0,0,1.49,0
889,80,0,0,0,79,72,69,64,59,56,0,0,0,0,0,0,0,0,0,0,0,0,0,79,28,27,25,23,22,0,0,0,0,0,0,0,0,0,0,0,0,0,0.38,0
892,10,0,0,0,9,8,7,6,5,4,0,0,0,0,0,0,0,0,0,0,0,0,0,9,8,7,6,5,4,0,0,0,0,0,0,0,0,0,0,0,0,0,0.00,0
895,60,0,0,0,59,52,49,44,39,36,0,0,0,0,0,0,0,0,0,0,0,0,0,59,18,17,15,13,12,0,0,0,0,0,0,0,0,0,0,0,0,0,0.47,0
898,8,0,0,0,7,6,5,4,3,2,0,0,0,0,0,0,0,0,0,0,0,0,0,7,6,5,4,3,2,0,0,0,0,0,0,0,0,0,0,0,0,0,0.00,0
901,64,0,5,0,56,48,40,30,8,1,0,0,0,0,0,0,0,0,0,0,0,0,0,13,12,5,4,2,1,0,0,0,0,0,0,0,0,0,0,0,0,0,1.33,0
904,32,0,2,0,29,26,23,19,15,12,0,0,0,0,0,0,0,0,0,0,0,0,0,16,15,14,12,10,9,0,0,0,0,0,0,0,0,0,0,0,0,0,0.73,0
940,80,12,11,0,73,56,44,35,28,23,0,0,0,0,0,0,0,0,0,0,0,0,0,23,22,21,20,19,18,0,0,0,0,0,0,0,0,0,0,0,0,0,1.87,0
943,10,0,0,0,9,8,7,6,5,4,0,0,0,0,0,0,0,0,0,0,0,0,0,9,8,7,6,5,4,0,0,0,0,0,0,0,0,0,0,0,0,0,0.00,0
946,80,12,11,0,73,56,44,35,28,23,0,0,0,0,0,0,0,0,0,0,0,0,0,23,22,21,20,19,18,0,0,0,0,0,0,0,0,0,0,0,0,0,1.87,0
949,10,0,0,0,9,8,7,6,5,4,0,0,0,0,0,0,0,0,0,0,0,0,0,9,8,7,6,5,4,0,0,0,0,0,0,0,0,0,0,0,0,0,0.00,0
952,80,6,9,0,77,65,55,52,45,41,0,0,0,0,0,0,0,0,0,0,0,0,0,61,47,46,45,42,41,0,0,0,0,0,0,0,0,0,0,0,0,0,1.18,0
955,22,0,0,0,21,20,19,18,17,16,0,0,0,0,0,0,0,0,0,0,0,0,0,21,20,19,18,17,16,0,0,0,0,0,0,0,0,0,0,0,0,0,0.00,0
958,80,0,6,0,74,62,53,45,41,38,0,0,0,0,0,0,0,0,0,0,0,0,0,44,43,41,39,38,37,0,0,0,0,0,0,0,0,0,0,0,0,0,1.59,0
961,80,0,3,0,77,70,67,63,56,53,0,0,0,0,0,0,0,0,0,0,0,0,0,54,46,45,44,41,40,0,0,0,0,0,0,0,0,0,0,0,0,0,0.77,0
964,80,0,0,0,79,78,77,76,75,74,0,0,0,0,0,0,0,0,0,0,0,0,0,79,78,77,76,75,74,0,0,0,0,0,0,0,0,0,0,0,0,0,0.00,0
969,26,0,1,0,23,21,20,19,17,16,0,0,0,0,0,0,0,0,0,0,0,0,0,22,21,20,19,17,16,0,0,0,0,0,0,0,0,0,0,0,0,0,0.47,0
